EESchema Schematic File Version 4
EELAYER 30 0
EELAYER END
$Descr A4 11693 8268
encoding utf-8
Sheet 1 1
Title ""
Date ""
Rev ""
Comp ""
Comment1 ""
Comment2 ""
Comment3 ""
Comment4 ""
$EndDescr
$Comp
L Device:Rotary_Encoder SW1
U 1 1 5E39C118
P 4100 2500
F 0 "SW1" V 4089 2270 50  0000 R CNN
F 1 "Rotary_Encoder" V 3998 2270 50  0000 R CNN
F 2 "Rotary_Encoder:RotaryEncoder_Alps_EC12E_Vertical_H20mm" H 3950 2660 50  0001 C CNN
F 3 "~" H 4100 2760 50  0001 C CNN
	1    4100 2500
	0    -1   -1   0   
$EndComp
$Comp
L power:GND #PWR0101
U 1 1 5E39D44C
P 4100 3000
F 0 "#PWR0101" H 4100 2750 50  0001 C CNN
F 1 "GND" H 4105 2827 50  0000 C CNN
F 2 "" H 4100 3000 50  0001 C CNN
F 3 "" H 4100 3000 50  0001 C CNN
	1    4100 3000
	1    0    0    -1  
$EndComp
Wire Wire Line
	4100 2800 4100 3000
$Comp
L Device:C C1
U 1 1 5E39D893
P 3550 2950
F 0 "C1" H 3665 2996 50  0000 L CNN
F 1 "100n" H 3665 2905 50  0000 L CNN
F 2 "Capacitor_SMD:C_0805_2012Metric_Pad1.15x1.40mm_HandSolder" H 3588 2800 50  0001 C CNN
F 3 "~" H 3550 2950 50  0001 C CNN
	1    3550 2950
	1    0    0    -1  
$EndComp
$Comp
L Device:C C2
U 1 1 5E39DBC2
P 4600 2950
F 0 "C2" H 4715 2996 50  0000 L CNN
F 1 "100n" H 4715 2905 50  0000 L CNN
F 2 "Capacitor_SMD:C_0805_2012Metric_Pad1.15x1.40mm_HandSolder" H 4638 2800 50  0001 C CNN
F 3 "~" H 4600 2950 50  0001 C CNN
	1    4600 2950
	1    0    0    -1  
$EndComp
Wire Wire Line
	4000 2800 3550 2800
Wire Wire Line
	4200 2800 4600 2800
Wire Wire Line
	4600 3100 4600 3200
Wire Wire Line
	3550 3100 3550 3200
$Comp
L power:GND #PWR0102
U 1 1 5E3A1C1E
P 4600 3200
F 0 "#PWR0102" H 4600 2950 50  0001 C CNN
F 1 "GND" H 4605 3027 50  0000 C CNN
F 2 "" H 4600 3200 50  0001 C CNN
F 3 "" H 4600 3200 50  0001 C CNN
	1    4600 3200
	1    0    0    -1  
$EndComp
$Comp
L power:GND #PWR0103
U 1 1 5E3A2140
P 3550 3200
F 0 "#PWR0103" H 3550 2950 50  0001 C CNN
F 1 "GND" H 3555 3027 50  0000 C CNN
F 2 "" H 3550 3200 50  0001 C CNN
F 3 "" H 3550 3200 50  0001 C CNN
	1    3550 3200
	1    0    0    -1  
$EndComp
$Comp
L Device:R R2
U 1 1 5E3A246C
P 3550 2200
F 0 "R2" H 3620 2246 50  0000 L CNN
F 1 "10k" H 3620 2155 50  0000 L CNN
F 2 "Resistor_SMD:R_0805_2012Metric_Pad1.15x1.40mm_HandSolder" V 3480 2200 50  0001 C CNN
F 3 "~" H 3550 2200 50  0001 C CNN
	1    3550 2200
	1    0    0    -1  
$EndComp
$Comp
L Device:R R3
U 1 1 5E3A2DBB
P 4600 2200
F 0 "R3" H 4670 2246 50  0000 L CNN
F 1 "10k" H 4670 2155 50  0000 L CNN
F 2 "Resistor_SMD:R_0805_2012Metric_Pad1.15x1.40mm_HandSolder" V 4530 2200 50  0001 C CNN
F 3 "~" H 4600 2200 50  0001 C CNN
	1    4600 2200
	1    0    0    -1  
$EndComp
$Comp
L Device:R R1
U 1 1 5E3A31FA
P 3100 2800
F 0 "R1" V 3307 2800 50  0000 C CNN
F 1 "10k" V 3216 2800 50  0000 C CNN
F 2 "Resistor_SMD:R_0805_2012Metric_Pad1.15x1.40mm_HandSolder" V 3030 2800 50  0001 C CNN
F 3 "~" H 3100 2800 50  0001 C CNN
	1    3100 2800
	0    -1   -1   0   
$EndComp
$Comp
L Device:R R4
U 1 1 5E3A34E7
P 5050 2800
F 0 "R4" V 5257 2800 50  0000 C CNN
F 1 "10k" V 5166 2800 50  0000 C CNN
F 2 "Resistor_SMD:R_0805_2012Metric_Pad1.15x1.40mm_HandSolder" V 4980 2800 50  0001 C CNN
F 3 "~" H 5050 2800 50  0001 C CNN
	1    5050 2800
	0    -1   -1   0   
$EndComp
Wire Wire Line
	4600 2800 4900 2800
Connection ~ 4600 2800
Wire Wire Line
	4600 2350 4600 2800
Wire Wire Line
	4600 2050 4100 2050
Wire Wire Line
	3550 2350 3550 2800
Connection ~ 3550 2800
Wire Wire Line
	3550 2800 3250 2800
$Comp
L power:+3.3V #PWR0104
U 1 1 5E3ADC35
P 4100 1850
F 0 "#PWR0104" H 4100 1700 50  0001 C CNN
F 1 "+3.3V" H 4115 2023 50  0000 C CNN
F 2 "" H 4100 1850 50  0001 C CNN
F 3 "" H 4100 1850 50  0001 C CNN
	1    4100 1850
	1    0    0    -1  
$EndComp
Wire Wire Line
	4100 1850 4100 2050
Connection ~ 4100 2050
Wire Wire Line
	4100 2050 3550 2050
Text Label 2600 2800 0    50   ~ 0
MCU
Text Label 5350 2800 0    50   ~ 0
MCU
Wire Wire Line
	5200 2800 5350 2800
Wire Wire Line
	2600 2800 2950 2800
$EndSCHEMATC
