EESchema Schematic File Version 4
LIBS:Water_Plant-cache
EELAYER 30 0
EELAYER END
$Descr A4 11693 8268
encoding utf-8
Sheet 2 7
Title ""
Date ""
Rev ""
Comp ""
Comment1 ""
Comment2 ""
Comment3 ""
Comment4 ""
$EndDescr
Wire Wire Line
	3900 4350 3900 4400
Wire Wire Line
	3600 4350 3900 4350
$Comp
L Device:D D1
U 1 1 5E388D7D
P 2700 3600
F 0 "D1" H 2700 3816 50  0000 C CNN
F 1 "D" H 2700 3725 50  0000 C CNN
F 2 "Diode_SMD:D_SOD-123F" H 2700 3600 50  0001 C CNN
F 3 "~" H 2700 3600 50  0001 C CNN
	1    2700 3600
	-1   0    0    1   
$EndComp
Wire Wire Line
	3900 3600 2850 3600
$Comp
L Device:C_Small C14
U 1 1 5E389AB5
P 3900 3900
F 0 "C14" H 3992 3946 50  0000 L CNN
F 1 "100n" H 3992 3855 50  0000 L CNN
F 2 "Capacitor_SMD:C_0805_2012Metric" H 3900 3900 50  0001 C CNN
F 3 "~" H 3900 3900 50  0001 C CNN
	1    3900 3900
	1    0    0    -1  
$EndComp
Wire Wire Line
	4050 3600 3900 3600
Wire Wire Line
	3900 4250 4050 4250
Wire Wire Line
	3900 4000 3900 4050
Wire Wire Line
	3900 3600 3900 3800
$Comp
L Device:D_Schottky D3
U 1 1 5E38B266
P 4250 5300
F 0 "D3" V 4100 5450 50  0000 L CNN
F 1 "D_Schottky" V 4000 5400 50  0000 L CNN
F 2 "Diode_SMD:D_Powermite_KA" H 4250 5300 50  0001 C CNN
F 3 "~" H 4250 5300 50  0001 C CNN
	1    4250 5300
	0    1    1    0   
$EndComp
$Comp
L Device:R R9
U 1 1 5E38F7E2
P 3400 5750
F 0 "R9" H 3470 5796 50  0000 L CNN
F 1 "20k" H 3470 5705 50  0000 L CNN
F 2 "Resistor_SMD:R_0805_2012Metric" V 3330 5750 50  0001 C CNN
F 3 "~" H 3400 5750 50  0001 C CNN
	1    3400 5750
	1    0    0    -1  
$EndComp
$Comp
L Water_Plant-rescue:LT3505EMS8ETR-LT3505EMS8ETR U3
U 1 1 5E387D6D
P 4050 4150
F 0 "U3" H 5250 4515 50  0000 C CNN
F 1 "LT3505EMS8ETR" H 5250 4424 50  0000 C CNN
F 2 "Package_SO:MSOP-8-1EP_3x3mm_P0.65mm_EP1.95x2.15mm_ThermalVias" H 4050 4150 50  0001 L BNN
F 3 "Linear Technology" H 4050 4150 50  0001 L BNN
F 4 "lt3505ems8e#tr" H 4050 4150 50  0001 L BNN "Field4"
	1    4050 4150
	1    0    0    -1  
$EndComp
Wire Wire Line
	4050 3600 4050 4150
$Comp
L power:GND #PWR023
U 1 1 5E38A50E
P 3900 4750
F 0 "#PWR023" H 3900 4500 50  0001 C CNN
F 1 "GND" H 3905 4577 50  0000 C CNN
F 2 "" H 3900 4750 50  0001 C CNN
F 3 "" H 3900 4750 50  0001 C CNN
	1    3900 4750
	1    0    0    -1  
$EndComp
Wire Wire Line
	3900 4600 3900 4750
$Comp
L Device:R R5
U 1 1 5E39277C
P 2500 4250
F 0 "R5" H 2570 4296 50  0000 L CNN
F 1 "30k" H 2570 4205 50  0000 L CNN
F 2 "Resistor_SMD:R_0805_2012Metric" V 2430 4250 50  0001 C CNN
F 3 "~" H 2500 4250 50  0001 C CNN
	1    2500 4250
	1    0    0    -1  
$EndComp
$Comp
L Device:R R6
U 1 1 5E392782
P 2500 4650
F 0 "R6" H 2570 4696 50  0000 L CNN
F 1 "2.2k" H 2570 4605 50  0000 L CNN
F 2 "Resistor_SMD:R_0805_2012Metric" V 2430 4650 50  0001 C CNN
F 3 "~" H 2500 4650 50  0001 C CNN
	1    2500 4650
	1    0    0    -1  
$EndComp
Connection ~ 3600 4350
Wire Wire Line
	3900 4050 3650 4050
Connection ~ 3900 4050
Wire Wire Line
	3900 4050 3900 4250
$Comp
L Device:L L1
U 1 1 5E393FFC
P 3250 4050
F 0 "L1" V 3440 4050 50  0000 C CNN
F 1 "3.3u" V 3349 4050 50  0000 C CNN
F 2 "Footprints:TCK-044-Inductor" H 3250 4050 50  0001 C CNN
F 3 "~" H 3250 4050 50  0001 C CNN
	1    3250 4050
	0    -1   -1   0   
$EndComp
Wire Wire Line
	2500 4050 2500 4100
Wire Wire Line
	2500 4400 2500 4500
$Comp
L Device:R R7
U 1 1 5E396E0D
P 2500 5050
F 0 "R7" H 2570 5096 50  0000 L CNN
F 1 "10k" H 2570 5005 50  0000 L CNN
F 2 "Resistor_SMD:R_0805_2012Metric" V 2430 5050 50  0001 C CNN
F 3 "~" H 2500 5050 50  0001 C CNN
	1    2500 5050
	1    0    0    -1  
$EndComp
Wire Wire Line
	2500 4800 2500 4850
$Comp
L Device:C C13
U 1 1 5E3972EE
P 2900 4550
F 0 "C13" H 3015 4596 50  0000 L CNN
F 1 "22p" H 3015 4505 50  0000 L CNN
F 2 "Capacitor_SMD:C_0805_2012Metric" H 2938 4400 50  0001 C CNN
F 3 "~" H 2900 4550 50  0001 C CNN
	1    2900 4550
	1    0    0    -1  
$EndComp
Wire Wire Line
	2500 4050 2900 4050
Wire Wire Line
	2900 4400 2900 4050
Connection ~ 2900 4050
Wire Wire Line
	2900 4050 3100 4050
Connection ~ 2500 4850
Wire Wire Line
	2500 4850 2500 4900
Wire Wire Line
	2900 4700 2900 4850
Wire Wire Line
	2500 4850 2900 4850
$Comp
L power:GND #PWR020
U 1 1 5E39A935
P 2500 5300
F 0 "#PWR020" H 2500 5050 50  0001 C CNN
F 1 "GND" H 2505 5127 50  0000 C CNN
F 2 "" H 2500 5300 50  0001 C CNN
F 3 "" H 2500 5300 50  0001 C CNN
	1    2500 5300
	1    0    0    -1  
$EndComp
Wire Wire Line
	2500 5300 2500 5200
Wire Wire Line
	2150 4350 2150 4050
Connection ~ 2500 4050
$Comp
L power:GND #PWR019
U 1 1 5E39C27E
P 2150 5300
F 0 "#PWR019" H 2150 5050 50  0001 C CNN
F 1 "GND" H 2155 5127 50  0000 C CNN
F 2 "" H 2150 5300 50  0001 C CNN
F 3 "" H 2150 5300 50  0001 C CNN
	1    2150 5300
	1    0    0    -1  
$EndComp
Wire Wire Line
	2150 5300 2150 4650
Wire Wire Line
	1850 4050 1950 4050
Connection ~ 2150 4050
Wire Wire Line
	2150 4050 2500 4050
Connection ~ 3900 3600
Wire Wire Line
	2550 3600 2150 3600
Wire Wire Line
	2150 3600 2150 4050
$Comp
L Device:C_Small C15
U 1 1 5E3A09C3
P 3900 4500
F 0 "C15" H 3800 4300 50  0000 L CNN
F 1 "100n" H 3750 4250 50  0000 L CNN
F 2 "Capacitor_SMD:C_0805_2012Metric" H 3900 4500 50  0001 C CNN
F 3 "~" H 3900 4500 50  0001 C CNN
	1    3900 4500
	1    0    0    -1  
$EndComp
$Comp
L Device:CP C12
U 1 1 5E3A2248
P 2150 4500
F 0 "C12" H 2268 4546 50  0000 L CNN
F 1 "10u" H 2268 4455 50  0000 L CNN
F 2 "Capacitor_SMD:C_0805_2012Metric" H 2188 4350 50  0001 C CNN
F 3 "~" H 2150 4500 50  0001 C CNN
	1    2150 4500
	1    0    0    -1  
$EndComp
Wire Wire Line
	3400 4350 3600 4350
$Comp
L power:GND #PWR021
U 1 1 5E3B1BB9
P 3400 6000
F 0 "#PWR021" H 3400 5750 50  0001 C CNN
F 1 "GND" H 3405 5827 50  0000 C CNN
F 2 "" H 3400 6000 50  0001 C CNN
F 3 "" H 3400 6000 50  0001 C CNN
	1    3400 6000
	1    0    0    -1  
$EndComp
Wire Wire Line
	3400 6000 3400 5900
Wire Wire Line
	6450 4250 6650 4250
Wire Wire Line
	3400 5600 3600 5600
Wire Wire Line
	6450 4350 6650 4350
Connection ~ 3900 4350
Connection ~ 3400 5600
Wire Wire Line
	6450 4150 6450 4050
Wire Wire Line
	6450 4050 6850 4050
Wire Wire Line
	6850 4050 6850 4600
$Comp
L Device:R R11
U 1 1 5E3C41EA
P 6850 4750
F 0 "R11" H 6920 4796 50  0000 L CNN
F 1 "100k" H 6920 4705 50  0000 L CNN
F 2 "Resistor_SMD:R_0805_2012Metric" V 6780 4750 50  0001 C CNN
F 3 "~" H 6850 4750 50  0001 C CNN
	1    6850 4750
	1    0    0    -1  
$EndComp
$Comp
L Device:C C17
U 1 1 5E3C50E9
P 6850 5200
F 0 "C17" H 6965 5246 50  0000 L CNN
F 1 "22p" H 6965 5155 50  0000 L CNN
F 2 "Capacitor_SMD:C_0805_2012Metric" H 6888 5050 50  0001 C CNN
F 3 "~" H 6850 5200 50  0001 C CNN
	1    6850 5200
	1    0    0    -1  
$EndComp
Wire Wire Line
	6850 5050 6850 4900
$Comp
L power:GND #PWR028
U 1 1 5E3C75B8
P 6850 5500
F 0 "#PWR028" H 6850 5250 50  0001 C CNN
F 1 "GND" H 6855 5327 50  0000 C CNN
F 2 "" H 6850 5500 50  0001 C CNN
F 3 "" H 6850 5500 50  0001 C CNN
	1    6850 5500
	1    0    0    -1  
$EndComp
Wire Wire Line
	6850 5350 6850 5500
$Comp
L power:GND #PWR027
U 1 1 5E3C81E5
P 6450 4600
F 0 "#PWR027" H 6450 4350 50  0001 C CNN
F 1 "GND" H 6455 4427 50  0000 C CNN
F 2 "" H 6450 4600 50  0001 C CNN
F 3 "" H 6450 4600 50  0001 C CNN
	1    6450 4600
	1    0    0    -1  
$EndComp
Wire Wire Line
	6450 4450 6450 4600
$Comp
L Device:D_Zener D2
U 1 1 5E3CAD58
P 3400 4500
F 0 "D2" V 3354 4579 50  0000 L CNN
F 1 "D_Zener" V 3445 4579 50  0000 L CNN
F 2 "Diode_SMD:D_SOD-123F" H 3400 4500 50  0001 C CNN
F 3 "~" H 3400 4500 50  0001 C CNN
	1    3400 4500
	0    1    1    0   
$EndComp
Wire Wire Line
	4250 5150 4250 5050
$Comp
L power:GND #PWR024
U 1 1 5E3D0988
P 4250 5600
F 0 "#PWR024" H 4250 5350 50  0001 C CNN
F 1 "GND" H 4255 5427 50  0000 C CNN
F 2 "" H 4250 5600 50  0001 C CNN
F 3 "" H 4250 5600 50  0001 C CNN
	1    4250 5600
	1    0    0    -1  
$EndComp
Wire Wire Line
	4250 5450 4250 5600
Wire Wire Line
	3600 4350 3600 4300
Wire Wire Line
	3650 4000 3650 4050
Connection ~ 3650 4050
Wire Wire Line
	3650 4050 3400 4050
Wire Wire Line
	6650 4400 6650 4350
Wire Wire Line
	6650 4250 6650 4200
Text Label 3650 4000 1    50   ~ 0
SW
Text Label 4250 5050 1    50   ~ 0
SW
Text Label 2900 4850 2    50   ~ 0
FB
Text Label 3600 5600 2    50   ~ 0
Rt
Text Label 6650 4400 3    50   ~ 0
Rt
Text Label 6650 4200 1    50   ~ 0
FB
$Comp
L Device:R R4
U 1 1 5E3DD962
P 1700 4050
F 0 "R4" V 1907 4050 50  0000 C CNN
F 1 "0" V 1816 4050 50  0000 C CNN
F 2 "Resistor_SMD:R_0805_2012Metric" V 1630 4050 50  0001 C CNN
F 3 "~" H 1700 4050 50  0001 C CNN
	1    1700 4050
	0    -1   -1   0   
$EndComp
Wire Wire Line
	1550 4050 1400 4050
$Comp
L Device:R R8
U 1 1 5E3E0229
P 3400 5150
F 0 "R8" H 3470 5196 50  0000 L CNN
F 1 "1Meg" H 3470 5105 50  0000 L CNN
F 2 "Resistor_SMD:R_0805_2012Metric" V 3330 5150 50  0001 C CNN
F 3 "~" H 3400 5150 50  0001 C CNN
	1    3400 5150
	1    0    0    -1  
$EndComp
Wire Wire Line
	3400 4650 3400 5000
Wire Wire Line
	3400 5300 3400 5600
Wire Wire Line
	3900 4350 4050 4350
Text Label 4100 4750 0    50   ~ 0
Soft-start
Text Label 5600 5650 0    50   ~ 0
Soft-start
$Comp
L Device:R R10
U 1 1 5E3E4C16
P 5400 5300
F 0 "R10" H 5470 5346 50  0000 L CNN
F 1 "20k" H 5470 5255 50  0000 L CNN
F 2 "Resistor_SMD:R_0805_2012Metric" V 5330 5300 50  0001 C CNN
F 3 "~" H 5400 5300 50  0001 C CNN
	1    5400 5300
	1    0    0    -1  
$EndComp
$Comp
L Device:C C16
U 1 1 5E3E4ED1
P 5400 6000
F 0 "C16" H 5515 6046 50  0000 L CNN
F 1 "100n" H 5515 5955 50  0000 L CNN
F 2 "Capacitor_SMD:C_0805_2012Metric" H 5438 5850 50  0001 C CNN
F 3 "~" H 5400 6000 50  0001 C CNN
	1    5400 6000
	1    0    0    -1  
$EndComp
Wire Wire Line
	5400 5450 5400 5650
Wire Wire Line
	5400 5650 5600 5650
Connection ~ 5400 5650
Wire Wire Line
	5400 5650 5400 5850
$Comp
L power:+12V #PWR022
U 1 1 5E3860DB
P 3600 4300
F 0 "#PWR022" H 3600 4150 50  0001 C CNN
F 1 "+12V" H 3615 4473 50  0000 C CNN
F 2 "" H 3600 4300 50  0001 C CNN
F 3 "" H 3600 4300 50  0001 C CNN
	1    3600 4300
	1    0    0    -1  
$EndComp
$Comp
L power:+12V #PWR025
U 1 1 5E3E8EF7
P 5400 5100
F 0 "#PWR025" H 5400 4950 50  0001 C CNN
F 1 "+12V" H 5415 5273 50  0000 C CNN
F 2 "" H 5400 5100 50  0001 C CNN
F 3 "" H 5400 5100 50  0001 C CNN
	1    5400 5100
	1    0    0    -1  
$EndComp
Wire Wire Line
	5400 5150 5400 5100
$Comp
L power:GND #PWR026
U 1 1 5E3EADC4
P 5400 6300
F 0 "#PWR026" H 5400 6050 50  0001 C CNN
F 1 "GND" H 5405 6127 50  0000 C CNN
F 2 "" H 5400 6300 50  0001 C CNN
F 3 "" H 5400 6300 50  0001 C CNN
	1    5400 6300
	1    0    0    -1  
$EndComp
Wire Wire Line
	5400 6150 5400 6300
Wire Wire Line
	4050 4750 4100 4750
Wire Wire Line
	4050 4450 4050 4750
$Comp
L Device:R R12
U 1 1 5E3B47E4
P 7950 4150
F 0 "R12" H 8020 4196 50  0000 L CNN
F 1 "1k" H 8020 4105 50  0000 L CNN
F 2 "Resistor_SMD:R_0805_2012Metric" V 7880 4150 50  0001 C CNN
F 3 "~" H 7950 4150 50  0001 C CNN
	1    7950 4150
	1    0    0    -1  
$EndComp
$Comp
L power:+12V #PWR029
U 1 1 5E3B47EA
P 7950 3950
F 0 "#PWR029" H 7950 3800 50  0001 C CNN
F 1 "+12V" H 7965 4123 50  0000 C CNN
F 2 "" H 7950 3950 50  0001 C CNN
F 3 "" H 7950 3950 50  0001 C CNN
	1    7950 3950
	1    0    0    -1  
$EndComp
Wire Wire Line
	7950 4000 7950 3950
$Comp
L Device:LED D4
U 1 1 5E3B5A2E
P 7950 4600
F 0 "D4" V 7989 4483 50  0000 R CNN
F 1 "LED" V 7898 4483 50  0000 R CNN
F 2 "LED_SMD:LED_0805_2012Metric_Pad1.15x1.40mm_HandSolder" H 7950 4600 50  0001 C CNN
F 3 "~" H 7950 4600 50  0001 C CNN
	1    7950 4600
	0    -1   -1   0   
$EndComp
Wire Wire Line
	7950 4300 7950 4450
$Comp
L power:GND #PWR030
U 1 1 5E3B7DC5
P 7950 4850
F 0 "#PWR030" H 7950 4600 50  0001 C CNN
F 1 "GND" H 7955 4677 50  0000 C CNN
F 2 "" H 7950 4850 50  0001 C CNN
F 3 "" H 7950 4850 50  0001 C CNN
	1    7950 4850
	1    0    0    -1  
$EndComp
Wire Wire Line
	7950 4850 7950 4750
$Comp
L Device:R R13
U 1 1 5E3BCCE1
P 8600 4150
F 0 "R13" H 8670 4196 50  0000 L CNN
F 1 "220" H 8670 4105 50  0000 L CNN
F 2 "Resistor_SMD:R_0805_2012Metric" V 8530 4150 50  0001 C CNN
F 3 "~" H 8600 4150 50  0001 C CNN
	1    8600 4150
	1    0    0    -1  
$EndComp
Wire Wire Line
	8600 4000 8600 3950
$Comp
L Device:LED D5
U 1 1 5E3BCCEE
P 8600 4600
F 0 "D5" V 8639 4483 50  0000 R CNN
F 1 "LED" V 8548 4483 50  0000 R CNN
F 2 "LED_SMD:LED_0805_2012Metric_Pad1.15x1.40mm_HandSolder" H 8600 4600 50  0001 C CNN
F 3 "~" H 8600 4600 50  0001 C CNN
	1    8600 4600
	0    -1   -1   0   
$EndComp
Wire Wire Line
	8600 4300 8600 4450
$Comp
L power:GND #PWR032
U 1 1 5E3BCCF5
P 8600 4850
F 0 "#PWR032" H 8600 4600 50  0001 C CNN
F 1 "GND" H 8605 4677 50  0000 C CNN
F 2 "" H 8600 4850 50  0001 C CNN
F 3 "" H 8600 4850 50  0001 C CNN
	1    8600 4850
	1    0    0    -1  
$EndComp
Wire Wire Line
	8600 4850 8600 4750
$Comp
L power:+3.3V #PWR031
U 1 1 5E3BEE2D
P 8600 3950
F 0 "#PWR031" H 8600 3800 50  0001 C CNN
F 1 "+3.3V" H 8615 4123 50  0000 C CNN
F 2 "" H 8600 3950 50  0001 C CNN
F 3 "" H 8600 3950 50  0001 C CNN
	1    8600 3950
	1    0    0    -1  
$EndComp
$Comp
L power:+3.3V #PWR018
U 1 1 5E3BFF1F
P 1400 4050
F 0 "#PWR018" H 1400 3900 50  0001 C CNN
F 1 "+3.3V" H 1415 4223 50  0000 C CNN
F 2 "" H 1400 4050 50  0001 C CNN
F 3 "" H 1400 4050 50  0001 C CNN
	1    1400 4050
	1    0    0    -1  
$EndComp
$Comp
L Connector:TestPoint 3.3V1
U 1 1 5E44BBC8
P 1950 4050
F 0 "3.3V1" H 2008 4168 50  0000 L CNN
F 1 "TestPoint" H 2008 4077 50  0000 L CNN
F 2 "TestPoint:TestPoint_Pad_1.0x1.0mm" H 2150 4050 50  0001 C CNN
F 3 "~" H 2150 4050 50  0001 C CNN
	1    1950 4050
	1    0    0    -1  
$EndComp
Connection ~ 1950 4050
Wire Wire Line
	1950 4050 2150 4050
Text Label 4050 3600 0    50   ~ 0
Boost
Text Label 2250 3600 1    50   ~ 0
Vout
$Comp
L power:GND #PWR0110
U 1 1 5E46B1DB
P 5200 4800
F 0 "#PWR0110" H 5200 4550 50  0001 C CNN
F 1 "GND" H 5205 4627 50  0000 C CNN
F 2 "" H 5200 4800 50  0001 C CNN
F 3 "" H 5200 4800 50  0001 C CNN
	1    5200 4800
	1    0    0    -1  
$EndComp
Wire Wire Line
	5200 4800 5200 4750
$EndSCHEMATC
