EESchema Schematic File Version 4
LIBS:Water_Plant-cache
EELAYER 30 0
EELAYER END
$Descr A4 11693 8268
encoding utf-8
Sheet 3 7
Title ""
Date ""
Rev ""
Comp ""
Comment1 ""
Comment2 ""
Comment3 ""
Comment4 ""
$EndDescr
$Comp
L Device:Rotary_Encoder SW2
U 1 1 5E39C118
P 4100 2500
F 0 "SW2" V 4089 2270 50  0000 R CNN
F 1 "Rotary_Encoder" V 3998 2270 50  0000 R CNN
F 2 "Rotary_Encoder:RotaryEncoder_Alps_EC12E_Vertical_H20mm" H 3950 2660 50  0001 C CNN
F 3 "~" H 4100 2760 50  0001 C CNN
	1    4100 2500
	0    -1   -1   0   
$EndComp
$Comp
L power:GND #PWR035
U 1 1 5E39D44C
P 4100 3750
F 0 "#PWR035" H 4100 3500 50  0001 C CNN
F 1 "GND" H 4105 3577 50  0000 C CNN
F 2 "" H 4100 3750 50  0001 C CNN
F 3 "" H 4100 3750 50  0001 C CNN
	1    4100 3750
	1    0    0    -1  
$EndComp
$Comp
L Device:C C18
U 1 1 5E39D893
P 3550 3700
F 0 "C18" H 3665 3746 50  0000 L CNN
F 1 "10n" H 3665 3655 50  0000 L CNN
F 2 "Capacitor_SMD:C_0805_2012Metric_Pad1.15x1.40mm_HandSolder" H 3588 3550 50  0001 C CNN
F 3 "~" H 3550 3700 50  0001 C CNN
	1    3550 3700
	1    0    0    -1  
$EndComp
$Comp
L Device:C C19
U 1 1 5E39DBC2
P 4600 3700
F 0 "C19" H 4715 3746 50  0000 L CNN
F 1 "10n" H 4715 3655 50  0000 L CNN
F 2 "Capacitor_SMD:C_0805_2012Metric_Pad1.15x1.40mm_HandSolder" H 4638 3550 50  0001 C CNN
F 3 "~" H 4600 3700 50  0001 C CNN
	1    4600 3700
	1    0    0    -1  
$EndComp
Wire Wire Line
	4000 2800 3550 2800
Wire Wire Line
	4200 2800 4600 2800
Wire Wire Line
	4600 3850 4600 3950
Wire Wire Line
	3550 3850 3550 3950
$Comp
L power:GND #PWR036
U 1 1 5E3A1C1E
P 4600 3950
F 0 "#PWR036" H 4600 3700 50  0001 C CNN
F 1 "GND" H 4605 3777 50  0000 C CNN
F 2 "" H 4600 3950 50  0001 C CNN
F 3 "" H 4600 3950 50  0001 C CNN
	1    4600 3950
	1    0    0    -1  
$EndComp
$Comp
L power:GND #PWR033
U 1 1 5E3A2140
P 3550 3950
F 0 "#PWR033" H 3550 3700 50  0001 C CNN
F 1 "GND" H 3555 3777 50  0000 C CNN
F 2 "" H 3550 3950 50  0001 C CNN
F 3 "" H 3550 3950 50  0001 C CNN
	1    3550 3950
	1    0    0    -1  
$EndComp
$Comp
L Device:R R15
U 1 1 5E3A246C
P 3550 2200
F 0 "R15" H 3620 2246 50  0000 L CNN
F 1 "10k" H 3620 2155 50  0000 L CNN
F 2 "Resistor_SMD:R_0805_2012Metric_Pad1.15x1.40mm_HandSolder" V 3480 2200 50  0001 C CNN
F 3 "~" H 3550 2200 50  0001 C CNN
	1    3550 2200
	1    0    0    -1  
$EndComp
$Comp
L Device:R R16
U 1 1 5E3A2DBB
P 4600 2200
F 0 "R16" H 4670 2246 50  0000 L CNN
F 1 "10k" H 4670 2155 50  0000 L CNN
F 2 "Resistor_SMD:R_0805_2012Metric_Pad1.15x1.40mm_HandSolder" V 4530 2200 50  0001 C CNN
F 3 "~" H 4600 2200 50  0001 C CNN
	1    4600 2200
	1    0    0    -1  
$EndComp
$Comp
L Device:R R14
U 1 1 5E3A31FA
P 3550 3200
F 0 "R14" V 3757 3200 50  0000 C CNN
F 1 "10k" V 3666 3200 50  0000 C CNN
F 2 "Resistor_SMD:R_0805_2012Metric_Pad1.15x1.40mm_HandSolder" V 3480 3200 50  0001 C CNN
F 3 "~" H 3550 3200 50  0001 C CNN
	1    3550 3200
	-1   0    0    1   
$EndComp
$Comp
L Device:R R17
U 1 1 5E3A34E7
P 4600 3150
F 0 "R17" V 4807 3150 50  0000 C CNN
F 1 "10k" V 4716 3150 50  0000 C CNN
F 2 "Resistor_SMD:R_0805_2012Metric_Pad1.15x1.40mm_HandSolder" V 4530 3150 50  0001 C CNN
F 3 "~" H 4600 3150 50  0001 C CNN
	1    4600 3150
	-1   0    0    1   
$EndComp
Connection ~ 4600 2800
Wire Wire Line
	4600 2350 4600 2800
Connection ~ 3550 2800
$Comp
L power:+3.3V #PWR034
U 1 1 5E3ADC35
P 4100 1550
F 0 "#PWR034" H 4100 1400 50  0001 C CNN
F 1 "+3.3V" H 4115 1723 50  0000 C CNN
F 2 "" H 4100 1550 50  0001 C CNN
F 3 "" H 4100 1550 50  0001 C CNN
	1    4100 1550
	1    0    0    -1  
$EndComp
Wire Wire Line
	4600 3000 4600 2800
Wire Wire Line
	3550 2800 3550 3050
Wire Wire Line
	4600 3300 4600 3550
Wire Wire Line
	4100 2800 4100 3750
Wire Wire Line
	3550 3350 3550 3550
$Comp
L Device:C C1
U 1 1 5E4133EC
P 4400 1900
F 0 "C1" H 4515 1946 50  0000 L CNN
F 1 "10n" H 4515 1855 50  0000 L CNN
F 2 "Capacitor_SMD:C_0805_2012Metric_Pad1.15x1.40mm_HandSolder" H 4438 1750 50  0001 C CNN
F 3 "~" H 4400 1900 50  0001 C CNN
	1    4400 1900
	0    -1   -1   0   
$EndComp
Wire Wire Line
	3550 2050 4100 2050
Wire Wire Line
	4100 1550 4100 1900
Connection ~ 4100 2050
Wire Wire Line
	4100 2050 4600 2050
Wire Wire Line
	4250 1900 4100 1900
Connection ~ 4100 1900
Wire Wire Line
	4100 1900 4100 2050
$Comp
L power:GND #PWR0106
U 1 1 5E4164BD
P 5000 1900
F 0 "#PWR0106" H 5000 1650 50  0001 C CNN
F 1 "GND" H 5005 1727 50  0000 C CNN
F 2 "" H 5000 1900 50  0001 C CNN
F 3 "" H 5000 1900 50  0001 C CNN
	1    5000 1900
	1    0    0    -1  
$EndComp
Wire Wire Line
	4550 1900 5000 1900
Text GLabel 2000 2800 0    50   Input ~ 0
ROT_A
Text GLabel 5100 2800 2    50   Input ~ 0
ROT_B
Wire Wire Line
	5100 2800 4600 2800
Wire Wire Line
	2000 2800 3550 2800
Wire Wire Line
	3550 2350 3550 2800
$EndSCHEMATC
