EESchema Schematic File Version 4
LIBS:Water_Plant-cache
EELAYER 30 0
EELAYER END
$Descr A4 11693 8268
encoding utf-8
Sheet 5 7
Title ""
Date ""
Rev ""
Comp ""
Comment1 ""
Comment2 ""
Comment3 ""
Comment4 ""
$EndDescr
$Comp
L Water_Plant-rescue:MCP6561x-LT-Amplifier_Operational U?
U 1 1 5E3409AC
P 5700 4200
AR Path="/5E3409AC" Ref="U?"  Part="1" 
AR Path="/5E3D3056/5E3409AC" Ref="U4"  Part="1" 
F 0 "U4" H 6044 4246 50  0000 L CNN
F 1 "MCP6561x-LT" H 6044 4155 50  0000 L CNN
F 2 "Package_TO_SOT_SMD:SOT-353_SC-70-5" H 5600 4000 50  0001 L CNN
F 3 "http://ww1.microchip.com/downloads/en/DeviceDoc/22139C.pdf" H 5700 4200 50  0001 C CNN
	1    5700 4200
	1    0    0    -1  
$EndComp
$Comp
L Device:C_Small C22
U 1 1 5E3433D1
P 5800 3800
F 0 "C22" V 5571 3800 50  0000 C CNN
F 1 "10n" V 5662 3800 50  0000 C CNN
F 2 "Capacitor_SMD:C_0805_2012Metric" H 5800 3800 50  0001 C CNN
F 3 "~" H 5800 3800 50  0001 C CNN
	1    5800 3800
	0    1    1    0   
$EndComp
$Comp
L power:GND #PWR048
U 1 1 5E344666
P 6050 3800
F 0 "#PWR048" H 6050 3550 50  0001 C CNN
F 1 "GND" H 6050 3850 50  0000 C CNN
F 2 "" H 6050 3800 50  0001 C CNN
F 3 "" H 6050 3800 50  0001 C CNN
	1    6050 3800
	1    0    0    -1  
$EndComp
Wire Wire Line
	5600 3900 5600 3800
Wire Wire Line
	5600 3800 5700 3800
Wire Wire Line
	5900 3800 6050 3800
$Comp
L Device:R_Small R23
U 1 1 5E34BDD9
P 6250 3900
F 0 "R23" H 6309 3946 50  0000 L CNN
F 1 "470" H 6309 3855 50  0000 L CNN
F 2 "Diode_SMD:D_0805_2012Metric_Pad1.15x1.40mm_HandSolder" H 6250 3900 50  0001 C CNN
F 3 "~" H 6250 3900 50  0001 C CNN
	1    6250 3900
	1    0    0    -1  
$EndComp
Wire Wire Line
	6250 4200 6250 4000
Wire Wire Line
	6250 3800 6250 3500
Wire Wire Line
	6000 4200 6250 4200
Connection ~ 6250 4200
$Comp
L Device:R_Small R21
U 1 1 5E34DAA9
P 5000 3550
F 0 "R21" H 5059 3596 50  0000 L CNN
F 1 "10k" H 5059 3505 50  0000 L CNN
F 2 "Diode_SMD:D_0805_2012Metric_Pad1.15x1.40mm_HandSolder" H 5000 3550 50  0001 C CNN
F 3 "~" H 5000 3550 50  0001 C CNN
	1    5000 3550
	1    0    0    -1  
$EndComp
$Comp
L Device:R_Small R20
U 1 1 5E34DE29
P 5000 3150
F 0 "R20" H 5059 3196 50  0000 L CNN
F 1 "2.2k" H 5059 3105 50  0000 L CNN
F 2 "Diode_SMD:D_0805_2012Metric_Pad1.15x1.40mm_HandSolder" H 5000 3150 50  0001 C CNN
F 3 "~" H 5000 3150 50  0001 C CNN
	1    5000 3150
	1    0    0    -1  
$EndComp
$Comp
L power:GND #PWR047
U 1 1 5E34E945
P 5600 4700
F 0 "#PWR047" H 5600 4450 50  0001 C CNN
F 1 "GND" H 5605 4527 50  0000 C CNN
F 2 "" H 5600 4700 50  0001 C CNN
F 3 "" H 5600 4700 50  0001 C CNN
	1    5600 4700
	1    0    0    -1  
$EndComp
$Comp
L power:+3.3V #PWR045
U 1 1 5E351CA8
P 5000 2950
F 0 "#PWR045" H 5000 2800 50  0001 C CNN
F 1 "+3.3V" H 5015 3123 50  0000 C CNN
F 2 "" H 5000 2950 50  0001 C CNN
F 3 "" H 5000 2950 50  0001 C CNN
	1    5000 2950
	1    0    0    -1  
$EndComp
Wire Wire Line
	5400 4100 5350 4100
Wire Wire Line
	5000 2950 5000 3050
$Comp
L power:GND #PWR043
U 1 1 5E35E962
P 5000 3700
F 0 "#PWR043" H 5000 3450 50  0001 C CNN
F 1 "GND" H 5005 3527 50  0000 C CNN
F 2 "" H 5000 3700 50  0001 C CNN
F 3 "" H 5000 3700 50  0001 C CNN
	1    5000 3700
	1    0    0    -1  
$EndComp
Wire Wire Line
	5000 3700 5000 3650
Wire Wire Line
	5600 4500 5600 4700
$Comp
L power:+3.3V #PWR042
U 1 1 5E367A8C
P 4500 4000
F 0 "#PWR042" H 4500 3850 50  0001 C CNN
F 1 "+3.3V" H 4515 4173 50  0000 C CNN
F 2 "" H 4500 4000 50  0001 C CNN
F 3 "" H 4500 4000 50  0001 C CNN
	1    4500 4000
	1    0    0    -1  
$EndComp
Wire Wire Line
	6250 4200 6650 4200
$Comp
L power:+3.3V #PWR046
U 1 1 5E3C06C7
P 5600 3700
F 0 "#PWR046" H 5600 3550 50  0001 C CNN
F 1 "+3.3V" H 5650 3850 50  0000 C CNN
F 2 "" H 5600 3700 50  0001 C CNN
F 3 "" H 5600 3700 50  0001 C CNN
	1    5600 3700
	1    0    0    -1  
$EndComp
Wire Wire Line
	5600 3700 5600 3800
$Comp
L Connector:TestPoint TP?
U 1 1 5E44E0E5
P 6650 4100
AR Path="/5E3D2412/5E44E0E5" Ref="TP?"  Part="1" 
AR Path="/5E3D3056/5E44E0E5" Ref="Btn1"  Part="1" 
F 0 "Btn1" H 6708 4218 50  0000 L CNN
F 1 "TestPoint" H 6708 4127 50  0000 L CNN
F 2 "TestPoint:TestPoint_Pad_1.0x1.0mm" H 6850 4100 50  0001 C CNN
F 3 "~" H 6850 4100 50  0001 C CNN
	1    6650 4100
	1    0    0    -1  
$EndComp
$Comp
L Switch:SW_Push SW?
U 1 1 5E5480D0
P 4950 4300
AR Path="/5E5480D0" Ref="SW?"  Part="1" 
AR Path="/5E3D3056/5E5480D0" Ref="SW4"  Part="1" 
F 0 "SW4" H 4950 4585 50  0000 C CNN
F 1 "SW_Push" H 4950 4494 50  0000 C CNN
F 2 "Button_Switch_SMD:SW_Push_1P1T_NO_6x6mm_H9.5mm" H 4950 4500 50  0001 C CNN
F 3 "~" H 4950 4500 50  0001 C CNN
	1    4950 4300
	1    0    0    -1  
$EndComp
Wire Wire Line
	4500 4000 4500 4300
Wire Wire Line
	5400 4300 5150 4300
Wire Wire Line
	4750 4300 4500 4300
Wire Wire Line
	6650 4100 6650 4200
Connection ~ 6650 4200
Wire Wire Line
	6650 4200 7000 4200
Text GLabel 7000 4200 2    50   Input ~ 0
Button_pin
Wire Wire Line
	5350 3500 6250 3500
Wire Wire Line
	5350 3500 5350 4100
Wire Wire Line
	5000 3250 5000 3400
Wire Wire Line
	5000 3400 5350 3400
Wire Wire Line
	5350 3400 5350 3500
Connection ~ 5000 3400
Wire Wire Line
	5000 3400 5000 3450
Connection ~ 5350 3500
$EndSCHEMATC
