EESchema Schematic File Version 4
LIBS:Water_Plant-cache
EELAYER 30 0
EELAYER END
$Descr A4 11693 8268
encoding utf-8
Sheet 7 7
Title ""
Date ""
Rev ""
Comp ""
Comment1 ""
Comment2 ""
Comment3 ""
Comment4 ""
$EndDescr
$Comp
L Device:R R25
U 1 1 5E3B0867
P 3750 3150
F 0 "R25" H 3820 3196 50  0000 L CNN
F 1 "10k" H 3820 3105 50  0000 L CNN
F 2 "Resistor_SMD:R_0805_2012Metric_Pad1.15x1.40mm_HandSolder" V 3680 3150 50  0001 C CNN
F 3 "~" H 3750 3150 50  0001 C CNN
	1    3750 3150
	1    0    0    -1  
$EndComp
$Comp
L Device:R R24
U 1 1 5E3B1679
P 3050 2750
F 0 "R24" V 3257 2750 50  0000 C CNN
F 1 "1k" V 3166 2750 50  0000 C CNN
F 2 "Resistor_SMD:R_0805_2012Metric_Pad1.15x1.40mm_HandSolder" V 2980 2750 50  0001 C CNN
F 3 "~" H 3050 2750 50  0001 C CNN
	1    3050 2750
	0    -1   -1   0   
$EndComp
$Comp
L Device:D_Schottky D8
U 1 1 5E3B5D2C
P 4000 2050
F 0 "D8" V 3954 2129 50  0000 L CNN
F 1 "D_Schottky" V 4045 2129 50  0000 L CNN
F 2 "Diode_SMD:D_Powermite_KA" H 4000 2050 50  0001 C CNN
F 3 "~" H 4000 2050 50  0001 C CNN
	1    4000 2050
	0    1    1    0   
$EndComp
$Comp
L Connector:Conn_01x02_Female J5
U 1 1 5E3B666A
P 4650 2000
F 0 "J5" H 4678 1976 50  0000 L CNN
F 1 "Conn_01x02_Female" H 4678 1885 50  0000 L CNN
F 2 "TerminalBlock_RND:TerminalBlock_RND_205-00232_1x02_P5.08mm_Horizontal" H 4650 2000 50  0001 C CNN
F 3 "~" H 4650 2000 50  0001 C CNN
	1    4650 2000
	1    0    0    -1  
$EndComp
Wire Wire Line
	4000 1900 4450 1900
Connection ~ 4450 1900
Wire Wire Line
	4450 1900 4450 2000
Wire Wire Line
	4000 2200 4000 2400
Wire Wire Line
	4000 2400 4450 2400
Wire Wire Line
	4450 2400 4450 2100
$Comp
L Transistor_FET:BSB280N15NZ3 Q2
U 1 1 5E3C3D30
P 4350 2750
F 0 "Q2" H 4554 2796 50  0000 L CNN
F 1 "IRFR014PBF" H 4554 2705 50  0000 L CNN
F 2 "Package_TO_SOT_SMD:TO-252-2" H 4350 2750 50  0001 C CIN
F 3 "https://www.elfa.se/Web/Downloads/14/_e/hyIRFR-IRFU014_E.pdf?pid=17117047" H 4350 2750 50  0001 L CNN
	1    4350 2750
	1    0    0    -1  
$EndComp
Wire Wire Line
	3750 2750 3750 3000
Connection ~ 3750 2750
Connection ~ 4450 2400
$Comp
L Device:C C23
U 1 1 5E3C9FB5
P 4850 1500
F 0 "C23" V 5102 1500 50  0000 C CNN
F 1 "4.7u" V 5011 1500 50  0000 C CNN
F 2 "Capacitor_SMD:C_0805_2012Metric_Pad1.15x1.40mm_HandSolder" H 4888 1350 50  0001 C CNN
F 3 "~" H 4850 1500 50  0001 C CNN
	1    4850 1500
	0    -1   -1   0   
$EndComp
Wire Wire Line
	4450 1500 4700 1500
Connection ~ 4450 1500
Wire Wire Line
	5000 1500 5250 1500
Wire Wire Line
	4150 2750 3750 2750
Wire Wire Line
	4450 2950 4450 3600
Wire Wire Line
	3200 2750 3750 2750
$Comp
L power:GND #PWR053
U 1 1 5E3D4717
P 4450 3600
F 0 "#PWR053" H 4450 3350 50  0001 C CNN
F 1 "GND" H 4455 3427 50  0000 C CNN
F 2 "" H 4450 3600 50  0001 C CNN
F 3 "" H 4450 3600 50  0001 C CNN
	1    4450 3600
	1    0    0    -1  
$EndComp
$Comp
L power:GND #PWR051
U 1 1 5E4084A8
P 3750 3650
F 0 "#PWR051" H 3750 3400 50  0001 C CNN
F 1 "GND" H 3755 3477 50  0000 C CNN
F 2 "" H 3750 3650 50  0001 C CNN
F 3 "" H 3750 3650 50  0001 C CNN
	1    3750 3650
	1    0    0    -1  
$EndComp
Wire Wire Line
	3750 3300 3750 3650
$Comp
L power:GND #PWR054
U 1 1 5E409651
P 5250 1750
F 0 "#PWR054" H 5250 1500 50  0001 C CNN
F 1 "GND" H 5255 1577 50  0000 C CNN
F 2 "" H 5250 1750 50  0001 C CNN
F 3 "" H 5250 1750 50  0001 C CNN
	1    5250 1750
	1    0    0    -1  
$EndComp
Wire Wire Line
	5250 1500 5250 1750
$Comp
L power:+12V #PWR052
U 1 1 5E40AEC9
P 4450 1150
F 0 "#PWR052" H 4450 1000 50  0001 C CNN
F 1 "+12V" H 4465 1323 50  0000 C CNN
F 2 "" H 4450 1150 50  0001 C CNN
F 3 "" H 4450 1150 50  0001 C CNN
	1    4450 1150
	1    0    0    -1  
$EndComp
Wire Wire Line
	4450 1150 4450 1500
Wire Wire Line
	2500 2750 2650 2750
Wire Notes Line
	4400 1950 4900 1950
Wire Notes Line
	4900 1950 4900 2250
Wire Notes Line
	4900 2250 4400 2250
Wire Notes Line
	4400 2250 4400 1950
Text Notes 4650 2350 0    50   ~ 0
Pump Interface\n
$Comp
L Connector:TestPoint TP?
U 1 1 5E422323
P 3750 2750
AR Path="/5E422323" Ref="TP?"  Part="1" 
AR Path="/5E3FCAC9/5E422323" Ref="Pump1"  Part="1" 
F 0 "Pump1" V 3945 2822 50  0000 C CNN
F 1 "TestPoint" V 3854 2822 50  0000 C CNN
F 2 "TestPoint:TestPoint_Pad_1.0x1.0mm" H 3950 2750 50  0001 C CNN
F 3 "~" H 3950 2750 50  0001 C CNN
	1    3750 2750
	1    0    0    -1  
$EndComp
Text GLabel 2500 2750 0    50   Input ~ 0
Water_Pump
$Comp
L Device:C C2
U 1 1 5E476202
P 2650 3250
F 0 "C2" H 2765 3296 50  0000 L CNN
F 1 "100n" H 2765 3205 50  0000 L CNN
F 2 "Capacitor_SMD:C_0805_2012Metric_Pad1.15x1.40mm_HandSolder" H 2688 3100 50  0001 C CNN
F 3 "~" H 2650 3250 50  0001 C CNN
	1    2650 3250
	1    0    0    -1  
$EndComp
$Comp
L power:GND #PWR0109
U 1 1 5E476C66
P 2650 3650
F 0 "#PWR0109" H 2650 3400 50  0001 C CNN
F 1 "GND" H 2655 3477 50  0000 C CNN
F 2 "" H 2650 3650 50  0001 C CNN
F 3 "" H 2650 3650 50  0001 C CNN
	1    2650 3650
	1    0    0    -1  
$EndComp
Wire Wire Line
	2650 2750 2650 3100
Connection ~ 2650 2750
Wire Wire Line
	2650 2750 2900 2750
Wire Wire Line
	2650 3400 2650 3650
Wire Wire Line
	4450 2400 4450 2550
Wire Wire Line
	4450 1500 4450 1900
$EndSCHEMATC
