EESchema Schematic File Version 4
LIBS:Water_Plant-cache
EELAYER 30 0
EELAYER END
$Descr A4 11693 8268
encoding utf-8
Sheet 1 7
Title ""
Date ""
Rev ""
Comp ""
Comment1 ""
Comment2 ""
Comment3 ""
Comment4 ""
$EndDescr
$Comp
L Water_Plant-rescue:CMWX1ZZABZ-078-cmwx1zzabz-078 U2
U 1 1 5E284DCF
P 8300 3300
F 0 "U2" H 8750 1750 50  0000 C CNN
F 1 "CMWX1ZZABZ-078" H 8700 1700 50  0000 C CNN
F 2 "Footprints:lab" H 8300 3300 50  0001 C CNN
F 3 "https://wireless.murata.com/RFM/data/type_abz.pdf" H 10750 1800 50  0001 C CNN
	1    8300 3300
	1    0    0    -1  
$EndComp
$Comp
L Device:CP_Small C9
U 1 1 5E28FE39
P 9450 1100
F 0 "C9" H 9600 1150 50  0000 L CNN
F 1 "10u" H 9600 1050 50  0000 L CNN
F 2 "Capacitor_SMD:C_0805_2012Metric" H 9450 1100 50  0001 C CNN
F 3 "~" H 9450 1100 50  0001 C CNN
	1    9450 1100
	1    0    0    -1  
$EndComp
Wire Wire Line
	8950 1000 8950 950 
Connection ~ 9200 950 
Wire Wire Line
	9200 950  9200 1000
Wire Wire Line
	9450 1000 9450 950 
Wire Wire Line
	9450 950  9200 950 
$Comp
L power:GND #PWR012
U 1 1 5E298A08
P 9200 1300
F 0 "#PWR012" H 9200 1050 50  0001 C CNN
F 1 "GND" H 9205 1127 50  0000 C CNN
F 2 "" H 9200 1300 50  0001 C CNN
F 3 "" H 9200 1300 50  0001 C CNN
	1    9200 1300
	1    0    0    -1  
$EndComp
Wire Wire Line
	9450 1200 9450 1250
Wire Wire Line
	8950 1250 8950 1200
Wire Wire Line
	9200 1200 9200 1250
Wire Wire Line
	8950 1250 9200 1250
Connection ~ 9200 1250
Wire Wire Line
	9200 1250 9200 1300
Wire Wire Line
	9200 1250 9450 1250
Wire Wire Line
	8300 1550 8300 1800
Wire Wire Line
	8200 1800 8200 1550
Wire Wire Line
	7600 1250 7600 1350
Wire Wire Line
	7600 1350 7700 1350
$Comp
L power:GND #PWR07
U 1 1 5E2B1722
P 7700 1350
F 0 "#PWR07" H 7700 1100 50  0001 C CNN
F 1 "GND" H 7705 1177 50  0000 C CNN
F 2 "" H 7700 1350 50  0001 C CNN
F 3 "" H 7700 1350 50  0001 C CNN
	1    7700 1350
	1    0    0    -1  
$EndComp
Connection ~ 7700 1350
Wire Wire Line
	7700 1350 7800 1350
Wire Wire Line
	8100 1050 8100 1800
Wire Wire Line
	8950 950  9200 950 
$Comp
L power:GND #PWR015
U 1 1 5E2C1F6A
P 10050 1900
F 0 "#PWR015" H 10050 1650 50  0001 C CNN
F 1 "GND" H 10055 1727 50  0000 C CNN
F 2 "" H 10050 1900 50  0001 C CNN
F 3 "" H 10050 1900 50  0001 C CNN
	1    10050 1900
	1    0    0    -1  
$EndComp
$Comp
L power:GND #PWR017
U 1 1 5E2CBD51
P 10350 4550
F 0 "#PWR017" H 10350 4300 50  0001 C CNN
F 1 "GND" H 10355 4377 50  0000 C CNN
F 2 "" H 10350 4550 50  0001 C CNN
F 3 "" H 10350 4550 50  0001 C CNN
	1    10350 4550
	1    0    0    -1  
$EndComp
Wire Wire Line
	10850 4300 10750 4300
Wire Wire Line
	10850 4550 10350 4550
$Comp
L Device:R_Small R3
U 1 1 5E2D20BB
P 6950 4750
F 0 "R3" H 7009 4796 50  0000 L CNN
F 1 "10k" H 7009 4705 50  0000 L CNN
F 2 "Resistor_SMD:R_0805_2012Metric" H 6950 4750 50  0001 C CNN
F 3 "~" H 6950 4750 50  0001 C CNN
	1    6950 4750
	1    0    0    -1  
$EndComp
Wire Wire Line
	7400 4600 6950 4600
Wire Wire Line
	6950 4600 6950 4650
$Comp
L power:GND #PWR06
U 1 1 5E2D3663
P 6950 4950
F 0 "#PWR06" H 6950 4700 50  0001 C CNN
F 1 "GND" H 6955 4777 50  0000 C CNN
F 2 "" H 6950 4950 50  0001 C CNN
F 3 "" H 6950 4950 50  0001 C CNN
	1    6950 4950
	1    0    0    -1  
$EndComp
Wire Wire Line
	6950 4950 6950 4850
Wire Wire Line
	10250 2900 10000 2900
$Comp
L power:GND #PWR013
U 1 1 5E2EDF33
P 10000 3100
F 0 "#PWR013" H 10000 2850 50  0001 C CNN
F 1 "GND" H 10005 2927 50  0000 C CNN
F 2 "" H 10000 3100 50  0001 C CNN
F 3 "" H 10000 3100 50  0001 C CNN
	1    10000 3100
	0    -1   -1   0   
$EndComp
Wire Wire Line
	10100 3300 10000 3300
$Comp
L power:GND #PWR010
U 1 1 5E3877BE
P 8300 4950
F 0 "#PWR010" H 8300 4700 50  0001 C CNN
F 1 "GND" H 8305 4777 50  0000 C CNN
F 2 "" H 8300 4950 50  0001 C CNN
F 3 "" H 8300 4950 50  0001 C CNN
	1    8300 4950
	1    0    0    -1  
$EndComp
Wire Wire Line
	8300 4950 8300 4800
$Comp
L Device:C_Small C5
U 1 1 5E38A4E4
P 7600 1150
F 0 "C5" H 7400 1200 50  0000 L CNN
F 1 "100n" H 7350 1100 50  0000 L CNN
F 2 "Capacitor_SMD:C_0805_2012Metric" H 7600 1150 50  0001 C CNN
F 3 "~" H 7600 1150 50  0001 C CNN
	1    7600 1150
	1    0    0    -1  
$EndComp
$Comp
L Device:C_Small C7
U 1 1 5E395549
P 8950 1100
F 0 "C7" H 8750 1150 50  0000 L CNN
F 1 "100n" H 8700 1050 50  0000 L CNN
F 2 "Capacitor_SMD:C_0805_2012Metric" H 8950 1100 50  0001 C CNN
F 3 "~" H 8950 1100 50  0001 C CNN
	1    8950 1100
	1    0    0    -1  
$EndComp
$Comp
L Device:C_Small C8
U 1 1 5E39A57A
P 9200 1100
F 0 "C8" H 9100 1400 50  0000 L CNN
F 1 "1u" H 9100 1300 50  0000 L CNN
F 2 "Capacitor_SMD:C_0805_2012Metric" H 9200 1100 50  0001 C CNN
F 3 "~" H 9200 1100 50  0001 C CNN
	1    9200 1100
	1    0    0    -1  
$EndComp
$Comp
L Device:C_Small C10
U 1 1 5E39EAAE
P 10050 1800
F 0 "C10" H 9850 1850 50  0000 L CNN
F 1 "1u" H 9800 1750 50  0000 L CNN
F 2 "Capacitor_SMD:C_0805_2012Metric" H 10050 1800 50  0001 C CNN
F 3 "~" H 10050 1800 50  0001 C CNN
	1    10050 1800
	1    0    0    -1  
$EndComp
NoConn ~ 9200 2700
NoConn ~ 9200 2900
NoConn ~ 9200 3500
NoConn ~ 9200 3600
NoConn ~ 9200 3700
NoConn ~ 9200 4000
NoConn ~ 9200 4100
NoConn ~ 9200 4200
NoConn ~ 9200 4300
NoConn ~ 9200 4400
NoConn ~ 7400 4400
NoConn ~ 7400 2600
NoConn ~ 7400 2400
Wire Wire Line
	7350 3400 7400 3400
Wire Wire Line
	7350 3500 7400 3500
Wire Wire Line
	9200 750  9200 950 
$Comp
L power:+3.3V #PWR011
U 1 1 5E29BC68
P 9200 750
F 0 "#PWR011" H 9200 600 50  0001 C CNN
F 1 "+3.3V" H 9215 923 50  0000 C CNN
F 2 "" H 9200 750 50  0001 C CNN
F 3 "" H 9200 750 50  0001 C CNN
	1    9200 750 
	1    0    0    -1  
$EndComp
$Comp
L power:+3.3V #PWR014
U 1 1 5E29EAE4
P 10050 1600
F 0 "#PWR014" H 10050 1450 50  0001 C CNN
F 1 "+3.3V" H 10065 1773 50  0000 C CNN
F 2 "" H 10050 1600 50  0001 C CNN
F 3 "" H 10050 1600 50  0001 C CNN
	1    10050 1600
	1    0    0    -1  
$EndComp
Wire Wire Line
	10050 1600 10050 1700
Wire Wire Line
	10050 1600 8400 1600
Connection ~ 10050 1600
$Comp
L power:+3.3V #PWR016
U 1 1 5E2A8248
P 10250 2650
F 0 "#PWR016" H 10250 2500 50  0001 C CNN
F 1 "+3.3V" H 10265 2823 50  0000 C CNN
F 2 "" H 10250 2650 50  0001 C CNN
F 3 "" H 10250 2650 50  0001 C CNN
	1    10250 2650
	1    0    0    -1  
$EndComp
Wire Wire Line
	10250 2650 10250 2900
Wire Wire Line
	8400 1600 8400 1800
Text Label 10100 3000 0    50   ~ 0
SWCLK
Text Label 10100 3200 0    50   ~ 0
SWDIO
Wire Wire Line
	10750 4300 10750 3950
Wire Wire Line
	10600 3800 10750 3800
Wire Wire Line
	10200 3800 10100 3800
Text Label 7350 3400 2    50   ~ 0
SWDIO
Text Label 7350 3500 2    50   ~ 0
SWCLK
Wire Wire Line
	7300 3700 7400 3700
Text Label 7300 3700 2    50   ~ 0
RESET
Text Label 9850 4100 2    50   ~ 0
RESET
$Comp
L power:+3.3V #PWR09
U 1 1 5E2FCBDA
P 8250 1550
F 0 "#PWR09" H 8250 1400 50  0001 C CNN
F 1 "+3.3V" H 8265 1723 50  0000 C CNN
F 2 "" H 8250 1550 50  0001 C CNN
F 3 "" H 8250 1550 50  0001 C CNN
	1    8250 1550
	1    0    0    -1  
$EndComp
Wire Wire Line
	8200 1550 8250 1550
Connection ~ 8250 1550
Wire Wire Line
	8250 1550 8300 1550
$Comp
L Device:C_Small C11
U 1 1 5E312F9C
P 10400 3950
F 0 "C11" H 10200 4000 50  0000 L CNN
F 1 "100n" H 10150 3900 50  0000 L CNN
F 2 "Capacitor_SMD:C_0805_2012Metric" H 10400 3950 50  0001 C CNN
F 3 "~" H 10400 3950 50  0001 C CNN
	1    10400 3950
	0    -1   -1   0   
$EndComp
Wire Wire Line
	7800 1350 7800 1250
Wire Wire Line
	10300 3950 10100 3950
Wire Wire Line
	10100 3950 10100 3800
Connection ~ 10100 3800
Wire Wire Line
	10500 3950 10750 3950
Connection ~ 10750 3950
Wire Wire Line
	10750 3950 10750 3800
Wire Wire Line
	10850 4300 10850 4550
$Comp
L Device:CP_Small C6
U 1 1 5E2F7825
P 7800 1150
F 0 "C6" H 7950 1200 50  0000 L CNN
F 1 "10u" H 7950 1100 50  0000 L CNN
F 2 "Capacitor_SMD:C_0805_2012Metric" H 7800 1150 50  0001 C CNN
F 3 "~" H 7800 1150 50  0001 C CNN
	1    7800 1150
	1    0    0    -1  
$EndComp
Connection ~ 7800 1050
Wire Wire Line
	7800 1050 8100 1050
Wire Wire Line
	7600 1050 7800 1050
$Comp
L power:+3.3V #PWR08
U 1 1 5E344299
P 7800 850
F 0 "#PWR08" H 7800 700 50  0001 C CNN
F 1 "+3.3V" H 7815 1023 50  0000 C CNN
F 2 "" H 7800 850 50  0001 C CNN
F 3 "" H 7800 850 50  0001 C CNN
	1    7800 850 
	1    0    0    -1  
$EndComp
Wire Wire Line
	7800 850  7800 1050
Wire Wire Line
	8500 1800 8500 1550
Wire Wire Line
	8500 1550 8300 1550
Connection ~ 8300 1550
Wire Wire Line
	10000 3000 10850 3000
Wire Wire Line
	10000 3200 10850 3200
$Comp
L Connector:TestPoint SWCLK1
U 1 1 5E36F0BF
P 10850 3000
F 0 "SWCLK1" V 10750 3150 50  0000 L CNN
F 1 "TestPoint" V 10908 3027 50  0000 L CNN
F 2 "TestPoint:TestPoint_Pad_D1.5mm" H 11050 3000 50  0001 C CNN
F 3 "~" H 11050 3000 50  0001 C CNN
	1    10850 3000
	0    1    1    0   
$EndComp
$Comp
L Connector:TestPoint SWDIO1
U 1 1 5E37206E
P 10850 3200
F 0 "SWDIO1" V 10850 3400 50  0000 L CNN
F 1 "TestPoint" V 10908 3227 50  0000 L CNN
F 2 "TestPoint:TestPoint_Pad_D1.5mm" H 11050 3200 50  0001 C CNN
F 3 "~" H 11050 3200 50  0001 C CNN
	1    10850 3200
	0    1    1    0   
$EndComp
Wire Wire Line
	9850 4100 10100 4100
$Sheet
S 1500 4950 1850 1100
U 5E3D2412
F0 "Buck_converter" 50
F1 "Buck_converter.sch" 50
$EndSheet
$Sheet
S 3750 5050 1850 1000
U 5E3D2801
F0 "Rotary Encoder" 50
F1 "Rotary Encoder.sch" 50
$EndSheet
$Sheet
S 1350 6400 1950 1100
U 5E3D2C1C
F0 "Water_Level_Sensor" 50
F1 "Water_Level_Sensor.sch" 50
$EndSheet
$Sheet
S 3700 6400 1950 1200
U 5E3D3056
F0 "Schmitt_button" 50
F1 "Schmitt_button.sch" 50
$EndSheet
$Sheet
S 3850 3500 1650 1050
U 5E3DA444
F0 "Moisture_sensor" 50
F1 "Moisture_sensor.sch" 50
$EndSheet
$Sheet
S 1550 3800 1500 650 
U 5E3FCAC9
F0 "Sheet: Water Pump" 50
F1 "WaterPump.sch" 50
$EndSheet
$Comp
L Connector:Barrel_Jack_Switch_MountingPin J2
U 1 1 5E423186
P 5250 900
F 0 "J2" H 5307 1217 50  0000 C CNN
F 1 "Barrel_Jack_Switch_MountingPin" H 5307 1126 50  0000 C CNN
F 2 "Footprints:DC_Jack" H 5300 860 50  0001 C CNN
F 3 "~" H 5300 860 50  0001 C CNN
	1    5250 900 
	1    0    0    -1  
$EndComp
Wire Wire Line
	5550 900  5650 900 
Wire Wire Line
	5650 900  5650 1000
Wire Wire Line
	5650 1000 5600 1000
$Comp
L power:GND #PWR056
U 1 1 5E42872D
P 5600 1100
F 0 "#PWR056" H 5600 850 50  0001 C CNN
F 1 "GND" H 5605 927 50  0000 C CNN
F 2 "" H 5600 1100 50  0001 C CNN
F 3 "" H 5600 1100 50  0001 C CNN
	1    5600 1100
	1    0    0    -1  
$EndComp
Wire Wire Line
	5600 1100 5600 1000
Connection ~ 5600 1000
Wire Wire Line
	5600 1000 5550 1000
$Comp
L power:+12V #PWR057
U 1 1 5E42BE40
P 5950 1550
F 0 "#PWR057" H 5950 1400 50  0001 C CNN
F 1 "+12V" H 5965 1723 50  0000 C CNN
F 2 "" H 5950 1550 50  0001 C CNN
F 3 "" H 5950 1550 50  0001 C CNN
	1    5950 1550
	0    1    1    0   
$EndComp
Wire Wire Line
	5550 800  5900 800 
Wire Wire Line
	5900 1550 5950 1550
$Comp
L Connector:TestPoint 12V1
U 1 1 5E4456E7
P 5900 1500
F 0 "12V1" V 6095 1572 50  0000 C CNN
F 1 "TestPoint" V 6004 1572 50  0000 C CNN
F 2 "TestPoint:TestPoint_Pad_1.0x1.0mm" H 6100 1500 50  0001 C CNN
F 3 "~" H 6100 1500 50  0001 C CNN
	1    5900 1500
	0    -1   -1   0   
$EndComp
Connection ~ 5900 1500
Wire Wire Line
	5900 1500 5900 1550
$Comp
L Connector:TestPoint GND1
U 1 1 5E44725F
P 6650 1200
F 0 "GND1" V 6845 1272 50  0000 C CNN
F 1 "TestPoint" V 6754 1272 50  0000 C CNN
F 2 "TestPoint:TestPoint_Pad_1.0x1.0mm" H 6850 1200 50  0001 C CNN
F 3 "~" H 6850 1200 50  0001 C CNN
	1    6650 1200
	0    -1   -1   0   
$EndComp
$Comp
L power:GND #PWR0101
U 1 1 5E449E65
P 6650 1200
F 0 "#PWR0101" H 6650 950 50  0001 C CNN
F 1 "GND" H 6655 1027 50  0000 C CNN
F 2 "" H 6650 1200 50  0001 C CNN
F 3 "" H 6650 1200 50  0001 C CNN
	1    6650 1200
	1    0    0    -1  
$EndComp
Wire Wire Line
	3900 2050 4100 2050
$Comp
L power:GND #PWR0102
U 1 1 5E46983F
P 3900 2050
F 0 "#PWR0102" H 3900 1800 50  0001 C CNN
F 1 "GND" V 3905 1877 50  0000 C CNN
F 2 "" H 3900 2050 50  0001 C CNN
F 3 "" H 3900 2050 50  0001 C CNN
	1    3900 2050
	0    1    1    0   
$EndComp
Wire Wire Line
	4100 2150 3850 2150
$Comp
L power:+3.3V #PWR0103
U 1 1 5E473B6E
P 3850 2150
F 0 "#PWR0103" H 3850 2000 50  0001 C CNN
F 1 "+3.3V" V 3865 2323 50  0000 C CNN
F 2 "" H 3850 2150 50  0001 C CNN
F 3 "" H 3850 2150 50  0001 C CNN
	1    3850 2150
	0    -1   -1   0   
$EndComp
$Comp
L Mechanical:MountingHole H1
U 1 1 5E4C3956
P 800 800
F 0 "H1" H 900 846 50  0000 L CNN
F 1 "MountingHole" H 900 755 50  0000 L CNN
F 2 "MountingHole:MountingHole_4.3mm_M4_DIN965_Pad" H 800 800 50  0001 C CNN
F 3 "~" H 800 800 50  0001 C CNN
	1    800  800 
	1    0    0    -1  
$EndComp
$Comp
L Mechanical:MountingHole H2
U 1 1 5E4C4C08
P 800 1000
F 0 "H2" H 900 1046 50  0000 L CNN
F 1 "MountingHole" H 900 955 50  0000 L CNN
F 2 "MountingHole:MountingHole_4.3mm_M4_DIN965_Pad" H 800 1000 50  0001 C CNN
F 3 "~" H 800 1000 50  0001 C CNN
	1    800  1000
	1    0    0    -1  
$EndComp
$Comp
L Mechanical:MountingHole H3
U 1 1 5E4C8170
P 800 1200
F 0 "H3" H 900 1246 50  0000 L CNN
F 1 "MountingHole" H 900 1155 50  0000 L CNN
F 2 "MountingHole:MountingHole_4.3mm_M4_DIN965_Pad" H 800 1200 50  0001 C CNN
F 3 "~" H 800 1200 50  0001 C CNN
	1    800  1200
	1    0    0    -1  
$EndComp
$Comp
L Mechanical:MountingHole H4
U 1 1 5E4CB4A2
P 800 1400
F 0 "H4" H 900 1446 50  0000 L CNN
F 1 "MountingHole" H 900 1355 50  0000 L CNN
F 2 "MountingHole:MountingHole_4.3mm_M4_DIN965_Pad" H 800 1400 50  0001 C CNN
F 3 "~" H 800 1400 50  0001 C CNN
	1    800  1400
	1    0    0    -1  
$EndComp
Text Label 9350 4600 0    50   ~ 0
ANT
Wire Wire Line
	9350 4600 9200 4600
$Comp
L Connector:Conn_Coaxial J1
U 1 1 5E486DFC
P 10500 5350
F 0 "J1" H 10600 5325 50  0000 L CNN
F 1 "Conn_Coaxial" H 10600 5234 50  0000 L CNN
F 2 "Connector_Coaxial:U.FL_Molex_MCRF_73412-0110_Vertical" H 10500 5350 50  0001 C CNN
F 3 " ~" H 10500 5350 50  0001 C CNN
	1    10500 5350
	1    0    0    -1  
$EndComp
$Comp
L Device:C C3
U 1 1 5E48A23D
P 9550 5350
F 0 "C3" H 9665 5396 50  0000 L CNN
F 1 "100n" H 9665 5305 50  0000 L CNN
F 2 "Capacitor_SMD:C_0805_2012Metric_Pad1.15x1.40mm_HandSolder" H 9588 5200 50  0001 C CNN
F 3 "~" H 9550 5350 50  0001 C CNN
	1    9550 5350
	0    -1   -1   0   
$EndComp
$Comp
L power:GND #PWR0108
U 1 1 5E4A4620
P 10500 5650
F 0 "#PWR0108" H 10500 5400 50  0001 C CNN
F 1 "GND" H 10505 5477 50  0000 C CNN
F 2 "" H 10500 5650 50  0001 C CNN
F 3 "" H 10500 5650 50  0001 C CNN
	1    10500 5650
	1    0    0    -1  
$EndComp
Wire Wire Line
	10500 5550 10500 5650
Text Label 8950 5350 0    50   ~ 0
ANT
Wire Wire Line
	9700 5350 9900 5350
Wire Wire Line
	8950 5350 9300 5350
Text GLabel 7250 2700 0    50   Input ~ 0
MOISTURE_LEVEL
Wire Wire Line
	7400 2700 7250 2700
$Comp
L Switch:SW_Push SW1
U 1 1 5E539DF5
P 10400 3800
F 0 "SW1" H 10400 4085 50  0000 C CNN
F 1 "SW_Push" H 10400 3994 50  0000 C CNN
F 2 "Button_Switch_SMD:SW_Push_1P1T_NO_6x6mm_H9.5mm" H 10400 4000 50  0001 C CNN
F 3 "~" H 10400 4000 50  0001 C CNN
	1    10400 3800
	1    0    0    -1  
$EndComp
Wire Wire Line
	10100 3300 10100 3800
Text GLabel 9250 2800 2    50   Input ~ 0
Water_level
Wire Wire Line
	9250 2800 9200 2800
Wire Wire Line
	9250 3900 9200 3900
Text GLabel 9250 3300 2    50   Input ~ 0
LCD_MOSI
Wire Wire Line
	9250 3300 9200 3300
Text GLabel 9250 3100 2    50   Input ~ 0
LCD_SPI_SCK
Wire Wire Line
	9250 3100 9200 3100
Text GLabel 7300 2500 0    50   Input ~ 0
Moister_sens_onoff
Wire Wire Line
	7400 2500 7300 2500
Text GLabel 3800 2250 0    50   Input ~ 0
LCD_SPI_SCK
Text GLabel 3750 2350 0    50   Input ~ 0
LCD_MOSI
Text GLabel 3800 2450 0    50   Input ~ 0
LCD_RESET
Text GLabel 3750 2550 0    50   Input ~ 0
LCD_DC
Text GLabel 3750 2650 0    50   Input ~ 0
LCD_CS
Wire Wire Line
	4100 2250 3800 2250
Wire Wire Line
	4100 2350 3750 2350
Wire Wire Line
	4100 2450 3800 2450
Wire Wire Line
	4100 2550 3750 2550
Wire Wire Line
	4100 2650 3750 2650
Text GLabel 9250 3200 2    50   Input ~ 0
LCD_MISO
Wire Wire Line
	9250 3200 9200 3200
Text GLabel 7250 2900 0    50   Input ~ 0
LCD_DC
Text GLabel 7250 2800 0    50   Input ~ 0
LCD_CS
Text GLabel 9300 3000 2    50   Input ~ 0
LCD_RESET
Wire Wire Line
	9200 3000 9300 3000
Wire Wire Line
	10100 3950 10100 4100
Connection ~ 10100 3950
NoConn ~ 9250 3900
Text GLabel 9250 2400 2    50   Input ~ 0
Water_Pump
Wire Wire Line
	9250 2400 9200 2400
Wire Wire Line
	9250 2600 9200 2600
Wire Wire Line
	9250 2500 9200 2500
Text GLabel 9250 2500 2    50   Input ~ 0
ROT_B
Text GLabel 9250 2600 2    50   Input ~ 0
ROT_A
$Comp
L power:GND #PWR055
U 1 1 5E42B7A6
P 5250 1200
F 0 "#PWR055" H 5250 950 50  0001 C CNN
F 1 "GND" H 5255 1027 50  0000 C CNN
F 2 "" H 5250 1200 50  0001 C CNN
F 3 "" H 5250 1200 50  0001 C CNN
	1    5250 1200
	1    0    0    -1  
$EndComp
Wire Wire Line
	7400 3000 6950 3000
Wire Wire Line
	7400 3100 6950 3100
$Comp
L Connector:Conn_01x02_Male J7
U 1 1 5E4D964F
P 6750 3000
F 0 "J7" H 6300 3000 50  0000 C CNN
F 1 "Conn_01x02_Male" H 6250 2900 50  0000 C CNN
F 2 "Connector_PinHeader_2.54mm:PinHeader_1x02_P2.54mm_Vertical" H 6750 3000 50  0001 C CNN
F 3 "~" H 6750 3000 50  0001 C CNN
	1    6750 3000
	1    0    0    -1  
$EndComp
Wire Wire Line
	7250 2800 7400 2800
Wire Wire Line
	7250 2900 7400 2900
Text GLabel 7200 3200 0    50   Input ~ 0
Button_pin
$Comp
L Device:C C4
U 1 1 5E45C559
P 9300 5600
F 0 "C4" H 9415 5646 50  0000 L CNN
F 1 "DNP" H 9415 5555 50  0000 L CNN
F 2 "Capacitor_SMD:C_0805_2012Metric_Pad1.15x1.40mm_HandSolder" H 9338 5450 50  0001 C CNN
F 3 "~" H 9300 5600 50  0001 C CNN
	1    9300 5600
	1    0    0    -1  
$EndComp
$Comp
L Device:C C24
U 1 1 5E45E151
P 9900 5600
F 0 "C24" H 10015 5646 50  0000 L CNN
F 1 "DNP" H 10015 5555 50  0000 L CNN
F 2 "Capacitor_SMD:C_0805_2012Metric_Pad1.15x1.40mm_HandSolder" H 9938 5450 50  0001 C CNN
F 3 "~" H 9900 5600 50  0001 C CNN
	1    9900 5600
	1    0    0    -1  
$EndComp
Wire Wire Line
	9300 5450 9300 5350
Connection ~ 9300 5350
Wire Wire Line
	9300 5350 9400 5350
Wire Wire Line
	9900 5450 9900 5350
Connection ~ 9900 5350
Wire Wire Line
	9900 5350 10300 5350
$Comp
L power:GND #PWR02
U 1 1 5E466899
P 9900 5850
F 0 "#PWR02" H 9900 5600 50  0001 C CNN
F 1 "GND" H 9905 5677 50  0000 C CNN
F 2 "" H 9900 5850 50  0001 C CNN
F 3 "" H 9900 5850 50  0001 C CNN
	1    9900 5850
	1    0    0    -1  
$EndComp
Wire Wire Line
	9900 5750 9900 5850
$Comp
L power:GND #PWR01
U 1 1 5E469800
P 9300 5850
F 0 "#PWR01" H 9300 5600 50  0001 C CNN
F 1 "GND" H 9305 5677 50  0000 C CNN
F 2 "" H 9300 5850 50  0001 C CNN
F 3 "" H 9300 5850 50  0001 C CNN
	1    9300 5850
	1    0    0    -1  
$EndComp
Wire Wire Line
	9300 5750 9300 5850
Text Label 7200 3900 2    50   ~ 0
TCXO
Wire Wire Line
	7200 3900 7400 3900
Text Label 7350 3300 2    50   ~ 0
TCXO
Wire Wire Line
	7400 4100 7200 4100
Wire Wire Line
	7200 4100 7200 4200
Wire Wire Line
	7200 4200 7400 4200
Wire Wire Line
	7350 3300 7400 3300
Wire Wire Line
	7200 3200 7400 3200
Wire Wire Line
	5900 800  5900 1500
$Comp
L Connector:Conn_01x05_Male J3
U 1 1 5E486F2E
P 9800 3100
F 0 "J3" H 9908 3481 50  0000 C CNN
F 1 "Conn_01x05_Male" H 9908 3390 50  0000 C CNN
F 2 "Connector_PinHeader_2.54mm:PinHeader_1x05_P2.54mm_Vertical" H 9800 3100 50  0001 C CNN
F 3 "~" H 9800 3100 50  0001 C CNN
	1    9800 3100
	1    0    0    -1  
$EndComp
$Comp
L Connector:Conn_01x07_Female J6
U 1 1 5E468D2A
P 4300 2350
F 0 "J6" H 4328 2376 50  0000 L CNN
F 1 "LCD" H 4328 2285 50  0000 L CNN
F 2 "Connector_PinSocket_2.54mm:PinSocket_1x07_P2.54mm_Vertical" H 4300 2350 50  0001 C CNN
F 3 "~" H 4300 2350 50  0001 C CNN
	1    4300 2350
	1    0    0    -1  
$EndComp
$EndSCHEMATC
