EESchema Schematic File Version 4
LIBS:Water_Plant-cache
EELAYER 30 0
EELAYER END
$Descr A4 11693 8268
encoding utf-8
Sheet 4 7
Title ""
Date ""
Rev ""
Comp ""
Comment1 ""
Comment2 ""
Comment3 ""
Comment4 ""
$EndDescr
$Comp
L Switch:SW_Reed SW3
U 1 1 5E36DBF6
P 2950 2250
F 0 "SW3" V 2904 2335 50  0000 L CNN
F 1 "SW_Reed" V 2995 2335 50  0000 L CNN
F 2 "TerminalBlock_RND:TerminalBlock_RND_205-00232_1x02_P5.08mm_Horizontal" H 2950 2250 50  0001 C CNN
F 3 "~" H 2950 2250 50  0001 C CNN
	1    2950 2250
	0    1    1    0   
$EndComp
$Comp
L Transistor_BJT:2N2219 Q1
U 1 1 5E377B6E
P 4100 2450
F 0 "Q1" H 4290 2496 50  0000 L CNN
F 1 "MMBT2222ALT1G" H 4290 2405 50  0000 L CNN
F 2 "Package_TO_SOT_SMD:SOT-223-3_TabPin2" H 4300 2375 50  0001 L CIN
F 3 "https://docs.rs-online.com/ac3b/0900766b8151e5c2.pdf" H 4100 2450 50  0001 L CNN
	1    4100 2450
	1    0    0    -1  
$EndComp
$Comp
L power:GND #PWR039
U 1 1 5E3795AD
P 4200 2900
F 0 "#PWR039" H 4200 2650 50  0001 C CNN
F 1 "GND" H 4205 2727 50  0000 C CNN
F 2 "" H 4200 2900 50  0001 C CNN
F 3 "" H 4200 2900 50  0001 C CNN
	1    4200 2900
	1    0    0    -1  
$EndComp
Wire Wire Line
	4200 2650 4200 2900
$Comp
L Device:R R18
U 1 1 5E37BBD9
P 3450 2450
F 0 "R18" V 3243 2450 50  0000 C CNN
F 1 "2.2k" V 3334 2450 50  0000 C CNN
F 2 "Resistor_SMD:R_0805_2012Metric_Pad1.15x1.40mm_HandSolder" V 3380 2450 50  0001 C CNN
F 3 "~" H 3450 2450 50  0001 C CNN
	1    3450 2450
	0    1    1    0   
$EndComp
Wire Wire Line
	2950 2450 3300 2450
Wire Wire Line
	3600 2450 3650 2450
$Comp
L Device:R R19
U 1 1 5E37C43D
P 4550 2000
F 0 "R19" H 4620 2046 50  0000 L CNN
F 1 "2.2k" H 4620 1955 50  0000 L CNN
F 2 "Resistor_SMD:R_0805_2012Metric_Pad1.15x1.40mm_HandSolder" V 4480 2000 50  0001 C CNN
F 3 "~" H 4550 2000 50  0001 C CNN
	1    4550 2000
	1    0    0    -1  
$EndComp
Wire Wire Line
	4550 2250 4550 2150
$Comp
L power:+3.3V #PWR040
U 1 1 5E37D22E
P 4550 1750
F 0 "#PWR040" H 4550 1600 50  0001 C CNN
F 1 "+3.3V" H 4565 1923 50  0000 C CNN
F 2 "" H 4550 1750 50  0001 C CNN
F 3 "" H 4550 1750 50  0001 C CNN
	1    4550 1750
	1    0    0    -1  
$EndComp
Wire Wire Line
	4550 1750 4550 1850
Wire Wire Line
	4200 2250 4550 2250
Connection ~ 4550 2250
$Comp
L Device:C C20
U 1 1 5E382849
P 2600 1950
F 0 "C20" V 2852 1950 50  0000 C CNN
F 1 "100n" V 2761 1950 50  0000 C CNN
F 2 "Capacitor_SMD:C_0805_2012Metric_Pad1.15x1.40mm_HandSolder" H 2638 1800 50  0001 C CNN
F 3 "~" H 2600 1950 50  0001 C CNN
	1    2600 1950
	0    -1   -1   0   
$EndComp
$Comp
L Device:C C21
U 1 1 5E38582E
P 4700 2650
F 0 "C21" V 4952 2650 50  0000 C CNN
F 1 "100n" V 4861 2650 50  0000 C CNN
F 2 "Capacitor_SMD:C_0805_2012Metric_Pad1.15x1.40mm_HandSolder" H 4738 2500 50  0001 C CNN
F 3 "~" H 4700 2650 50  0001 C CNN
	1    4700 2650
	1    0    0    -1  
$EndComp
Wire Wire Line
	2950 1950 2750 1950
Wire Wire Line
	2950 1950 2950 2050
Wire Wire Line
	4700 2250 4700 2500
$Comp
L power:GND #PWR037
U 1 1 5E387B8E
P 2300 2100
F 0 "#PWR037" H 2300 1850 50  0001 C CNN
F 1 "GND" H 2305 1927 50  0000 C CNN
F 2 "" H 2300 2100 50  0001 C CNN
F 3 "" H 2300 2100 50  0001 C CNN
	1    2300 2100
	1    0    0    -1  
$EndComp
Wire Wire Line
	2450 1950 2300 1950
Wire Wire Line
	2300 1950 2300 2100
$Comp
L power:+3.3V #PWR038
U 1 1 5E3E8A58
P 2950 1800
F 0 "#PWR038" H 2950 1650 50  0001 C CNN
F 1 "+3.3V" H 2965 1973 50  0000 C CNN
F 2 "" H 2950 1800 50  0001 C CNN
F 3 "" H 2950 1800 50  0001 C CNN
	1    2950 1800
	1    0    0    -1  
$EndComp
Wire Wire Line
	2950 1800 2950 1950
Connection ~ 2950 1950
Wire Notes Line
	2750 2700 3250 2700
Wire Notes Line
	3250 2700 3250 2050
Wire Notes Line
	2750 2050 2750 2700
Text Notes 2250 2900 0    50   ~ 0
Water level sensor interface\n
$Comp
L Connector:TestPoint TP?
U 1 1 5E428D6C
P 4550 2250
AR Path="/5E428D6C" Ref="TP?"  Part="1" 
AR Path="/5E3D2C1C/5E428D6C" Ref="Level2"  Part="1" 
F 0 "Level2" V 4745 2322 50  0000 C CNN
F 1 "TestPoint" V 4654 2322 50  0000 C CNN
F 2 "TestPoint:TestPoint_Pad_1.0x1.0mm" H 4750 2250 50  0001 C CNN
F 3 "~" H 4750 2250 50  0001 C CNN
	1    4550 2250
	-1   0    0    1   
$EndComp
$Comp
L Connector:TestPoint TP?
U 1 1 5E429213
P 3650 2350
AR Path="/5E429213" Ref="TP?"  Part="1" 
AR Path="/5E3D2C1C/5E429213" Ref="Level1"  Part="1" 
F 0 "Level1" V 3845 2422 50  0000 C CNN
F 1 "TestPoint" V 3754 2422 50  0000 C CNN
F 2 "TestPoint:TestPoint_Pad_1.0x1.0mm" H 3850 2350 50  0001 C CNN
F 3 "~" H 3850 2350 50  0001 C CNN
	1    3650 2350
	1    0    0    -1  
$EndComp
Wire Notes Line
	2750 2050 3250 2050
Text GLabel 4900 2250 2    50   Input ~ 0
Water_level
Wire Wire Line
	4900 2250 4700 2250
Wire Wire Line
	3650 2350 3650 2450
Connection ~ 3650 2450
Wire Wire Line
	3650 2450 3900 2450
Connection ~ 4700 2250
Wire Wire Line
	4700 2250 4550 2250
$Comp
L power:GND #PWR0107
U 1 1 5E484340
P 4700 2950
F 0 "#PWR0107" H 4700 2700 50  0001 C CNN
F 1 "GND" H 4705 2777 50  0000 C CNN
F 2 "" H 4700 2950 50  0001 C CNN
F 3 "" H 4700 2950 50  0001 C CNN
	1    4700 2950
	1    0    0    -1  
$EndComp
Wire Wire Line
	4700 2800 4700 2950
$EndSCHEMATC
