G04 #@! TF.GenerationSoftware,KiCad,Pcbnew,(5.1.4)-1*
G04 #@! TF.CreationDate,2020-02-05T16:19:25+01:00*
G04 #@! TF.ProjectId,Lab1_inbyggda_system,4c616231-5f69-46e6-9279-676764615f73,rev?*
G04 #@! TF.SameCoordinates,Original*
G04 #@! TF.FileFunction,Paste,Top*
G04 #@! TF.FilePolarity,Positive*
%FSLAX46Y46*%
G04 Gerber Fmt 4.6, Leading zero omitted, Abs format (unit mm)*
G04 Created by KiCad (PCBNEW (5.1.4)-1) date 2020-02-05 16:19:25*
%MOMM*%
%LPD*%
G04 APERTURE LIST*
%ADD10C,0.100000*%
%ADD11C,0.975000*%
%ADD12R,0.800000X0.500000*%
%ADD13R,0.500000X0.800000*%
%ADD14R,1.600000X1.600000*%
%ADD15R,2.100000X1.400000*%
%ADD16C,1.600000*%
%ADD17R,1.500000X1.900000*%
%ADD18R,0.400000X1.350000*%
%ADD19R,3.800000X2.000000*%
%ADD20R,1.500000X2.000000*%
G04 APERTURE END LIST*
D10*
G36*
X141280142Y-52651174D02*
G01*
X141303803Y-52654684D01*
X141327007Y-52660496D01*
X141349529Y-52668554D01*
X141371153Y-52678782D01*
X141391670Y-52691079D01*
X141410883Y-52705329D01*
X141428607Y-52721393D01*
X141444671Y-52739117D01*
X141458921Y-52758330D01*
X141471218Y-52778847D01*
X141481446Y-52800471D01*
X141489504Y-52822993D01*
X141495316Y-52846197D01*
X141498826Y-52869858D01*
X141500000Y-52893750D01*
X141500000Y-53381250D01*
X141498826Y-53405142D01*
X141495316Y-53428803D01*
X141489504Y-53452007D01*
X141481446Y-53474529D01*
X141471218Y-53496153D01*
X141458921Y-53516670D01*
X141444671Y-53535883D01*
X141428607Y-53553607D01*
X141410883Y-53569671D01*
X141391670Y-53583921D01*
X141371153Y-53596218D01*
X141349529Y-53606446D01*
X141327007Y-53614504D01*
X141303803Y-53620316D01*
X141280142Y-53623826D01*
X141256250Y-53625000D01*
X140343750Y-53625000D01*
X140319858Y-53623826D01*
X140296197Y-53620316D01*
X140272993Y-53614504D01*
X140250471Y-53606446D01*
X140228847Y-53596218D01*
X140208330Y-53583921D01*
X140189117Y-53569671D01*
X140171393Y-53553607D01*
X140155329Y-53535883D01*
X140141079Y-53516670D01*
X140128782Y-53496153D01*
X140118554Y-53474529D01*
X140110496Y-53452007D01*
X140104684Y-53428803D01*
X140101174Y-53405142D01*
X140100000Y-53381250D01*
X140100000Y-52893750D01*
X140101174Y-52869858D01*
X140104684Y-52846197D01*
X140110496Y-52822993D01*
X140118554Y-52800471D01*
X140128782Y-52778847D01*
X140141079Y-52758330D01*
X140155329Y-52739117D01*
X140171393Y-52721393D01*
X140189117Y-52705329D01*
X140208330Y-52691079D01*
X140228847Y-52678782D01*
X140250471Y-52668554D01*
X140272993Y-52660496D01*
X140296197Y-52654684D01*
X140319858Y-52651174D01*
X140343750Y-52650000D01*
X141256250Y-52650000D01*
X141280142Y-52651174D01*
X141280142Y-52651174D01*
G37*
D11*
X140800000Y-53137500D03*
D10*
G36*
X141280142Y-50776174D02*
G01*
X141303803Y-50779684D01*
X141327007Y-50785496D01*
X141349529Y-50793554D01*
X141371153Y-50803782D01*
X141391670Y-50816079D01*
X141410883Y-50830329D01*
X141428607Y-50846393D01*
X141444671Y-50864117D01*
X141458921Y-50883330D01*
X141471218Y-50903847D01*
X141481446Y-50925471D01*
X141489504Y-50947993D01*
X141495316Y-50971197D01*
X141498826Y-50994858D01*
X141500000Y-51018750D01*
X141500000Y-51506250D01*
X141498826Y-51530142D01*
X141495316Y-51553803D01*
X141489504Y-51577007D01*
X141481446Y-51599529D01*
X141471218Y-51621153D01*
X141458921Y-51641670D01*
X141444671Y-51660883D01*
X141428607Y-51678607D01*
X141410883Y-51694671D01*
X141391670Y-51708921D01*
X141371153Y-51721218D01*
X141349529Y-51731446D01*
X141327007Y-51739504D01*
X141303803Y-51745316D01*
X141280142Y-51748826D01*
X141256250Y-51750000D01*
X140343750Y-51750000D01*
X140319858Y-51748826D01*
X140296197Y-51745316D01*
X140272993Y-51739504D01*
X140250471Y-51731446D01*
X140228847Y-51721218D01*
X140208330Y-51708921D01*
X140189117Y-51694671D01*
X140171393Y-51678607D01*
X140155329Y-51660883D01*
X140141079Y-51641670D01*
X140128782Y-51621153D01*
X140118554Y-51599529D01*
X140110496Y-51577007D01*
X140104684Y-51553803D01*
X140101174Y-51530142D01*
X140100000Y-51506250D01*
X140100000Y-51018750D01*
X140101174Y-50994858D01*
X140104684Y-50971197D01*
X140110496Y-50947993D01*
X140118554Y-50925471D01*
X140128782Y-50903847D01*
X140141079Y-50883330D01*
X140155329Y-50864117D01*
X140171393Y-50846393D01*
X140189117Y-50830329D01*
X140208330Y-50816079D01*
X140228847Y-50803782D01*
X140250471Y-50793554D01*
X140272993Y-50785496D01*
X140296197Y-50779684D01*
X140319858Y-50776174D01*
X140343750Y-50775000D01*
X141256250Y-50775000D01*
X141280142Y-50776174D01*
X141280142Y-50776174D01*
G37*
D11*
X140800000Y-51262500D03*
D12*
X146050000Y-66450000D03*
X160950000Y-69650000D03*
X160950000Y-66450000D03*
X160950000Y-68050000D03*
X160950000Y-60850000D03*
X160950000Y-62450000D03*
X160950000Y-64850000D03*
X160950000Y-68850000D03*
X160950000Y-63250000D03*
X160950000Y-61650000D03*
X160950000Y-65650000D03*
X160950000Y-64050000D03*
X160950000Y-67250000D03*
X146050000Y-68050000D03*
X146050000Y-68850000D03*
X146050000Y-69650000D03*
D13*
X155500000Y-72250000D03*
X152300000Y-72250000D03*
X157900000Y-72250000D03*
X157100000Y-72250000D03*
X149100000Y-72250000D03*
X153900000Y-72250000D03*
X156300000Y-72250000D03*
X154700000Y-72250000D03*
X149900000Y-72250000D03*
X151500000Y-72250000D03*
X153100000Y-72250000D03*
X150700000Y-72250000D03*
D12*
X146050000Y-64050000D03*
X146050000Y-65650000D03*
X146050000Y-67250000D03*
X146050000Y-64850000D03*
X146050000Y-62450000D03*
X146050000Y-63250000D03*
X146050000Y-61650000D03*
D13*
X150700000Y-70450000D03*
D12*
X159150000Y-64050000D03*
X147850000Y-60850000D03*
D13*
X150700000Y-60050000D03*
D12*
X147850000Y-69650000D03*
D13*
X152300000Y-60050000D03*
D12*
X147850000Y-66450000D03*
X147850000Y-68850000D03*
D14*
X153500000Y-62750000D03*
D12*
X159150000Y-68850000D03*
D14*
X156000000Y-62750000D03*
D13*
X152300000Y-70450000D03*
D12*
X159150000Y-63250000D03*
X159150000Y-64850000D03*
D13*
X155500000Y-60050000D03*
X151500000Y-60050000D03*
D14*
X151000000Y-65250000D03*
X153500000Y-65250000D03*
D12*
X147850000Y-63250000D03*
D13*
X149100000Y-70450000D03*
D14*
X156000000Y-65250000D03*
D13*
X151500000Y-70450000D03*
D14*
X151000000Y-67750000D03*
X153500000Y-67750000D03*
X156000000Y-67750000D03*
D12*
X146050000Y-60850000D03*
D14*
X151000000Y-62750000D03*
D13*
X154700000Y-60050000D03*
X157900000Y-70450000D03*
D12*
X159150000Y-60850000D03*
D13*
X157100000Y-70450000D03*
D12*
X147850000Y-64050000D03*
X159150000Y-62450000D03*
X159150000Y-66450000D03*
X159150000Y-68050000D03*
X147850000Y-67250000D03*
X147850000Y-62450000D03*
X159150000Y-61650000D03*
D13*
X153900000Y-60050000D03*
X149100000Y-60050000D03*
X156300000Y-70450000D03*
X153900000Y-70450000D03*
X157100000Y-60050000D03*
X154700000Y-70450000D03*
X157900000Y-60050000D03*
X156300000Y-60050000D03*
X155500000Y-70450000D03*
X153100000Y-70450000D03*
D12*
X147850000Y-68050000D03*
X159150000Y-65650000D03*
X159150000Y-69650000D03*
D13*
X149900000Y-70450000D03*
D12*
X147850000Y-64850000D03*
X147850000Y-61650000D03*
D13*
X153100000Y-60050000D03*
X149900000Y-60050000D03*
D12*
X159150000Y-67250000D03*
X147850000Y-65650000D03*
D13*
X156300000Y-58250000D03*
X157900000Y-58250000D03*
X155500000Y-58250000D03*
X157100000Y-58250000D03*
X153900000Y-58250000D03*
X153100000Y-58250000D03*
X150700000Y-58250000D03*
X151500000Y-58250000D03*
X152300000Y-58250000D03*
X154700000Y-58250000D03*
X149100000Y-58250000D03*
X149900000Y-58250000D03*
D15*
X159200000Y-41200000D03*
X168300000Y-41200000D03*
X159200000Y-46000000D03*
X168300000Y-46000000D03*
D10*
G36*
X149574504Y-45951204D02*
G01*
X149598773Y-45954804D01*
X149622571Y-45960765D01*
X149645671Y-45969030D01*
X149667849Y-45979520D01*
X149688893Y-45992133D01*
X149708598Y-46006747D01*
X149726777Y-46023223D01*
X149743253Y-46041402D01*
X149757867Y-46061107D01*
X149770480Y-46082151D01*
X149780970Y-46104329D01*
X149789235Y-46127429D01*
X149795196Y-46151227D01*
X149798796Y-46175496D01*
X149800000Y-46200000D01*
X149800000Y-49200000D01*
X149798796Y-49224504D01*
X149795196Y-49248773D01*
X149789235Y-49272571D01*
X149780970Y-49295671D01*
X149770480Y-49317849D01*
X149757867Y-49338893D01*
X149743253Y-49358598D01*
X149726777Y-49376777D01*
X149708598Y-49393253D01*
X149688893Y-49407867D01*
X149667849Y-49420480D01*
X149645671Y-49430970D01*
X149622571Y-49439235D01*
X149598773Y-49445196D01*
X149574504Y-49448796D01*
X149550000Y-49450000D01*
X148450000Y-49450000D01*
X148425496Y-49448796D01*
X148401227Y-49445196D01*
X148377429Y-49439235D01*
X148354329Y-49430970D01*
X148332151Y-49420480D01*
X148311107Y-49407867D01*
X148291402Y-49393253D01*
X148273223Y-49376777D01*
X148256747Y-49358598D01*
X148242133Y-49338893D01*
X148229520Y-49317849D01*
X148219030Y-49295671D01*
X148210765Y-49272571D01*
X148204804Y-49248773D01*
X148201204Y-49224504D01*
X148200000Y-49200000D01*
X148200000Y-46200000D01*
X148201204Y-46175496D01*
X148204804Y-46151227D01*
X148210765Y-46127429D01*
X148219030Y-46104329D01*
X148229520Y-46082151D01*
X148242133Y-46061107D01*
X148256747Y-46041402D01*
X148273223Y-46023223D01*
X148291402Y-46006747D01*
X148311107Y-45992133D01*
X148332151Y-45979520D01*
X148354329Y-45969030D01*
X148377429Y-45960765D01*
X148401227Y-45954804D01*
X148425496Y-45951204D01*
X148450000Y-45950000D01*
X149550000Y-45950000D01*
X149574504Y-45951204D01*
X149574504Y-45951204D01*
G37*
D16*
X149000000Y-47700000D03*
D10*
G36*
X149574504Y-51551204D02*
G01*
X149598773Y-51554804D01*
X149622571Y-51560765D01*
X149645671Y-51569030D01*
X149667849Y-51579520D01*
X149688893Y-51592133D01*
X149708598Y-51606747D01*
X149726777Y-51623223D01*
X149743253Y-51641402D01*
X149757867Y-51661107D01*
X149770480Y-51682151D01*
X149780970Y-51704329D01*
X149789235Y-51727429D01*
X149795196Y-51751227D01*
X149798796Y-51775496D01*
X149800000Y-51800000D01*
X149800000Y-54800000D01*
X149798796Y-54824504D01*
X149795196Y-54848773D01*
X149789235Y-54872571D01*
X149780970Y-54895671D01*
X149770480Y-54917849D01*
X149757867Y-54938893D01*
X149743253Y-54958598D01*
X149726777Y-54976777D01*
X149708598Y-54993253D01*
X149688893Y-55007867D01*
X149667849Y-55020480D01*
X149645671Y-55030970D01*
X149622571Y-55039235D01*
X149598773Y-55045196D01*
X149574504Y-55048796D01*
X149550000Y-55050000D01*
X148450000Y-55050000D01*
X148425496Y-55048796D01*
X148401227Y-55045196D01*
X148377429Y-55039235D01*
X148354329Y-55030970D01*
X148332151Y-55020480D01*
X148311107Y-55007867D01*
X148291402Y-54993253D01*
X148273223Y-54976777D01*
X148256747Y-54958598D01*
X148242133Y-54938893D01*
X148229520Y-54917849D01*
X148219030Y-54895671D01*
X148210765Y-54872571D01*
X148204804Y-54848773D01*
X148201204Y-54824504D01*
X148200000Y-54800000D01*
X148200000Y-51800000D01*
X148201204Y-51775496D01*
X148204804Y-51751227D01*
X148210765Y-51727429D01*
X148219030Y-51704329D01*
X148229520Y-51682151D01*
X148242133Y-51661107D01*
X148256747Y-51641402D01*
X148273223Y-51623223D01*
X148291402Y-51606747D01*
X148311107Y-51592133D01*
X148332151Y-51579520D01*
X148354329Y-51569030D01*
X148377429Y-51560765D01*
X148401227Y-51554804D01*
X148425496Y-51551204D01*
X148450000Y-51550000D01*
X149550000Y-51550000D01*
X149574504Y-51551204D01*
X149574504Y-51551204D01*
G37*
D16*
X149000000Y-53300000D03*
D10*
G36*
X141824504Y-75801204D02*
G01*
X141848773Y-75804804D01*
X141872571Y-75810765D01*
X141895671Y-75819030D01*
X141917849Y-75829520D01*
X141938893Y-75842133D01*
X141958598Y-75856747D01*
X141976777Y-75873223D01*
X141993253Y-75891402D01*
X142007867Y-75911107D01*
X142020480Y-75932151D01*
X142030970Y-75954329D01*
X142039235Y-75977429D01*
X142045196Y-76001227D01*
X142048796Y-76025496D01*
X142050000Y-76050000D01*
X142050000Y-79050000D01*
X142048796Y-79074504D01*
X142045196Y-79098773D01*
X142039235Y-79122571D01*
X142030970Y-79145671D01*
X142020480Y-79167849D01*
X142007867Y-79188893D01*
X141993253Y-79208598D01*
X141976777Y-79226777D01*
X141958598Y-79243253D01*
X141938893Y-79257867D01*
X141917849Y-79270480D01*
X141895671Y-79280970D01*
X141872571Y-79289235D01*
X141848773Y-79295196D01*
X141824504Y-79298796D01*
X141800000Y-79300000D01*
X140700000Y-79300000D01*
X140675496Y-79298796D01*
X140651227Y-79295196D01*
X140627429Y-79289235D01*
X140604329Y-79280970D01*
X140582151Y-79270480D01*
X140561107Y-79257867D01*
X140541402Y-79243253D01*
X140523223Y-79226777D01*
X140506747Y-79208598D01*
X140492133Y-79188893D01*
X140479520Y-79167849D01*
X140469030Y-79145671D01*
X140460765Y-79122571D01*
X140454804Y-79098773D01*
X140451204Y-79074504D01*
X140450000Y-79050000D01*
X140450000Y-76050000D01*
X140451204Y-76025496D01*
X140454804Y-76001227D01*
X140460765Y-75977429D01*
X140469030Y-75954329D01*
X140479520Y-75932151D01*
X140492133Y-75911107D01*
X140506747Y-75891402D01*
X140523223Y-75873223D01*
X140541402Y-75856747D01*
X140561107Y-75842133D01*
X140582151Y-75829520D01*
X140604329Y-75819030D01*
X140627429Y-75810765D01*
X140651227Y-75804804D01*
X140675496Y-75801204D01*
X140700000Y-75800000D01*
X141800000Y-75800000D01*
X141824504Y-75801204D01*
X141824504Y-75801204D01*
G37*
D16*
X141250000Y-77550000D03*
D10*
G36*
X141824504Y-70201204D02*
G01*
X141848773Y-70204804D01*
X141872571Y-70210765D01*
X141895671Y-70219030D01*
X141917849Y-70229520D01*
X141938893Y-70242133D01*
X141958598Y-70256747D01*
X141976777Y-70273223D01*
X141993253Y-70291402D01*
X142007867Y-70311107D01*
X142020480Y-70332151D01*
X142030970Y-70354329D01*
X142039235Y-70377429D01*
X142045196Y-70401227D01*
X142048796Y-70425496D01*
X142050000Y-70450000D01*
X142050000Y-73450000D01*
X142048796Y-73474504D01*
X142045196Y-73498773D01*
X142039235Y-73522571D01*
X142030970Y-73545671D01*
X142020480Y-73567849D01*
X142007867Y-73588893D01*
X141993253Y-73608598D01*
X141976777Y-73626777D01*
X141958598Y-73643253D01*
X141938893Y-73657867D01*
X141917849Y-73670480D01*
X141895671Y-73680970D01*
X141872571Y-73689235D01*
X141848773Y-73695196D01*
X141824504Y-73698796D01*
X141800000Y-73700000D01*
X140700000Y-73700000D01*
X140675496Y-73698796D01*
X140651227Y-73695196D01*
X140627429Y-73689235D01*
X140604329Y-73680970D01*
X140582151Y-73670480D01*
X140561107Y-73657867D01*
X140541402Y-73643253D01*
X140523223Y-73626777D01*
X140506747Y-73608598D01*
X140492133Y-73588893D01*
X140479520Y-73567849D01*
X140469030Y-73545671D01*
X140460765Y-73522571D01*
X140454804Y-73498773D01*
X140451204Y-73474504D01*
X140450000Y-73450000D01*
X140450000Y-70450000D01*
X140451204Y-70425496D01*
X140454804Y-70401227D01*
X140460765Y-70377429D01*
X140469030Y-70354329D01*
X140479520Y-70332151D01*
X140492133Y-70311107D01*
X140506747Y-70291402D01*
X140523223Y-70273223D01*
X140541402Y-70256747D01*
X140561107Y-70242133D01*
X140582151Y-70229520D01*
X140604329Y-70219030D01*
X140627429Y-70210765D01*
X140651227Y-70204804D01*
X140675496Y-70201204D01*
X140700000Y-70200000D01*
X141800000Y-70200000D01*
X141824504Y-70201204D01*
X141824504Y-70201204D01*
G37*
D16*
X141250000Y-71950000D03*
D10*
G36*
X132392642Y-66051174D02*
G01*
X132416303Y-66054684D01*
X132439507Y-66060496D01*
X132462029Y-66068554D01*
X132483653Y-66078782D01*
X132504170Y-66091079D01*
X132523383Y-66105329D01*
X132541107Y-66121393D01*
X132557171Y-66139117D01*
X132571421Y-66158330D01*
X132583718Y-66178847D01*
X132593946Y-66200471D01*
X132602004Y-66222993D01*
X132607816Y-66246197D01*
X132611326Y-66269858D01*
X132612500Y-66293750D01*
X132612500Y-67206250D01*
X132611326Y-67230142D01*
X132607816Y-67253803D01*
X132602004Y-67277007D01*
X132593946Y-67299529D01*
X132583718Y-67321153D01*
X132571421Y-67341670D01*
X132557171Y-67360883D01*
X132541107Y-67378607D01*
X132523383Y-67394671D01*
X132504170Y-67408921D01*
X132483653Y-67421218D01*
X132462029Y-67431446D01*
X132439507Y-67439504D01*
X132416303Y-67445316D01*
X132392642Y-67448826D01*
X132368750Y-67450000D01*
X131881250Y-67450000D01*
X131857358Y-67448826D01*
X131833697Y-67445316D01*
X131810493Y-67439504D01*
X131787971Y-67431446D01*
X131766347Y-67421218D01*
X131745830Y-67408921D01*
X131726617Y-67394671D01*
X131708893Y-67378607D01*
X131692829Y-67360883D01*
X131678579Y-67341670D01*
X131666282Y-67321153D01*
X131656054Y-67299529D01*
X131647996Y-67277007D01*
X131642184Y-67253803D01*
X131638674Y-67230142D01*
X131637500Y-67206250D01*
X131637500Y-66293750D01*
X131638674Y-66269858D01*
X131642184Y-66246197D01*
X131647996Y-66222993D01*
X131656054Y-66200471D01*
X131666282Y-66178847D01*
X131678579Y-66158330D01*
X131692829Y-66139117D01*
X131708893Y-66121393D01*
X131726617Y-66105329D01*
X131745830Y-66091079D01*
X131766347Y-66078782D01*
X131787971Y-66068554D01*
X131810493Y-66060496D01*
X131833697Y-66054684D01*
X131857358Y-66051174D01*
X131881250Y-66050000D01*
X132368750Y-66050000D01*
X132392642Y-66051174D01*
X132392642Y-66051174D01*
G37*
D11*
X132125000Y-66750000D03*
D10*
G36*
X134267642Y-66051174D02*
G01*
X134291303Y-66054684D01*
X134314507Y-66060496D01*
X134337029Y-66068554D01*
X134358653Y-66078782D01*
X134379170Y-66091079D01*
X134398383Y-66105329D01*
X134416107Y-66121393D01*
X134432171Y-66139117D01*
X134446421Y-66158330D01*
X134458718Y-66178847D01*
X134468946Y-66200471D01*
X134477004Y-66222993D01*
X134482816Y-66246197D01*
X134486326Y-66269858D01*
X134487500Y-66293750D01*
X134487500Y-67206250D01*
X134486326Y-67230142D01*
X134482816Y-67253803D01*
X134477004Y-67277007D01*
X134468946Y-67299529D01*
X134458718Y-67321153D01*
X134446421Y-67341670D01*
X134432171Y-67360883D01*
X134416107Y-67378607D01*
X134398383Y-67394671D01*
X134379170Y-67408921D01*
X134358653Y-67421218D01*
X134337029Y-67431446D01*
X134314507Y-67439504D01*
X134291303Y-67445316D01*
X134267642Y-67448826D01*
X134243750Y-67450000D01*
X133756250Y-67450000D01*
X133732358Y-67448826D01*
X133708697Y-67445316D01*
X133685493Y-67439504D01*
X133662971Y-67431446D01*
X133641347Y-67421218D01*
X133620830Y-67408921D01*
X133601617Y-67394671D01*
X133583893Y-67378607D01*
X133567829Y-67360883D01*
X133553579Y-67341670D01*
X133541282Y-67321153D01*
X133531054Y-67299529D01*
X133522996Y-67277007D01*
X133517184Y-67253803D01*
X133513674Y-67230142D01*
X133512500Y-67206250D01*
X133512500Y-66293750D01*
X133513674Y-66269858D01*
X133517184Y-66246197D01*
X133522996Y-66222993D01*
X133531054Y-66200471D01*
X133541282Y-66178847D01*
X133553579Y-66158330D01*
X133567829Y-66139117D01*
X133583893Y-66121393D01*
X133601617Y-66105329D01*
X133620830Y-66091079D01*
X133641347Y-66078782D01*
X133662971Y-66068554D01*
X133685493Y-66060496D01*
X133708697Y-66054684D01*
X133732358Y-66051174D01*
X133756250Y-66050000D01*
X134243750Y-66050000D01*
X134267642Y-66051174D01*
X134267642Y-66051174D01*
G37*
D11*
X134000000Y-66750000D03*
D10*
G36*
X144480142Y-51076174D02*
G01*
X144503803Y-51079684D01*
X144527007Y-51085496D01*
X144549529Y-51093554D01*
X144571153Y-51103782D01*
X144591670Y-51116079D01*
X144610883Y-51130329D01*
X144628607Y-51146393D01*
X144644671Y-51164117D01*
X144658921Y-51183330D01*
X144671218Y-51203847D01*
X144681446Y-51225471D01*
X144689504Y-51247993D01*
X144695316Y-51271197D01*
X144698826Y-51294858D01*
X144700000Y-51318750D01*
X144700000Y-51806250D01*
X144698826Y-51830142D01*
X144695316Y-51853803D01*
X144689504Y-51877007D01*
X144681446Y-51899529D01*
X144671218Y-51921153D01*
X144658921Y-51941670D01*
X144644671Y-51960883D01*
X144628607Y-51978607D01*
X144610883Y-51994671D01*
X144591670Y-52008921D01*
X144571153Y-52021218D01*
X144549529Y-52031446D01*
X144527007Y-52039504D01*
X144503803Y-52045316D01*
X144480142Y-52048826D01*
X144456250Y-52050000D01*
X143543750Y-52050000D01*
X143519858Y-52048826D01*
X143496197Y-52045316D01*
X143472993Y-52039504D01*
X143450471Y-52031446D01*
X143428847Y-52021218D01*
X143408330Y-52008921D01*
X143389117Y-51994671D01*
X143371393Y-51978607D01*
X143355329Y-51960883D01*
X143341079Y-51941670D01*
X143328782Y-51921153D01*
X143318554Y-51899529D01*
X143310496Y-51877007D01*
X143304684Y-51853803D01*
X143301174Y-51830142D01*
X143300000Y-51806250D01*
X143300000Y-51318750D01*
X143301174Y-51294858D01*
X143304684Y-51271197D01*
X143310496Y-51247993D01*
X143318554Y-51225471D01*
X143328782Y-51203847D01*
X143341079Y-51183330D01*
X143355329Y-51164117D01*
X143371393Y-51146393D01*
X143389117Y-51130329D01*
X143408330Y-51116079D01*
X143428847Y-51103782D01*
X143450471Y-51093554D01*
X143472993Y-51085496D01*
X143496197Y-51079684D01*
X143519858Y-51076174D01*
X143543750Y-51075000D01*
X144456250Y-51075000D01*
X144480142Y-51076174D01*
X144480142Y-51076174D01*
G37*
D11*
X144000000Y-51562500D03*
D10*
G36*
X144480142Y-52951174D02*
G01*
X144503803Y-52954684D01*
X144527007Y-52960496D01*
X144549529Y-52968554D01*
X144571153Y-52978782D01*
X144591670Y-52991079D01*
X144610883Y-53005329D01*
X144628607Y-53021393D01*
X144644671Y-53039117D01*
X144658921Y-53058330D01*
X144671218Y-53078847D01*
X144681446Y-53100471D01*
X144689504Y-53122993D01*
X144695316Y-53146197D01*
X144698826Y-53169858D01*
X144700000Y-53193750D01*
X144700000Y-53681250D01*
X144698826Y-53705142D01*
X144695316Y-53728803D01*
X144689504Y-53752007D01*
X144681446Y-53774529D01*
X144671218Y-53796153D01*
X144658921Y-53816670D01*
X144644671Y-53835883D01*
X144628607Y-53853607D01*
X144610883Y-53869671D01*
X144591670Y-53883921D01*
X144571153Y-53896218D01*
X144549529Y-53906446D01*
X144527007Y-53914504D01*
X144503803Y-53920316D01*
X144480142Y-53923826D01*
X144456250Y-53925000D01*
X143543750Y-53925000D01*
X143519858Y-53923826D01*
X143496197Y-53920316D01*
X143472993Y-53914504D01*
X143450471Y-53906446D01*
X143428847Y-53896218D01*
X143408330Y-53883921D01*
X143389117Y-53869671D01*
X143371393Y-53853607D01*
X143355329Y-53835883D01*
X143341079Y-53816670D01*
X143328782Y-53796153D01*
X143318554Y-53774529D01*
X143310496Y-53752007D01*
X143304684Y-53728803D01*
X143301174Y-53705142D01*
X143300000Y-53681250D01*
X143300000Y-53193750D01*
X143301174Y-53169858D01*
X143304684Y-53146197D01*
X143310496Y-53122993D01*
X143318554Y-53100471D01*
X143328782Y-53078847D01*
X143341079Y-53058330D01*
X143355329Y-53039117D01*
X143371393Y-53021393D01*
X143389117Y-53005329D01*
X143408330Y-52991079D01*
X143428847Y-52978782D01*
X143450471Y-52968554D01*
X143472993Y-52960496D01*
X143496197Y-52954684D01*
X143519858Y-52951174D01*
X143543750Y-52950000D01*
X144456250Y-52950000D01*
X144480142Y-52951174D01*
X144480142Y-52951174D01*
G37*
D11*
X144000000Y-53437500D03*
D10*
G36*
X133724504Y-50501204D02*
G01*
X133748773Y-50504804D01*
X133772571Y-50510765D01*
X133795671Y-50519030D01*
X133817849Y-50529520D01*
X133838893Y-50542133D01*
X133858598Y-50556747D01*
X133876777Y-50573223D01*
X133893253Y-50591402D01*
X133907867Y-50611107D01*
X133920480Y-50632151D01*
X133930970Y-50654329D01*
X133939235Y-50677429D01*
X133945196Y-50701227D01*
X133948796Y-50725496D01*
X133950000Y-50750000D01*
X133950000Y-51850000D01*
X133948796Y-51874504D01*
X133945196Y-51898773D01*
X133939235Y-51922571D01*
X133930970Y-51945671D01*
X133920480Y-51967849D01*
X133907867Y-51988893D01*
X133893253Y-52008598D01*
X133876777Y-52026777D01*
X133858598Y-52043253D01*
X133838893Y-52057867D01*
X133817849Y-52070480D01*
X133795671Y-52080970D01*
X133772571Y-52089235D01*
X133748773Y-52095196D01*
X133724504Y-52098796D01*
X133700000Y-52100000D01*
X130700000Y-52100000D01*
X130675496Y-52098796D01*
X130651227Y-52095196D01*
X130627429Y-52089235D01*
X130604329Y-52080970D01*
X130582151Y-52070480D01*
X130561107Y-52057867D01*
X130541402Y-52043253D01*
X130523223Y-52026777D01*
X130506747Y-52008598D01*
X130492133Y-51988893D01*
X130479520Y-51967849D01*
X130469030Y-51945671D01*
X130460765Y-51922571D01*
X130454804Y-51898773D01*
X130451204Y-51874504D01*
X130450000Y-51850000D01*
X130450000Y-50750000D01*
X130451204Y-50725496D01*
X130454804Y-50701227D01*
X130460765Y-50677429D01*
X130469030Y-50654329D01*
X130479520Y-50632151D01*
X130492133Y-50611107D01*
X130506747Y-50591402D01*
X130523223Y-50573223D01*
X130541402Y-50556747D01*
X130561107Y-50542133D01*
X130582151Y-50529520D01*
X130604329Y-50519030D01*
X130627429Y-50510765D01*
X130651227Y-50504804D01*
X130675496Y-50501204D01*
X130700000Y-50500000D01*
X133700000Y-50500000D01*
X133724504Y-50501204D01*
X133724504Y-50501204D01*
G37*
D16*
X132200000Y-51300000D03*
D10*
G36*
X139324504Y-50501204D02*
G01*
X139348773Y-50504804D01*
X139372571Y-50510765D01*
X139395671Y-50519030D01*
X139417849Y-50529520D01*
X139438893Y-50542133D01*
X139458598Y-50556747D01*
X139476777Y-50573223D01*
X139493253Y-50591402D01*
X139507867Y-50611107D01*
X139520480Y-50632151D01*
X139530970Y-50654329D01*
X139539235Y-50677429D01*
X139545196Y-50701227D01*
X139548796Y-50725496D01*
X139550000Y-50750000D01*
X139550000Y-51850000D01*
X139548796Y-51874504D01*
X139545196Y-51898773D01*
X139539235Y-51922571D01*
X139530970Y-51945671D01*
X139520480Y-51967849D01*
X139507867Y-51988893D01*
X139493253Y-52008598D01*
X139476777Y-52026777D01*
X139458598Y-52043253D01*
X139438893Y-52057867D01*
X139417849Y-52070480D01*
X139395671Y-52080970D01*
X139372571Y-52089235D01*
X139348773Y-52095196D01*
X139324504Y-52098796D01*
X139300000Y-52100000D01*
X136300000Y-52100000D01*
X136275496Y-52098796D01*
X136251227Y-52095196D01*
X136227429Y-52089235D01*
X136204329Y-52080970D01*
X136182151Y-52070480D01*
X136161107Y-52057867D01*
X136141402Y-52043253D01*
X136123223Y-52026777D01*
X136106747Y-52008598D01*
X136092133Y-51988893D01*
X136079520Y-51967849D01*
X136069030Y-51945671D01*
X136060765Y-51922571D01*
X136054804Y-51898773D01*
X136051204Y-51874504D01*
X136050000Y-51850000D01*
X136050000Y-50750000D01*
X136051204Y-50725496D01*
X136054804Y-50701227D01*
X136060765Y-50677429D01*
X136069030Y-50654329D01*
X136079520Y-50632151D01*
X136092133Y-50611107D01*
X136106747Y-50591402D01*
X136123223Y-50573223D01*
X136141402Y-50556747D01*
X136161107Y-50542133D01*
X136182151Y-50529520D01*
X136204329Y-50519030D01*
X136227429Y-50510765D01*
X136251227Y-50504804D01*
X136275496Y-50501204D01*
X136300000Y-50500000D01*
X139300000Y-50500000D01*
X139324504Y-50501204D01*
X139324504Y-50501204D01*
G37*
D16*
X137800000Y-51300000D03*
D10*
G36*
X134324504Y-70201204D02*
G01*
X134348773Y-70204804D01*
X134372571Y-70210765D01*
X134395671Y-70219030D01*
X134417849Y-70229520D01*
X134438893Y-70242133D01*
X134458598Y-70256747D01*
X134476777Y-70273223D01*
X134493253Y-70291402D01*
X134507867Y-70311107D01*
X134520480Y-70332151D01*
X134530970Y-70354329D01*
X134539235Y-70377429D01*
X134545196Y-70401227D01*
X134548796Y-70425496D01*
X134550000Y-70450000D01*
X134550000Y-73450000D01*
X134548796Y-73474504D01*
X134545196Y-73498773D01*
X134539235Y-73522571D01*
X134530970Y-73545671D01*
X134520480Y-73567849D01*
X134507867Y-73588893D01*
X134493253Y-73608598D01*
X134476777Y-73626777D01*
X134458598Y-73643253D01*
X134438893Y-73657867D01*
X134417849Y-73670480D01*
X134395671Y-73680970D01*
X134372571Y-73689235D01*
X134348773Y-73695196D01*
X134324504Y-73698796D01*
X134300000Y-73700000D01*
X133200000Y-73700000D01*
X133175496Y-73698796D01*
X133151227Y-73695196D01*
X133127429Y-73689235D01*
X133104329Y-73680970D01*
X133082151Y-73670480D01*
X133061107Y-73657867D01*
X133041402Y-73643253D01*
X133023223Y-73626777D01*
X133006747Y-73608598D01*
X132992133Y-73588893D01*
X132979520Y-73567849D01*
X132969030Y-73545671D01*
X132960765Y-73522571D01*
X132954804Y-73498773D01*
X132951204Y-73474504D01*
X132950000Y-73450000D01*
X132950000Y-70450000D01*
X132951204Y-70425496D01*
X132954804Y-70401227D01*
X132960765Y-70377429D01*
X132969030Y-70354329D01*
X132979520Y-70332151D01*
X132992133Y-70311107D01*
X133006747Y-70291402D01*
X133023223Y-70273223D01*
X133041402Y-70256747D01*
X133061107Y-70242133D01*
X133082151Y-70229520D01*
X133104329Y-70219030D01*
X133127429Y-70210765D01*
X133151227Y-70204804D01*
X133175496Y-70201204D01*
X133200000Y-70200000D01*
X134300000Y-70200000D01*
X134324504Y-70201204D01*
X134324504Y-70201204D01*
G37*
D16*
X133750000Y-71950000D03*
D10*
G36*
X134324504Y-75801204D02*
G01*
X134348773Y-75804804D01*
X134372571Y-75810765D01*
X134395671Y-75819030D01*
X134417849Y-75829520D01*
X134438893Y-75842133D01*
X134458598Y-75856747D01*
X134476777Y-75873223D01*
X134493253Y-75891402D01*
X134507867Y-75911107D01*
X134520480Y-75932151D01*
X134530970Y-75954329D01*
X134539235Y-75977429D01*
X134545196Y-76001227D01*
X134548796Y-76025496D01*
X134550000Y-76050000D01*
X134550000Y-79050000D01*
X134548796Y-79074504D01*
X134545196Y-79098773D01*
X134539235Y-79122571D01*
X134530970Y-79145671D01*
X134520480Y-79167849D01*
X134507867Y-79188893D01*
X134493253Y-79208598D01*
X134476777Y-79226777D01*
X134458598Y-79243253D01*
X134438893Y-79257867D01*
X134417849Y-79270480D01*
X134395671Y-79280970D01*
X134372571Y-79289235D01*
X134348773Y-79295196D01*
X134324504Y-79298796D01*
X134300000Y-79300000D01*
X133200000Y-79300000D01*
X133175496Y-79298796D01*
X133151227Y-79295196D01*
X133127429Y-79289235D01*
X133104329Y-79280970D01*
X133082151Y-79270480D01*
X133061107Y-79257867D01*
X133041402Y-79243253D01*
X133023223Y-79226777D01*
X133006747Y-79208598D01*
X132992133Y-79188893D01*
X132979520Y-79167849D01*
X132969030Y-79145671D01*
X132960765Y-79122571D01*
X132954804Y-79098773D01*
X132951204Y-79074504D01*
X132950000Y-79050000D01*
X132950000Y-76050000D01*
X132951204Y-76025496D01*
X132954804Y-76001227D01*
X132960765Y-75977429D01*
X132969030Y-75954329D01*
X132979520Y-75932151D01*
X132992133Y-75911107D01*
X133006747Y-75891402D01*
X133023223Y-75873223D01*
X133041402Y-75856747D01*
X133061107Y-75842133D01*
X133082151Y-75829520D01*
X133104329Y-75819030D01*
X133127429Y-75810765D01*
X133151227Y-75804804D01*
X133175496Y-75801204D01*
X133200000Y-75800000D01*
X134300000Y-75800000D01*
X134324504Y-75801204D01*
X134324504Y-75801204D01*
G37*
D16*
X133750000Y-77550000D03*
D10*
G36*
X143980142Y-63513674D02*
G01*
X144003803Y-63517184D01*
X144027007Y-63522996D01*
X144049529Y-63531054D01*
X144071153Y-63541282D01*
X144091670Y-63553579D01*
X144110883Y-63567829D01*
X144128607Y-63583893D01*
X144144671Y-63601617D01*
X144158921Y-63620830D01*
X144171218Y-63641347D01*
X144181446Y-63662971D01*
X144189504Y-63685493D01*
X144195316Y-63708697D01*
X144198826Y-63732358D01*
X144200000Y-63756250D01*
X144200000Y-64243750D01*
X144198826Y-64267642D01*
X144195316Y-64291303D01*
X144189504Y-64314507D01*
X144181446Y-64337029D01*
X144171218Y-64358653D01*
X144158921Y-64379170D01*
X144144671Y-64398383D01*
X144128607Y-64416107D01*
X144110883Y-64432171D01*
X144091670Y-64446421D01*
X144071153Y-64458718D01*
X144049529Y-64468946D01*
X144027007Y-64477004D01*
X144003803Y-64482816D01*
X143980142Y-64486326D01*
X143956250Y-64487500D01*
X143043750Y-64487500D01*
X143019858Y-64486326D01*
X142996197Y-64482816D01*
X142972993Y-64477004D01*
X142950471Y-64468946D01*
X142928847Y-64458718D01*
X142908330Y-64446421D01*
X142889117Y-64432171D01*
X142871393Y-64416107D01*
X142855329Y-64398383D01*
X142841079Y-64379170D01*
X142828782Y-64358653D01*
X142818554Y-64337029D01*
X142810496Y-64314507D01*
X142804684Y-64291303D01*
X142801174Y-64267642D01*
X142800000Y-64243750D01*
X142800000Y-63756250D01*
X142801174Y-63732358D01*
X142804684Y-63708697D01*
X142810496Y-63685493D01*
X142818554Y-63662971D01*
X142828782Y-63641347D01*
X142841079Y-63620830D01*
X142855329Y-63601617D01*
X142871393Y-63583893D01*
X142889117Y-63567829D01*
X142908330Y-63553579D01*
X142928847Y-63541282D01*
X142950471Y-63531054D01*
X142972993Y-63522996D01*
X142996197Y-63517184D01*
X143019858Y-63513674D01*
X143043750Y-63512500D01*
X143956250Y-63512500D01*
X143980142Y-63513674D01*
X143980142Y-63513674D01*
G37*
D11*
X143500000Y-64000000D03*
D10*
G36*
X143980142Y-61638674D02*
G01*
X144003803Y-61642184D01*
X144027007Y-61647996D01*
X144049529Y-61656054D01*
X144071153Y-61666282D01*
X144091670Y-61678579D01*
X144110883Y-61692829D01*
X144128607Y-61708893D01*
X144144671Y-61726617D01*
X144158921Y-61745830D01*
X144171218Y-61766347D01*
X144181446Y-61787971D01*
X144189504Y-61810493D01*
X144195316Y-61833697D01*
X144198826Y-61857358D01*
X144200000Y-61881250D01*
X144200000Y-62368750D01*
X144198826Y-62392642D01*
X144195316Y-62416303D01*
X144189504Y-62439507D01*
X144181446Y-62462029D01*
X144171218Y-62483653D01*
X144158921Y-62504170D01*
X144144671Y-62523383D01*
X144128607Y-62541107D01*
X144110883Y-62557171D01*
X144091670Y-62571421D01*
X144071153Y-62583718D01*
X144049529Y-62593946D01*
X144027007Y-62602004D01*
X144003803Y-62607816D01*
X143980142Y-62611326D01*
X143956250Y-62612500D01*
X143043750Y-62612500D01*
X143019858Y-62611326D01*
X142996197Y-62607816D01*
X142972993Y-62602004D01*
X142950471Y-62593946D01*
X142928847Y-62583718D01*
X142908330Y-62571421D01*
X142889117Y-62557171D01*
X142871393Y-62541107D01*
X142855329Y-62523383D01*
X142841079Y-62504170D01*
X142828782Y-62483653D01*
X142818554Y-62462029D01*
X142810496Y-62439507D01*
X142804684Y-62416303D01*
X142801174Y-62392642D01*
X142800000Y-62368750D01*
X142800000Y-61881250D01*
X142801174Y-61857358D01*
X142804684Y-61833697D01*
X142810496Y-61810493D01*
X142818554Y-61787971D01*
X142828782Y-61766347D01*
X142841079Y-61745830D01*
X142855329Y-61726617D01*
X142871393Y-61708893D01*
X142889117Y-61692829D01*
X142908330Y-61678579D01*
X142928847Y-61666282D01*
X142950471Y-61656054D01*
X142972993Y-61647996D01*
X142996197Y-61642184D01*
X143019858Y-61638674D01*
X143043750Y-61637500D01*
X143956250Y-61637500D01*
X143980142Y-61638674D01*
X143980142Y-61638674D01*
G37*
D11*
X143500000Y-62125000D03*
D10*
G36*
X139980142Y-63451174D02*
G01*
X140003803Y-63454684D01*
X140027007Y-63460496D01*
X140049529Y-63468554D01*
X140071153Y-63478782D01*
X140091670Y-63491079D01*
X140110883Y-63505329D01*
X140128607Y-63521393D01*
X140144671Y-63539117D01*
X140158921Y-63558330D01*
X140171218Y-63578847D01*
X140181446Y-63600471D01*
X140189504Y-63622993D01*
X140195316Y-63646197D01*
X140198826Y-63669858D01*
X140200000Y-63693750D01*
X140200000Y-64181250D01*
X140198826Y-64205142D01*
X140195316Y-64228803D01*
X140189504Y-64252007D01*
X140181446Y-64274529D01*
X140171218Y-64296153D01*
X140158921Y-64316670D01*
X140144671Y-64335883D01*
X140128607Y-64353607D01*
X140110883Y-64369671D01*
X140091670Y-64383921D01*
X140071153Y-64396218D01*
X140049529Y-64406446D01*
X140027007Y-64414504D01*
X140003803Y-64420316D01*
X139980142Y-64423826D01*
X139956250Y-64425000D01*
X139043750Y-64425000D01*
X139019858Y-64423826D01*
X138996197Y-64420316D01*
X138972993Y-64414504D01*
X138950471Y-64406446D01*
X138928847Y-64396218D01*
X138908330Y-64383921D01*
X138889117Y-64369671D01*
X138871393Y-64353607D01*
X138855329Y-64335883D01*
X138841079Y-64316670D01*
X138828782Y-64296153D01*
X138818554Y-64274529D01*
X138810496Y-64252007D01*
X138804684Y-64228803D01*
X138801174Y-64205142D01*
X138800000Y-64181250D01*
X138800000Y-63693750D01*
X138801174Y-63669858D01*
X138804684Y-63646197D01*
X138810496Y-63622993D01*
X138818554Y-63600471D01*
X138828782Y-63578847D01*
X138841079Y-63558330D01*
X138855329Y-63539117D01*
X138871393Y-63521393D01*
X138889117Y-63505329D01*
X138908330Y-63491079D01*
X138928847Y-63478782D01*
X138950471Y-63468554D01*
X138972993Y-63460496D01*
X138996197Y-63454684D01*
X139019858Y-63451174D01*
X139043750Y-63450000D01*
X139956250Y-63450000D01*
X139980142Y-63451174D01*
X139980142Y-63451174D01*
G37*
D11*
X139500000Y-63937500D03*
D10*
G36*
X139980142Y-61576174D02*
G01*
X140003803Y-61579684D01*
X140027007Y-61585496D01*
X140049529Y-61593554D01*
X140071153Y-61603782D01*
X140091670Y-61616079D01*
X140110883Y-61630329D01*
X140128607Y-61646393D01*
X140144671Y-61664117D01*
X140158921Y-61683330D01*
X140171218Y-61703847D01*
X140181446Y-61725471D01*
X140189504Y-61747993D01*
X140195316Y-61771197D01*
X140198826Y-61794858D01*
X140200000Y-61818750D01*
X140200000Y-62306250D01*
X140198826Y-62330142D01*
X140195316Y-62353803D01*
X140189504Y-62377007D01*
X140181446Y-62399529D01*
X140171218Y-62421153D01*
X140158921Y-62441670D01*
X140144671Y-62460883D01*
X140128607Y-62478607D01*
X140110883Y-62494671D01*
X140091670Y-62508921D01*
X140071153Y-62521218D01*
X140049529Y-62531446D01*
X140027007Y-62539504D01*
X140003803Y-62545316D01*
X139980142Y-62548826D01*
X139956250Y-62550000D01*
X139043750Y-62550000D01*
X139019858Y-62548826D01*
X138996197Y-62545316D01*
X138972993Y-62539504D01*
X138950471Y-62531446D01*
X138928847Y-62521218D01*
X138908330Y-62508921D01*
X138889117Y-62494671D01*
X138871393Y-62478607D01*
X138855329Y-62460883D01*
X138841079Y-62441670D01*
X138828782Y-62421153D01*
X138818554Y-62399529D01*
X138810496Y-62377007D01*
X138804684Y-62353803D01*
X138801174Y-62330142D01*
X138800000Y-62306250D01*
X138800000Y-61818750D01*
X138801174Y-61794858D01*
X138804684Y-61771197D01*
X138810496Y-61747993D01*
X138818554Y-61725471D01*
X138828782Y-61703847D01*
X138841079Y-61683330D01*
X138855329Y-61664117D01*
X138871393Y-61646393D01*
X138889117Y-61630329D01*
X138908330Y-61616079D01*
X138928847Y-61603782D01*
X138950471Y-61593554D01*
X138972993Y-61585496D01*
X138996197Y-61579684D01*
X139019858Y-61576174D01*
X139043750Y-61575000D01*
X139956250Y-61575000D01*
X139980142Y-61576174D01*
X139980142Y-61576174D01*
G37*
D11*
X139500000Y-62062500D03*
D10*
G36*
X141980142Y-61576174D02*
G01*
X142003803Y-61579684D01*
X142027007Y-61585496D01*
X142049529Y-61593554D01*
X142071153Y-61603782D01*
X142091670Y-61616079D01*
X142110883Y-61630329D01*
X142128607Y-61646393D01*
X142144671Y-61664117D01*
X142158921Y-61683330D01*
X142171218Y-61703847D01*
X142181446Y-61725471D01*
X142189504Y-61747993D01*
X142195316Y-61771197D01*
X142198826Y-61794858D01*
X142200000Y-61818750D01*
X142200000Y-62306250D01*
X142198826Y-62330142D01*
X142195316Y-62353803D01*
X142189504Y-62377007D01*
X142181446Y-62399529D01*
X142171218Y-62421153D01*
X142158921Y-62441670D01*
X142144671Y-62460883D01*
X142128607Y-62478607D01*
X142110883Y-62494671D01*
X142091670Y-62508921D01*
X142071153Y-62521218D01*
X142049529Y-62531446D01*
X142027007Y-62539504D01*
X142003803Y-62545316D01*
X141980142Y-62548826D01*
X141956250Y-62550000D01*
X141043750Y-62550000D01*
X141019858Y-62548826D01*
X140996197Y-62545316D01*
X140972993Y-62539504D01*
X140950471Y-62531446D01*
X140928847Y-62521218D01*
X140908330Y-62508921D01*
X140889117Y-62494671D01*
X140871393Y-62478607D01*
X140855329Y-62460883D01*
X140841079Y-62441670D01*
X140828782Y-62421153D01*
X140818554Y-62399529D01*
X140810496Y-62377007D01*
X140804684Y-62353803D01*
X140801174Y-62330142D01*
X140800000Y-62306250D01*
X140800000Y-61818750D01*
X140801174Y-61794858D01*
X140804684Y-61771197D01*
X140810496Y-61747993D01*
X140818554Y-61725471D01*
X140828782Y-61703847D01*
X140841079Y-61683330D01*
X140855329Y-61664117D01*
X140871393Y-61646393D01*
X140889117Y-61630329D01*
X140908330Y-61616079D01*
X140928847Y-61603782D01*
X140950471Y-61593554D01*
X140972993Y-61585496D01*
X140996197Y-61579684D01*
X141019858Y-61576174D01*
X141043750Y-61575000D01*
X141956250Y-61575000D01*
X141980142Y-61576174D01*
X141980142Y-61576174D01*
G37*
D11*
X141500000Y-62062500D03*
D10*
G36*
X141980142Y-63451174D02*
G01*
X142003803Y-63454684D01*
X142027007Y-63460496D01*
X142049529Y-63468554D01*
X142071153Y-63478782D01*
X142091670Y-63491079D01*
X142110883Y-63505329D01*
X142128607Y-63521393D01*
X142144671Y-63539117D01*
X142158921Y-63558330D01*
X142171218Y-63578847D01*
X142181446Y-63600471D01*
X142189504Y-63622993D01*
X142195316Y-63646197D01*
X142198826Y-63669858D01*
X142200000Y-63693750D01*
X142200000Y-64181250D01*
X142198826Y-64205142D01*
X142195316Y-64228803D01*
X142189504Y-64252007D01*
X142181446Y-64274529D01*
X142171218Y-64296153D01*
X142158921Y-64316670D01*
X142144671Y-64335883D01*
X142128607Y-64353607D01*
X142110883Y-64369671D01*
X142091670Y-64383921D01*
X142071153Y-64396218D01*
X142049529Y-64406446D01*
X142027007Y-64414504D01*
X142003803Y-64420316D01*
X141980142Y-64423826D01*
X141956250Y-64425000D01*
X141043750Y-64425000D01*
X141019858Y-64423826D01*
X140996197Y-64420316D01*
X140972993Y-64414504D01*
X140950471Y-64406446D01*
X140928847Y-64396218D01*
X140908330Y-64383921D01*
X140889117Y-64369671D01*
X140871393Y-64353607D01*
X140855329Y-64335883D01*
X140841079Y-64316670D01*
X140828782Y-64296153D01*
X140818554Y-64274529D01*
X140810496Y-64252007D01*
X140804684Y-64228803D01*
X140801174Y-64205142D01*
X140800000Y-64181250D01*
X140800000Y-63693750D01*
X140801174Y-63669858D01*
X140804684Y-63646197D01*
X140810496Y-63622993D01*
X140818554Y-63600471D01*
X140828782Y-63578847D01*
X140841079Y-63558330D01*
X140855329Y-63539117D01*
X140871393Y-63521393D01*
X140889117Y-63505329D01*
X140908330Y-63491079D01*
X140928847Y-63478782D01*
X140950471Y-63468554D01*
X140972993Y-63460496D01*
X140996197Y-63454684D01*
X141019858Y-63451174D01*
X141043750Y-63450000D01*
X141956250Y-63450000D01*
X141980142Y-63451174D01*
X141980142Y-63451174D01*
G37*
D11*
X141500000Y-63937500D03*
D10*
G36*
X164780142Y-63413674D02*
G01*
X164803803Y-63417184D01*
X164827007Y-63422996D01*
X164849529Y-63431054D01*
X164871153Y-63441282D01*
X164891670Y-63453579D01*
X164910883Y-63467829D01*
X164928607Y-63483893D01*
X164944671Y-63501617D01*
X164958921Y-63520830D01*
X164971218Y-63541347D01*
X164981446Y-63562971D01*
X164989504Y-63585493D01*
X164995316Y-63608697D01*
X164998826Y-63632358D01*
X165000000Y-63656250D01*
X165000000Y-64143750D01*
X164998826Y-64167642D01*
X164995316Y-64191303D01*
X164989504Y-64214507D01*
X164981446Y-64237029D01*
X164971218Y-64258653D01*
X164958921Y-64279170D01*
X164944671Y-64298383D01*
X164928607Y-64316107D01*
X164910883Y-64332171D01*
X164891670Y-64346421D01*
X164871153Y-64358718D01*
X164849529Y-64368946D01*
X164827007Y-64377004D01*
X164803803Y-64382816D01*
X164780142Y-64386326D01*
X164756250Y-64387500D01*
X163843750Y-64387500D01*
X163819858Y-64386326D01*
X163796197Y-64382816D01*
X163772993Y-64377004D01*
X163750471Y-64368946D01*
X163728847Y-64358718D01*
X163708330Y-64346421D01*
X163689117Y-64332171D01*
X163671393Y-64316107D01*
X163655329Y-64298383D01*
X163641079Y-64279170D01*
X163628782Y-64258653D01*
X163618554Y-64237029D01*
X163610496Y-64214507D01*
X163604684Y-64191303D01*
X163601174Y-64167642D01*
X163600000Y-64143750D01*
X163600000Y-63656250D01*
X163601174Y-63632358D01*
X163604684Y-63608697D01*
X163610496Y-63585493D01*
X163618554Y-63562971D01*
X163628782Y-63541347D01*
X163641079Y-63520830D01*
X163655329Y-63501617D01*
X163671393Y-63483893D01*
X163689117Y-63467829D01*
X163708330Y-63453579D01*
X163728847Y-63441282D01*
X163750471Y-63431054D01*
X163772993Y-63422996D01*
X163796197Y-63417184D01*
X163819858Y-63413674D01*
X163843750Y-63412500D01*
X164756250Y-63412500D01*
X164780142Y-63413674D01*
X164780142Y-63413674D01*
G37*
D11*
X164300000Y-63900000D03*
D10*
G36*
X164780142Y-65288674D02*
G01*
X164803803Y-65292184D01*
X164827007Y-65297996D01*
X164849529Y-65306054D01*
X164871153Y-65316282D01*
X164891670Y-65328579D01*
X164910883Y-65342829D01*
X164928607Y-65358893D01*
X164944671Y-65376617D01*
X164958921Y-65395830D01*
X164971218Y-65416347D01*
X164981446Y-65437971D01*
X164989504Y-65460493D01*
X164995316Y-65483697D01*
X164998826Y-65507358D01*
X165000000Y-65531250D01*
X165000000Y-66018750D01*
X164998826Y-66042642D01*
X164995316Y-66066303D01*
X164989504Y-66089507D01*
X164981446Y-66112029D01*
X164971218Y-66133653D01*
X164958921Y-66154170D01*
X164944671Y-66173383D01*
X164928607Y-66191107D01*
X164910883Y-66207171D01*
X164891670Y-66221421D01*
X164871153Y-66233718D01*
X164849529Y-66243946D01*
X164827007Y-66252004D01*
X164803803Y-66257816D01*
X164780142Y-66261326D01*
X164756250Y-66262500D01*
X163843750Y-66262500D01*
X163819858Y-66261326D01*
X163796197Y-66257816D01*
X163772993Y-66252004D01*
X163750471Y-66243946D01*
X163728847Y-66233718D01*
X163708330Y-66221421D01*
X163689117Y-66207171D01*
X163671393Y-66191107D01*
X163655329Y-66173383D01*
X163641079Y-66154170D01*
X163628782Y-66133653D01*
X163618554Y-66112029D01*
X163610496Y-66089507D01*
X163604684Y-66066303D01*
X163601174Y-66042642D01*
X163600000Y-66018750D01*
X163600000Y-65531250D01*
X163601174Y-65507358D01*
X163604684Y-65483697D01*
X163610496Y-65460493D01*
X163618554Y-65437971D01*
X163628782Y-65416347D01*
X163641079Y-65395830D01*
X163655329Y-65376617D01*
X163671393Y-65358893D01*
X163689117Y-65342829D01*
X163708330Y-65328579D01*
X163728847Y-65316282D01*
X163750471Y-65306054D01*
X163772993Y-65297996D01*
X163796197Y-65292184D01*
X163819858Y-65288674D01*
X163843750Y-65287500D01*
X164756250Y-65287500D01*
X164780142Y-65288674D01*
X164780142Y-65288674D01*
G37*
D11*
X164300000Y-65775000D03*
D10*
G36*
X161392642Y-47551174D02*
G01*
X161416303Y-47554684D01*
X161439507Y-47560496D01*
X161462029Y-47568554D01*
X161483653Y-47578782D01*
X161504170Y-47591079D01*
X161523383Y-47605329D01*
X161541107Y-47621393D01*
X161557171Y-47639117D01*
X161571421Y-47658330D01*
X161583718Y-47678847D01*
X161593946Y-47700471D01*
X161602004Y-47722993D01*
X161607816Y-47746197D01*
X161611326Y-47769858D01*
X161612500Y-47793750D01*
X161612500Y-48706250D01*
X161611326Y-48730142D01*
X161607816Y-48753803D01*
X161602004Y-48777007D01*
X161593946Y-48799529D01*
X161583718Y-48821153D01*
X161571421Y-48841670D01*
X161557171Y-48860883D01*
X161541107Y-48878607D01*
X161523383Y-48894671D01*
X161504170Y-48908921D01*
X161483653Y-48921218D01*
X161462029Y-48931446D01*
X161439507Y-48939504D01*
X161416303Y-48945316D01*
X161392642Y-48948826D01*
X161368750Y-48950000D01*
X160881250Y-48950000D01*
X160857358Y-48948826D01*
X160833697Y-48945316D01*
X160810493Y-48939504D01*
X160787971Y-48931446D01*
X160766347Y-48921218D01*
X160745830Y-48908921D01*
X160726617Y-48894671D01*
X160708893Y-48878607D01*
X160692829Y-48860883D01*
X160678579Y-48841670D01*
X160666282Y-48821153D01*
X160656054Y-48799529D01*
X160647996Y-48777007D01*
X160642184Y-48753803D01*
X160638674Y-48730142D01*
X160637500Y-48706250D01*
X160637500Y-47793750D01*
X160638674Y-47769858D01*
X160642184Y-47746197D01*
X160647996Y-47722993D01*
X160656054Y-47700471D01*
X160666282Y-47678847D01*
X160678579Y-47658330D01*
X160692829Y-47639117D01*
X160708893Y-47621393D01*
X160726617Y-47605329D01*
X160745830Y-47591079D01*
X160766347Y-47578782D01*
X160787971Y-47568554D01*
X160810493Y-47560496D01*
X160833697Y-47554684D01*
X160857358Y-47551174D01*
X160881250Y-47550000D01*
X161368750Y-47550000D01*
X161392642Y-47551174D01*
X161392642Y-47551174D01*
G37*
D11*
X161125000Y-48250000D03*
D10*
G36*
X159517642Y-47551174D02*
G01*
X159541303Y-47554684D01*
X159564507Y-47560496D01*
X159587029Y-47568554D01*
X159608653Y-47578782D01*
X159629170Y-47591079D01*
X159648383Y-47605329D01*
X159666107Y-47621393D01*
X159682171Y-47639117D01*
X159696421Y-47658330D01*
X159708718Y-47678847D01*
X159718946Y-47700471D01*
X159727004Y-47722993D01*
X159732816Y-47746197D01*
X159736326Y-47769858D01*
X159737500Y-47793750D01*
X159737500Y-48706250D01*
X159736326Y-48730142D01*
X159732816Y-48753803D01*
X159727004Y-48777007D01*
X159718946Y-48799529D01*
X159708718Y-48821153D01*
X159696421Y-48841670D01*
X159682171Y-48860883D01*
X159666107Y-48878607D01*
X159648383Y-48894671D01*
X159629170Y-48908921D01*
X159608653Y-48921218D01*
X159587029Y-48931446D01*
X159564507Y-48939504D01*
X159541303Y-48945316D01*
X159517642Y-48948826D01*
X159493750Y-48950000D01*
X159006250Y-48950000D01*
X158982358Y-48948826D01*
X158958697Y-48945316D01*
X158935493Y-48939504D01*
X158912971Y-48931446D01*
X158891347Y-48921218D01*
X158870830Y-48908921D01*
X158851617Y-48894671D01*
X158833893Y-48878607D01*
X158817829Y-48860883D01*
X158803579Y-48841670D01*
X158791282Y-48821153D01*
X158781054Y-48799529D01*
X158772996Y-48777007D01*
X158767184Y-48753803D01*
X158763674Y-48730142D01*
X158762500Y-48706250D01*
X158762500Y-47793750D01*
X158763674Y-47769858D01*
X158767184Y-47746197D01*
X158772996Y-47722993D01*
X158781054Y-47700471D01*
X158791282Y-47678847D01*
X158803579Y-47658330D01*
X158817829Y-47639117D01*
X158833893Y-47621393D01*
X158851617Y-47605329D01*
X158870830Y-47591079D01*
X158891347Y-47578782D01*
X158912971Y-47568554D01*
X158935493Y-47560496D01*
X158958697Y-47554684D01*
X158982358Y-47551174D01*
X159006250Y-47550000D01*
X159493750Y-47550000D01*
X159517642Y-47551174D01*
X159517642Y-47551174D01*
G37*
D11*
X159250000Y-48250000D03*
D17*
X133500000Y-41512500D03*
D18*
X135150000Y-44212500D03*
X135800000Y-44212500D03*
X133200000Y-44212500D03*
X133850000Y-44212500D03*
X134500000Y-44212500D03*
D17*
X135500000Y-41512500D03*
D10*
G36*
X135767642Y-66051174D02*
G01*
X135791303Y-66054684D01*
X135814507Y-66060496D01*
X135837029Y-66068554D01*
X135858653Y-66078782D01*
X135879170Y-66091079D01*
X135898383Y-66105329D01*
X135916107Y-66121393D01*
X135932171Y-66139117D01*
X135946421Y-66158330D01*
X135958718Y-66178847D01*
X135968946Y-66200471D01*
X135977004Y-66222993D01*
X135982816Y-66246197D01*
X135986326Y-66269858D01*
X135987500Y-66293750D01*
X135987500Y-67206250D01*
X135986326Y-67230142D01*
X135982816Y-67253803D01*
X135977004Y-67277007D01*
X135968946Y-67299529D01*
X135958718Y-67321153D01*
X135946421Y-67341670D01*
X135932171Y-67360883D01*
X135916107Y-67378607D01*
X135898383Y-67394671D01*
X135879170Y-67408921D01*
X135858653Y-67421218D01*
X135837029Y-67431446D01*
X135814507Y-67439504D01*
X135791303Y-67445316D01*
X135767642Y-67448826D01*
X135743750Y-67450000D01*
X135256250Y-67450000D01*
X135232358Y-67448826D01*
X135208697Y-67445316D01*
X135185493Y-67439504D01*
X135162971Y-67431446D01*
X135141347Y-67421218D01*
X135120830Y-67408921D01*
X135101617Y-67394671D01*
X135083893Y-67378607D01*
X135067829Y-67360883D01*
X135053579Y-67341670D01*
X135041282Y-67321153D01*
X135031054Y-67299529D01*
X135022996Y-67277007D01*
X135017184Y-67253803D01*
X135013674Y-67230142D01*
X135012500Y-67206250D01*
X135012500Y-66293750D01*
X135013674Y-66269858D01*
X135017184Y-66246197D01*
X135022996Y-66222993D01*
X135031054Y-66200471D01*
X135041282Y-66178847D01*
X135053579Y-66158330D01*
X135067829Y-66139117D01*
X135083893Y-66121393D01*
X135101617Y-66105329D01*
X135120830Y-66091079D01*
X135141347Y-66078782D01*
X135162971Y-66068554D01*
X135185493Y-66060496D01*
X135208697Y-66054684D01*
X135232358Y-66051174D01*
X135256250Y-66050000D01*
X135743750Y-66050000D01*
X135767642Y-66051174D01*
X135767642Y-66051174D01*
G37*
D11*
X135500000Y-66750000D03*
D10*
G36*
X137642642Y-66051174D02*
G01*
X137666303Y-66054684D01*
X137689507Y-66060496D01*
X137712029Y-66068554D01*
X137733653Y-66078782D01*
X137754170Y-66091079D01*
X137773383Y-66105329D01*
X137791107Y-66121393D01*
X137807171Y-66139117D01*
X137821421Y-66158330D01*
X137833718Y-66178847D01*
X137843946Y-66200471D01*
X137852004Y-66222993D01*
X137857816Y-66246197D01*
X137861326Y-66269858D01*
X137862500Y-66293750D01*
X137862500Y-67206250D01*
X137861326Y-67230142D01*
X137857816Y-67253803D01*
X137852004Y-67277007D01*
X137843946Y-67299529D01*
X137833718Y-67321153D01*
X137821421Y-67341670D01*
X137807171Y-67360883D01*
X137791107Y-67378607D01*
X137773383Y-67394671D01*
X137754170Y-67408921D01*
X137733653Y-67421218D01*
X137712029Y-67431446D01*
X137689507Y-67439504D01*
X137666303Y-67445316D01*
X137642642Y-67448826D01*
X137618750Y-67450000D01*
X137131250Y-67450000D01*
X137107358Y-67448826D01*
X137083697Y-67445316D01*
X137060493Y-67439504D01*
X137037971Y-67431446D01*
X137016347Y-67421218D01*
X136995830Y-67408921D01*
X136976617Y-67394671D01*
X136958893Y-67378607D01*
X136942829Y-67360883D01*
X136928579Y-67341670D01*
X136916282Y-67321153D01*
X136906054Y-67299529D01*
X136897996Y-67277007D01*
X136892184Y-67253803D01*
X136888674Y-67230142D01*
X136887500Y-67206250D01*
X136887500Y-66293750D01*
X136888674Y-66269858D01*
X136892184Y-66246197D01*
X136897996Y-66222993D01*
X136906054Y-66200471D01*
X136916282Y-66178847D01*
X136928579Y-66158330D01*
X136942829Y-66139117D01*
X136958893Y-66121393D01*
X136976617Y-66105329D01*
X136995830Y-66091079D01*
X137016347Y-66078782D01*
X137037971Y-66068554D01*
X137060493Y-66060496D01*
X137083697Y-66054684D01*
X137107358Y-66051174D01*
X137131250Y-66050000D01*
X137618750Y-66050000D01*
X137642642Y-66051174D01*
X137642642Y-66051174D01*
G37*
D11*
X137375000Y-66750000D03*
D10*
G36*
X153980142Y-51263674D02*
G01*
X154003803Y-51267184D01*
X154027007Y-51272996D01*
X154049529Y-51281054D01*
X154071153Y-51291282D01*
X154091670Y-51303579D01*
X154110883Y-51317829D01*
X154128607Y-51333893D01*
X154144671Y-51351617D01*
X154158921Y-51370830D01*
X154171218Y-51391347D01*
X154181446Y-51412971D01*
X154189504Y-51435493D01*
X154195316Y-51458697D01*
X154198826Y-51482358D01*
X154200000Y-51506250D01*
X154200000Y-51993750D01*
X154198826Y-52017642D01*
X154195316Y-52041303D01*
X154189504Y-52064507D01*
X154181446Y-52087029D01*
X154171218Y-52108653D01*
X154158921Y-52129170D01*
X154144671Y-52148383D01*
X154128607Y-52166107D01*
X154110883Y-52182171D01*
X154091670Y-52196421D01*
X154071153Y-52208718D01*
X154049529Y-52218946D01*
X154027007Y-52227004D01*
X154003803Y-52232816D01*
X153980142Y-52236326D01*
X153956250Y-52237500D01*
X153043750Y-52237500D01*
X153019858Y-52236326D01*
X152996197Y-52232816D01*
X152972993Y-52227004D01*
X152950471Y-52218946D01*
X152928847Y-52208718D01*
X152908330Y-52196421D01*
X152889117Y-52182171D01*
X152871393Y-52166107D01*
X152855329Y-52148383D01*
X152841079Y-52129170D01*
X152828782Y-52108653D01*
X152818554Y-52087029D01*
X152810496Y-52064507D01*
X152804684Y-52041303D01*
X152801174Y-52017642D01*
X152800000Y-51993750D01*
X152800000Y-51506250D01*
X152801174Y-51482358D01*
X152804684Y-51458697D01*
X152810496Y-51435493D01*
X152818554Y-51412971D01*
X152828782Y-51391347D01*
X152841079Y-51370830D01*
X152855329Y-51351617D01*
X152871393Y-51333893D01*
X152889117Y-51317829D01*
X152908330Y-51303579D01*
X152928847Y-51291282D01*
X152950471Y-51281054D01*
X152972993Y-51272996D01*
X152996197Y-51267184D01*
X153019858Y-51263674D01*
X153043750Y-51262500D01*
X153956250Y-51262500D01*
X153980142Y-51263674D01*
X153980142Y-51263674D01*
G37*
D11*
X153500000Y-51750000D03*
D10*
G36*
X153980142Y-49388674D02*
G01*
X154003803Y-49392184D01*
X154027007Y-49397996D01*
X154049529Y-49406054D01*
X154071153Y-49416282D01*
X154091670Y-49428579D01*
X154110883Y-49442829D01*
X154128607Y-49458893D01*
X154144671Y-49476617D01*
X154158921Y-49495830D01*
X154171218Y-49516347D01*
X154181446Y-49537971D01*
X154189504Y-49560493D01*
X154195316Y-49583697D01*
X154198826Y-49607358D01*
X154200000Y-49631250D01*
X154200000Y-50118750D01*
X154198826Y-50142642D01*
X154195316Y-50166303D01*
X154189504Y-50189507D01*
X154181446Y-50212029D01*
X154171218Y-50233653D01*
X154158921Y-50254170D01*
X154144671Y-50273383D01*
X154128607Y-50291107D01*
X154110883Y-50307171D01*
X154091670Y-50321421D01*
X154071153Y-50333718D01*
X154049529Y-50343946D01*
X154027007Y-50352004D01*
X154003803Y-50357816D01*
X153980142Y-50361326D01*
X153956250Y-50362500D01*
X153043750Y-50362500D01*
X153019858Y-50361326D01*
X152996197Y-50357816D01*
X152972993Y-50352004D01*
X152950471Y-50343946D01*
X152928847Y-50333718D01*
X152908330Y-50321421D01*
X152889117Y-50307171D01*
X152871393Y-50291107D01*
X152855329Y-50273383D01*
X152841079Y-50254170D01*
X152828782Y-50233653D01*
X152818554Y-50212029D01*
X152810496Y-50189507D01*
X152804684Y-50166303D01*
X152801174Y-50142642D01*
X152800000Y-50118750D01*
X152800000Y-49631250D01*
X152801174Y-49607358D01*
X152804684Y-49583697D01*
X152810496Y-49560493D01*
X152818554Y-49537971D01*
X152828782Y-49516347D01*
X152841079Y-49495830D01*
X152855329Y-49476617D01*
X152871393Y-49458893D01*
X152889117Y-49442829D01*
X152908330Y-49428579D01*
X152928847Y-49416282D01*
X152950471Y-49406054D01*
X152972993Y-49397996D01*
X152996197Y-49392184D01*
X153019858Y-49388674D01*
X153043750Y-49387500D01*
X153956250Y-49387500D01*
X153980142Y-49388674D01*
X153980142Y-49388674D01*
G37*
D11*
X153500000Y-49875000D03*
D19*
X134750000Y-57600000D03*
D20*
X134750000Y-63900000D03*
X137050000Y-63900000D03*
X132450000Y-63900000D03*
M02*
