G04 #@! TF.GenerationSoftware,KiCad,Pcbnew,(5.1.4)-1*
G04 #@! TF.CreationDate,2020-02-05T16:19:25+01:00*
G04 #@! TF.ProjectId,Lab1_inbyggda_system,4c616231-5f69-46e6-9279-676764615f73,rev?*
G04 #@! TF.SameCoordinates,Original*
G04 #@! TF.FileFunction,Soldermask,Bot*
G04 #@! TF.FilePolarity,Negative*
%FSLAX46Y46*%
G04 Gerber Fmt 4.6, Leading zero omitted, Abs format (unit mm)*
G04 Created by KiCad (PCBNEW (5.1.4)-1) date 2020-02-05 16:19:25*
%MOMM*%
%LPD*%
G04 APERTURE LIST*
%ADD10C,0.100000*%
G04 APERTURE END LIST*
D10*
G36*
X132226348Y-43466320D02*
G01*
X132226350Y-43466321D01*
X132226351Y-43466321D01*
X132367574Y-43524817D01*
X132367577Y-43524819D01*
X132494669Y-43609739D01*
X132602761Y-43717831D01*
X132687681Y-43844923D01*
X132687683Y-43844926D01*
X132746179Y-43986149D01*
X132776000Y-44136071D01*
X132776000Y-44288929D01*
X132746179Y-44438851D01*
X132687683Y-44580074D01*
X132687681Y-44580077D01*
X132602761Y-44707169D01*
X132494669Y-44815261D01*
X132367577Y-44900181D01*
X132367574Y-44900183D01*
X132226351Y-44958679D01*
X132226350Y-44958679D01*
X132226348Y-44958680D01*
X132076431Y-44988500D01*
X131923569Y-44988500D01*
X131773652Y-44958680D01*
X131773650Y-44958679D01*
X131773649Y-44958679D01*
X131632426Y-44900183D01*
X131632423Y-44900181D01*
X131505331Y-44815261D01*
X131397239Y-44707169D01*
X131312319Y-44580077D01*
X131312317Y-44580074D01*
X131253821Y-44438851D01*
X131224000Y-44288929D01*
X131224000Y-44136071D01*
X131253821Y-43986149D01*
X131312317Y-43844926D01*
X131312319Y-43844923D01*
X131397239Y-43717831D01*
X131505331Y-43609739D01*
X131632423Y-43524819D01*
X131632426Y-43524817D01*
X131773649Y-43466321D01*
X131773650Y-43466321D01*
X131773652Y-43466320D01*
X131923569Y-43436500D01*
X132076431Y-43436500D01*
X132226348Y-43466320D01*
X132226348Y-43466320D01*
G37*
G36*
X137226348Y-43466320D02*
G01*
X137226350Y-43466321D01*
X137226351Y-43466321D01*
X137367574Y-43524817D01*
X137367577Y-43524819D01*
X137494669Y-43609739D01*
X137602761Y-43717831D01*
X137687681Y-43844923D01*
X137687683Y-43844926D01*
X137746179Y-43986149D01*
X137776000Y-44136071D01*
X137776000Y-44288929D01*
X137746179Y-44438851D01*
X137687683Y-44580074D01*
X137687681Y-44580077D01*
X137602761Y-44707169D01*
X137494669Y-44815261D01*
X137367577Y-44900181D01*
X137367574Y-44900183D01*
X137226351Y-44958679D01*
X137226350Y-44958679D01*
X137226348Y-44958680D01*
X137076431Y-44988500D01*
X136923569Y-44988500D01*
X136773652Y-44958680D01*
X136773650Y-44958679D01*
X136773649Y-44958679D01*
X136632426Y-44900183D01*
X136632423Y-44900181D01*
X136505331Y-44815261D01*
X136397239Y-44707169D01*
X136312319Y-44580077D01*
X136312317Y-44580074D01*
X136253821Y-44438851D01*
X136224000Y-44288929D01*
X136224000Y-44136071D01*
X136253821Y-43986149D01*
X136312317Y-43844926D01*
X136312319Y-43844923D01*
X136397239Y-43717831D01*
X136505331Y-43609739D01*
X136632423Y-43524819D01*
X136632426Y-43524817D01*
X136773649Y-43466321D01*
X136773650Y-43466321D01*
X136773652Y-43466320D01*
X136923569Y-43436500D01*
X137076431Y-43436500D01*
X137226348Y-43466320D01*
X137226348Y-43466320D01*
G37*
G36*
X153980442Y-40855518D02*
G01*
X154046627Y-40862037D01*
X154216466Y-40913557D01*
X154372991Y-40997222D01*
X154408729Y-41026552D01*
X154510186Y-41109814D01*
X154593448Y-41211271D01*
X154622778Y-41247009D01*
X154706443Y-41403534D01*
X154757963Y-41573373D01*
X154775359Y-41750000D01*
X154757963Y-41926627D01*
X154738703Y-41990118D01*
X154706442Y-42096468D01*
X154664610Y-42174729D01*
X154622778Y-42252991D01*
X154593448Y-42288729D01*
X154510186Y-42390186D01*
X154416764Y-42466854D01*
X154372991Y-42502778D01*
X154216466Y-42586443D01*
X154046627Y-42637963D01*
X153980442Y-42644482D01*
X153914260Y-42651000D01*
X153825740Y-42651000D01*
X153759557Y-42644481D01*
X153693373Y-42637963D01*
X153523534Y-42586443D01*
X153367009Y-42502778D01*
X153323236Y-42466854D01*
X153229814Y-42390186D01*
X153146552Y-42288729D01*
X153117222Y-42252991D01*
X153075390Y-42174729D01*
X153033558Y-42096468D01*
X153001297Y-41990118D01*
X152982037Y-41926627D01*
X152964641Y-41750000D01*
X152982037Y-41573373D01*
X153033557Y-41403534D01*
X153117222Y-41247009D01*
X153146552Y-41211271D01*
X153229814Y-41109814D01*
X153331271Y-41026552D01*
X153367009Y-40997222D01*
X153523534Y-40913557D01*
X153693373Y-40862037D01*
X153759557Y-40855519D01*
X153825740Y-40849000D01*
X153914260Y-40849000D01*
X153980442Y-40855518D01*
X153980442Y-40855518D01*
G37*
G36*
X142071000Y-42651000D02*
G01*
X140269000Y-42651000D01*
X140269000Y-40849000D01*
X142071000Y-40849000D01*
X142071000Y-42651000D01*
X142071000Y-42651000D01*
G37*
G36*
X143820442Y-40855518D02*
G01*
X143886627Y-40862037D01*
X144056466Y-40913557D01*
X144212991Y-40997222D01*
X144248729Y-41026552D01*
X144350186Y-41109814D01*
X144433448Y-41211271D01*
X144462778Y-41247009D01*
X144546443Y-41403534D01*
X144597963Y-41573373D01*
X144615359Y-41750000D01*
X144597963Y-41926627D01*
X144578703Y-41990118D01*
X144546442Y-42096468D01*
X144504610Y-42174729D01*
X144462778Y-42252991D01*
X144433448Y-42288729D01*
X144350186Y-42390186D01*
X144256764Y-42466854D01*
X144212991Y-42502778D01*
X144056466Y-42586443D01*
X143886627Y-42637963D01*
X143820442Y-42644482D01*
X143754260Y-42651000D01*
X143665740Y-42651000D01*
X143599557Y-42644481D01*
X143533373Y-42637963D01*
X143363534Y-42586443D01*
X143207009Y-42502778D01*
X143163236Y-42466854D01*
X143069814Y-42390186D01*
X142986552Y-42288729D01*
X142957222Y-42252991D01*
X142915390Y-42174729D01*
X142873558Y-42096468D01*
X142841297Y-41990118D01*
X142822037Y-41926627D01*
X142804641Y-41750000D01*
X142822037Y-41573373D01*
X142873557Y-41403534D01*
X142957222Y-41247009D01*
X142986552Y-41211271D01*
X143069814Y-41109814D01*
X143171271Y-41026552D01*
X143207009Y-40997222D01*
X143363534Y-40913557D01*
X143533373Y-40862037D01*
X143599557Y-40855519D01*
X143665740Y-40849000D01*
X143754260Y-40849000D01*
X143820442Y-40855518D01*
X143820442Y-40855518D01*
G37*
G36*
X146360442Y-40855518D02*
G01*
X146426627Y-40862037D01*
X146596466Y-40913557D01*
X146752991Y-40997222D01*
X146788729Y-41026552D01*
X146890186Y-41109814D01*
X146973448Y-41211271D01*
X147002778Y-41247009D01*
X147086443Y-41403534D01*
X147137963Y-41573373D01*
X147155359Y-41750000D01*
X147137963Y-41926627D01*
X147118703Y-41990118D01*
X147086442Y-42096468D01*
X147044610Y-42174729D01*
X147002778Y-42252991D01*
X146973448Y-42288729D01*
X146890186Y-42390186D01*
X146796764Y-42466854D01*
X146752991Y-42502778D01*
X146596466Y-42586443D01*
X146426627Y-42637963D01*
X146360442Y-42644482D01*
X146294260Y-42651000D01*
X146205740Y-42651000D01*
X146139557Y-42644481D01*
X146073373Y-42637963D01*
X145903534Y-42586443D01*
X145747009Y-42502778D01*
X145703236Y-42466854D01*
X145609814Y-42390186D01*
X145526552Y-42288729D01*
X145497222Y-42252991D01*
X145455390Y-42174729D01*
X145413558Y-42096468D01*
X145381297Y-41990118D01*
X145362037Y-41926627D01*
X145344641Y-41750000D01*
X145362037Y-41573373D01*
X145413557Y-41403534D01*
X145497222Y-41247009D01*
X145526552Y-41211271D01*
X145609814Y-41109814D01*
X145711271Y-41026552D01*
X145747009Y-40997222D01*
X145903534Y-40913557D01*
X146073373Y-40862037D01*
X146139557Y-40855519D01*
X146205740Y-40849000D01*
X146294260Y-40849000D01*
X146360442Y-40855518D01*
X146360442Y-40855518D01*
G37*
G36*
X148900442Y-40855518D02*
G01*
X148966627Y-40862037D01*
X149136466Y-40913557D01*
X149292991Y-40997222D01*
X149328729Y-41026552D01*
X149430186Y-41109814D01*
X149513448Y-41211271D01*
X149542778Y-41247009D01*
X149626443Y-41403534D01*
X149677963Y-41573373D01*
X149695359Y-41750000D01*
X149677963Y-41926627D01*
X149658703Y-41990118D01*
X149626442Y-42096468D01*
X149584610Y-42174729D01*
X149542778Y-42252991D01*
X149513448Y-42288729D01*
X149430186Y-42390186D01*
X149336764Y-42466854D01*
X149292991Y-42502778D01*
X149136466Y-42586443D01*
X148966627Y-42637963D01*
X148900442Y-42644482D01*
X148834260Y-42651000D01*
X148745740Y-42651000D01*
X148679557Y-42644481D01*
X148613373Y-42637963D01*
X148443534Y-42586443D01*
X148287009Y-42502778D01*
X148243236Y-42466854D01*
X148149814Y-42390186D01*
X148066552Y-42288729D01*
X148037222Y-42252991D01*
X147995390Y-42174729D01*
X147953558Y-42096468D01*
X147921297Y-41990118D01*
X147902037Y-41926627D01*
X147884641Y-41750000D01*
X147902037Y-41573373D01*
X147953557Y-41403534D01*
X148037222Y-41247009D01*
X148066552Y-41211271D01*
X148149814Y-41109814D01*
X148251271Y-41026552D01*
X148287009Y-40997222D01*
X148443534Y-40913557D01*
X148613373Y-40862037D01*
X148679557Y-40855519D01*
X148745740Y-40849000D01*
X148834260Y-40849000D01*
X148900442Y-40855518D01*
X148900442Y-40855518D01*
G37*
G36*
X151440442Y-40855518D02*
G01*
X151506627Y-40862037D01*
X151676466Y-40913557D01*
X151832991Y-40997222D01*
X151868729Y-41026552D01*
X151970186Y-41109814D01*
X152053448Y-41211271D01*
X152082778Y-41247009D01*
X152166443Y-41403534D01*
X152217963Y-41573373D01*
X152235359Y-41750000D01*
X152217963Y-41926627D01*
X152198703Y-41990118D01*
X152166442Y-42096468D01*
X152124610Y-42174729D01*
X152082778Y-42252991D01*
X152053448Y-42288729D01*
X151970186Y-42390186D01*
X151876764Y-42466854D01*
X151832991Y-42502778D01*
X151676466Y-42586443D01*
X151506627Y-42637963D01*
X151440442Y-42644482D01*
X151374260Y-42651000D01*
X151285740Y-42651000D01*
X151219557Y-42644481D01*
X151153373Y-42637963D01*
X150983534Y-42586443D01*
X150827009Y-42502778D01*
X150783236Y-42466854D01*
X150689814Y-42390186D01*
X150606552Y-42288729D01*
X150577222Y-42252991D01*
X150535390Y-42174729D01*
X150493558Y-42096468D01*
X150461297Y-41990118D01*
X150442037Y-41926627D01*
X150424641Y-41750000D01*
X150442037Y-41573373D01*
X150493557Y-41403534D01*
X150577222Y-41247009D01*
X150606552Y-41211271D01*
X150689814Y-41109814D01*
X150791271Y-41026552D01*
X150827009Y-40997222D01*
X150983534Y-40913557D01*
X151153373Y-40862037D01*
X151219557Y-40855519D01*
X151285740Y-40849000D01*
X151374260Y-40849000D01*
X151440442Y-40855518D01*
X151440442Y-40855518D01*
G37*
G36*
X138127617Y-40520920D02*
G01*
X138218403Y-40548460D01*
X138250335Y-40558146D01*
X138363424Y-40618594D01*
X138462554Y-40699947D01*
X138543906Y-40799075D01*
X138604354Y-40912164D01*
X138604777Y-40913558D01*
X138641580Y-41034882D01*
X138651000Y-41130527D01*
X138651000Y-41894473D01*
X138641580Y-41990118D01*
X138614040Y-42080904D01*
X138604354Y-42112836D01*
X138543906Y-42225925D01*
X138462554Y-42325054D01*
X138363425Y-42406406D01*
X138250336Y-42466854D01*
X138218404Y-42476540D01*
X138127618Y-42504080D01*
X138000000Y-42516649D01*
X137872383Y-42504080D01*
X137781597Y-42476540D01*
X137749665Y-42466854D01*
X137636576Y-42406406D01*
X137537447Y-42325054D01*
X137456095Y-42225925D01*
X137395648Y-42112837D01*
X137395645Y-42112832D01*
X137358420Y-41990118D01*
X137349000Y-41894473D01*
X137349000Y-41130528D01*
X137358420Y-41034883D01*
X137385960Y-40944097D01*
X137395646Y-40912165D01*
X137456094Y-40799076D01*
X137537447Y-40699946D01*
X137636575Y-40618594D01*
X137749664Y-40558146D01*
X137781596Y-40548460D01*
X137872382Y-40520920D01*
X138000000Y-40508351D01*
X138127617Y-40520920D01*
X138127617Y-40520920D01*
G37*
G36*
X131127618Y-40520920D02*
G01*
X131218404Y-40548460D01*
X131250336Y-40558146D01*
X131363425Y-40618594D01*
X131462554Y-40699946D01*
X131543906Y-40799075D01*
X131604354Y-40912164D01*
X131604777Y-40913558D01*
X131641580Y-41034882D01*
X131651000Y-41130527D01*
X131651000Y-41894473D01*
X131641580Y-41990118D01*
X131614040Y-42080904D01*
X131604354Y-42112836D01*
X131543906Y-42225925D01*
X131462554Y-42325053D01*
X131363424Y-42406406D01*
X131250335Y-42466854D01*
X131218403Y-42476540D01*
X131127617Y-42504080D01*
X131000000Y-42516649D01*
X130872382Y-42504080D01*
X130781596Y-42476540D01*
X130749664Y-42466854D01*
X130636575Y-42406406D01*
X130537447Y-42325054D01*
X130456094Y-42225924D01*
X130395646Y-42112835D01*
X130385960Y-42080903D01*
X130358420Y-41990117D01*
X130349000Y-41894472D01*
X130349000Y-41130527D01*
X130358420Y-41034882D01*
X130395645Y-40912168D01*
X130422441Y-40862037D01*
X130456095Y-40799075D01*
X130537447Y-40699946D01*
X130636576Y-40618594D01*
X130749665Y-40558146D01*
X130781597Y-40548460D01*
X130872383Y-40520920D01*
X131000000Y-40508351D01*
X131127618Y-40520920D01*
X131127618Y-40520920D01*
G37*
M02*
