EESchema Schematic File Version 4
LIBS:Lab1_inbyggda_system-cache
EELAYER 30 0
EELAYER END
$Descr A4 11693 8268
encoding utf-8
Sheet 1 1
Title ""
Date ""
Rev ""
Comp ""
Comment1 ""
Comment2 ""
Comment3 ""
Comment4 ""
$EndDescr
$Comp
L cmwx1zzabz-078:CMWX1ZZABZ-078 U2
U 1 1 5E284DCF
P 8300 3300
F 0 "U2" H 8750 1750 50  0000 C CNN
F 1 "CMWX1ZZABZ-078" H 8700 1700 50  0000 C CNN
F 2 "Lab1_inbyggda_system:lab" H 8300 3300 50  0001 C CNN
F 3 "https://wireless.murata.com/RFM/data/type_abz.pdf" H 10750 1800 50  0001 C CNN
	1    8300 3300
	1    0    0    -1  
$EndComp
$Comp
L Device:CP_Small C8
U 1 1 5E28FE39
P 9450 1100
F 0 "C8" H 9600 1150 50  0000 L CNN
F 1 "10u" H 9600 1050 50  0000 L CNN
F 2 "Capacitor_SMD:CP_Elec_6.3x5.4" H 9450 1100 50  0001 C CNN
F 3 "~" H 9450 1100 50  0001 C CNN
	1    9450 1100
	1    0    0    -1  
$EndComp
Wire Wire Line
	8950 1000 8950 950 
Connection ~ 9200 950 
Wire Wire Line
	9200 950  9200 1000
Wire Wire Line
	9450 1000 9450 950 
Wire Wire Line
	9450 950  9200 950 
$Comp
L power:GND #PWR010
U 1 1 5E298A08
P 9200 1300
F 0 "#PWR010" H 9200 1050 50  0001 C CNN
F 1 "GND" H 9205 1127 50  0000 C CNN
F 2 "" H 9200 1300 50  0001 C CNN
F 3 "" H 9200 1300 50  0001 C CNN
	1    9200 1300
	1    0    0    -1  
$EndComp
Wire Wire Line
	9450 1200 9450 1250
Wire Wire Line
	8950 1250 8950 1200
Wire Wire Line
	9200 1200 9200 1250
Wire Wire Line
	8950 1250 9200 1250
Connection ~ 9200 1250
Wire Wire Line
	9200 1250 9200 1300
Wire Wire Line
	9200 1250 9450 1250
Wire Wire Line
	8300 1550 8300 1800
Wire Wire Line
	8200 1800 8200 1550
Wire Wire Line
	7600 1250 7600 1350
Wire Wire Line
	7600 1350 7700 1350
$Comp
L power:GND #PWR06
U 1 1 5E2B1722
P 7700 1350
F 0 "#PWR06" H 7700 1100 50  0001 C CNN
F 1 "GND" H 7705 1177 50  0000 C CNN
F 2 "" H 7700 1350 50  0001 C CNN
F 3 "" H 7700 1350 50  0001 C CNN
	1    7700 1350
	1    0    0    -1  
$EndComp
Connection ~ 7700 1350
Wire Wire Line
	7700 1350 7800 1350
Wire Wire Line
	8100 1050 8100 1800
Wire Wire Line
	8950 950  9200 950 
$Comp
L power:GND #PWR013
U 1 1 5E2C1F6A
P 10050 1900
F 0 "#PWR013" H 10050 1650 50  0001 C CNN
F 1 "GND" H 10055 1727 50  0000 C CNN
F 2 "" H 10050 1900 50  0001 C CNN
F 3 "" H 10050 1900 50  0001 C CNN
	1    10050 1900
	1    0    0    -1  
$EndComp
$Comp
L power:GND #PWR014
U 1 1 5E2CBD51
P 10350 4550
F 0 "#PWR014" H 10350 4300 50  0001 C CNN
F 1 "GND" H 10355 4377 50  0000 C CNN
F 2 "" H 10350 4550 50  0001 C CNN
F 3 "" H 10350 4550 50  0001 C CNN
	1    10350 4550
	1    0    0    -1  
$EndComp
Wire Wire Line
	10850 4300 10750 4300
Wire Wire Line
	10850 4550 10350 4550
$Comp
L Device:R_Small R2
U 1 1 5E2D20BB
P 6950 4750
F 0 "R2" H 7009 4796 50  0000 L CNN
F 1 "10k" H 7009 4705 50  0000 L CNN
F 2 "Resistor_SMD:R_0805_2012Metric" H 6950 4750 50  0001 C CNN
F 3 "~" H 6950 4750 50  0001 C CNN
	1    6950 4750
	1    0    0    -1  
$EndComp
Wire Wire Line
	7400 4600 6950 4600
Wire Wire Line
	6950 4600 6950 4650
$Comp
L power:GND #PWR05
U 1 1 5E2D3663
P 6950 4950
F 0 "#PWR05" H 6950 4700 50  0001 C CNN
F 1 "GND" H 6955 4777 50  0000 C CNN
F 2 "" H 6950 4950 50  0001 C CNN
F 3 "" H 6950 4950 50  0001 C CNN
	1    6950 4950
	1    0    0    -1  
$EndComp
Wire Wire Line
	6950 4950 6950 4850
$Comp
L Connector:Conn_01x06_Male J2
U 1 1 5E2E1810
P 9800 3100
F 0 "J2" H 9908 3481 50  0000 C CNN
F 1 "Conn_01x06_Male" H 9908 3390 50  0000 C CNN
F 2 "Connector_PinHeader_2.54mm:PinHeader_1x06_P2.54mm_Vertical" H 9800 3100 50  0001 C CNN
F 3 "~" H 9800 3100 50  0001 C CNN
	1    9800 3100
	1    0    0    -1  
$EndComp
NoConn ~ 10000 3400
Wire Wire Line
	10250 2900 10000 2900
$Comp
L power:GND #PWR011
U 1 1 5E2EDF33
P 10000 3100
F 0 "#PWR011" H 10000 2850 50  0001 C CNN
F 1 "GND" H 10005 2927 50  0000 C CNN
F 2 "" H 10000 3100 50  0001 C CNN
F 3 "" H 10000 3100 50  0001 C CNN
	1    10000 3100
	0    -1   -1   0   
$EndComp
Wire Wire Line
	10200 3600 10100 3600
Wire Wire Line
	10100 3600 10100 3300
Wire Wire Line
	10100 3300 10000 3300
$Comp
L Connector:USB_OTG J1
U 1 1 5E31A436
P 3850 2600
F 0 "J1" H 3907 3067 50  0000 C CNN
F 1 "USB_OTG" H 3907 2976 50  0000 C CNN
F 2 "Connector_USB:USB_Micro-B_Molex-105017-0001" H 4000 2550 50  0001 C CNN
F 3 " ~" H 4000 2550 50  0001 C CNN
	1    3850 2600
	1    0    0    -1  
$EndComp
$Comp
L power:GND #PWR01
U 1 1 5E32DD05
P 3850 3100
F 0 "#PWR01" H 3850 2850 50  0001 C CNN
F 1 "GND" H 3855 2927 50  0000 C CNN
F 2 "" H 3850 3100 50  0001 C CNN
F 3 "" H 3850 3100 50  0001 C CNN
	1    3850 3100
	1    0    0    -1  
$EndComp
Wire Wire Line
	3850 3100 3850 3000
$Comp
L Device:R_Small R1
U 1 1 5E341246
P 6100 2550
F 0 "R1" H 6159 2596 50  0000 L CNN
F 1 "1k" H 6159 2505 50  0000 L CNN
F 2 "Resistor_SMD:R_0805_2012Metric" H 6100 2550 50  0001 C CNN
F 3 "~" H 6100 2550 50  0001 C CNN
	1    6100 2550
	1    0    0    -1  
$EndComp
$Comp
L power:GND #PWR03
U 1 1 5E336F1A
P 6350 3250
F 0 "#PWR03" H 6350 3000 50  0001 C CNN
F 1 "GND" H 6355 3077 50  0000 C CNN
F 2 "" H 6350 3250 50  0001 C CNN
F 3 "" H 6350 3250 50  0001 C CNN
	1    6350 3250
	1    0    0    -1  
$EndComp
Wire Wire Line
	6550 2600 6550 2400
Wire Wire Line
	5500 2750 6100 2750
Wire Wire Line
	6100 2750 6100 2800
Wire Wire Line
	6100 2650 6100 2750
Connection ~ 6100 2750
Wire Wire Line
	6100 2450 6100 2400
Connection ~ 6100 2400
Wire Wire Line
	6550 2800 6550 3150
Wire Wire Line
	6350 3250 6350 3150
$Comp
L power:GND #PWR08
U 1 1 5E3877BE
P 8300 4950
F 0 "#PWR08" H 8300 4700 50  0001 C CNN
F 1 "GND" H 8305 4777 50  0000 C CNN
F 2 "" H 8300 4950 50  0001 C CNN
F 3 "" H 8300 4950 50  0001 C CNN
	1    8300 4950
	1    0    0    -1  
$EndComp
Wire Wire Line
	8300 4950 8300 4800
$Comp
L Device:C_Small C4
U 1 1 5E38A4E4
P 7600 1150
F 0 "C4" H 7400 1200 50  0000 L CNN
F 1 "100n" H 7350 1100 50  0000 L CNN
F 2 "Capacitor_SMD:C_0805_2012Metric" H 7600 1150 50  0001 C CNN
F 3 "~" H 7600 1150 50  0001 C CNN
	1    7600 1150
	1    0    0    -1  
$EndComp
$Comp
L Device:C_Small C6
U 1 1 5E395549
P 8950 1100
F 0 "C6" H 8750 1150 50  0000 L CNN
F 1 "100n" H 8700 1050 50  0000 L CNN
F 2 "Capacitor_SMD:C_0805_2012Metric" H 8950 1100 50  0001 C CNN
F 3 "~" H 8950 1100 50  0001 C CNN
	1    8950 1100
	1    0    0    -1  
$EndComp
$Comp
L Device:C_Small C7
U 1 1 5E39A57A
P 9200 1100
F 0 "C7" H 9100 1400 50  0000 L CNN
F 1 "1u" H 9100 1300 50  0000 L CNN
F 2 "Capacitor_SMD:C_0805_2012Metric" H 9200 1100 50  0001 C CNN
F 3 "~" H 9200 1100 50  0001 C CNN
	1    9200 1100
	1    0    0    -1  
$EndComp
$Comp
L Device:C_Small C9
U 1 1 5E39EAAE
P 10050 1800
F 0 "C9" H 9850 1850 50  0000 L CNN
F 1 "1u" H 9800 1750 50  0000 L CNN
F 2 "Capacitor_SMD:C_0805_2012Metric" H 10050 1800 50  0001 C CNN
F 3 "~" H 10050 1800 50  0001 C CNN
	1    10050 1800
	1    0    0    -1  
$EndComp
NoConn ~ 9200 2400
NoConn ~ 9200 2500
NoConn ~ 9200 2600
NoConn ~ 9200 2700
NoConn ~ 9200 2800
NoConn ~ 9200 2900
NoConn ~ 9200 3000
NoConn ~ 9200 3100
NoConn ~ 9200 3200
NoConn ~ 9200 3300
NoConn ~ 9200 3500
NoConn ~ 9200 3600
NoConn ~ 9200 3700
NoConn ~ 9200 3900
NoConn ~ 9200 4000
NoConn ~ 9200 4100
NoConn ~ 9200 4200
NoConn ~ 9200 4300
NoConn ~ 9200 4400
NoConn ~ 9200 4600
NoConn ~ 7400 4400
NoConn ~ 7400 3900
NoConn ~ 7400 3300
NoConn ~ 7400 3200
NoConn ~ 7400 3100
NoConn ~ 7400 3000
NoConn ~ 7400 2900
NoConn ~ 7400 2800
NoConn ~ 7400 2700
NoConn ~ 7400 2600
NoConn ~ 7400 2500
NoConn ~ 7400 2400
NoConn ~ 3750 3000
NoConn ~ 4150 2800
NoConn ~ 4150 2700
NoConn ~ 4150 2600
Wire Wire Line
	7350 3400 7400 3400
Wire Wire Line
	7350 3500 7400 3500
Wire Wire Line
	9200 750  9200 950 
$Comp
L power:+3.3V #PWR0102
U 1 1 5E29BC68
P 9200 750
F 0 "#PWR0102" H 9200 600 50  0001 C CNN
F 1 "+3.3V" H 9215 923 50  0000 C CNN
F 2 "" H 9200 750 50  0001 C CNN
F 3 "" H 9200 750 50  0001 C CNN
	1    9200 750 
	1    0    0    -1  
$EndComp
$Comp
L power:+3.3V #PWR0103
U 1 1 5E29EAE4
P 10050 1600
F 0 "#PWR0103" H 10050 1450 50  0001 C CNN
F 1 "+3.3V" H 10065 1773 50  0000 C CNN
F 2 "" H 10050 1600 50  0001 C CNN
F 3 "" H 10050 1600 50  0001 C CNN
	1    10050 1600
	1    0    0    -1  
$EndComp
Wire Wire Line
	10050 1600 10050 1700
Wire Wire Line
	10050 1600 8400 1600
Connection ~ 10050 1600
$Comp
L power:+3.3V #PWR0104
U 1 1 5E2A8248
P 10250 2650
F 0 "#PWR0104" H 10250 2500 50  0001 C CNN
F 1 "+3.3V" H 10265 2823 50  0000 C CNN
F 2 "" H 10250 2650 50  0001 C CNN
F 3 "" H 10250 2650 50  0001 C CNN
	1    10250 2650
	1    0    0    -1  
$EndComp
Wire Wire Line
	10250 2650 10250 2900
Wire Wire Line
	8400 1600 8400 1800
Text Label 10100 3000 0    50   ~ 0
SWCLK
Text Label 10100 3200 0    50   ~ 0
SWDIO
$Comp
L Switch:SW_Push_Dual SW1
U 1 1 5E2CC88F
P 10400 3600
F 0 "SW1" H 10400 3885 50  0000 C CNN
F 1 "SW_Push_Dual" H 10400 3794 50  0000 C CNN
F 2 "Button:FSM-SWITCH" H 10400 3800 50  0001 C CNN
F 3 "~" H 10400 3800 50  0001 C CNN
	1    10400 3600
	1    0    0    -1  
$EndComp
Wire Wire Line
	10750 4300 10750 3950
Wire Wire Line
	10750 3600 10600 3600
Wire Wire Line
	10600 3800 10750 3800
Connection ~ 10750 3800
Wire Wire Line
	10750 3800 10750 3600
Wire Wire Line
	10200 3800 10100 3800
Wire Wire Line
	10100 3800 10100 3600
Connection ~ 10100 3600
Text Label 7350 3400 2    50   ~ 0
SWDIO
Text Label 7350 3500 2    50   ~ 0
SWCLK
Wire Wire Line
	7300 3700 7400 3700
Text Label 7300 3700 2    50   ~ 0
RESET
Text Label 9850 3950 2    50   ~ 0
RESET
$Comp
L power:+3.3V #PWR0101
U 1 1 5E2FCBDA
P 8250 1550
F 0 "#PWR0101" H 8250 1400 50  0001 C CNN
F 1 "+3.3V" H 8265 1723 50  0000 C CNN
F 2 "" H 8250 1550 50  0001 C CNN
F 3 "" H 8250 1550 50  0001 C CNN
	1    8250 1550
	1    0    0    -1  
$EndComp
Wire Wire Line
	8200 1550 8250 1550
Connection ~ 8250 1550
Wire Wire Line
	8250 1550 8300 1550
$Comp
L Device:CP_Small C2
U 1 1 5E30CA87
P 6550 2700
F 0 "C2" H 6650 2700 50  0000 L CNN
F 1 "100u" H 6600 2600 50  0000 L CNN
F 2 "Capacitor_SMD:CP_Elec_6.3x5.4" H 6550 2700 50  0001 C CNN
F 3 "~" H 6550 2700 50  0001 C CNN
	1    6550 2700
	1    0    0    -1  
$EndComp
$Comp
L Device:C_Small C10
U 1 1 5E312F9C
P 10400 3950
F 0 "C10" H 10200 4000 50  0000 L CNN
F 1 "100n" H 10150 3900 50  0000 L CNN
F 2 "Capacitor_SMD:C_0805_2012Metric" H 10400 3950 50  0001 C CNN
F 3 "~" H 10400 3950 50  0001 C CNN
	1    10400 3950
	0    -1   -1   0   
$EndComp
NoConn ~ 7400 4100
NoConn ~ 7400 4200
Wire Wire Line
	7800 1350 7800 1250
Wire Wire Line
	10300 3950 10100 3950
Wire Wire Line
	10100 3950 10100 3800
Connection ~ 10100 3800
Wire Wire Line
	10500 3950 10750 3950
Connection ~ 10750 3950
Wire Wire Line
	10750 3950 10750 3800
Wire Wire Line
	10850 4300 10850 4550
$Comp
L Device:CP_Small C5
U 1 1 5E2F7825
P 7800 1150
F 0 "C5" H 7950 1200 50  0000 L CNN
F 1 "10u" H 7950 1100 50  0000 L CNN
F 2 "Capacitor_SMD:CP_Elec_6.3x5.4" H 7800 1150 50  0001 C CNN
F 3 "~" H 7800 1150 50  0001 C CNN
	1    7800 1150
	1    0    0    -1  
$EndComp
Connection ~ 7800 1050
Wire Wire Line
	7800 1050 8100 1050
$Comp
L Device:R_Small R3
U 1 1 5E2FB472
P 6100 2900
F 0 "R3" H 6159 2946 50  0000 L CNN
F 1 "1.6k" H 6159 2855 50  0000 L CNN
F 2 "Resistor_SMD:R_0805_2012Metric" H 6100 2900 50  0001 C CNN
F 3 "~" H 6100 2900 50  0001 C CNN
	1    6100 2900
	1    0    0    -1  
$EndComp
Wire Wire Line
	6100 3000 6100 3150
Wire Wire Line
	6100 3150 6350 3150
Connection ~ 6350 3150
Wire Wire Line
	6350 3150 6550 3150
$Comp
L Device:CP_Small C1
U 1 1 5E309CF6
P 4300 2600
F 0 "C1" H 4450 2650 50  0000 L CNN
F 1 "10u" H 4450 2550 50  0000 L CNN
F 2 "Capacitor_SMD:CP_Elec_6.3x5.4" H 4300 2600 50  0001 C CNN
F 3 "~" H 4300 2600 50  0001 C CNN
	1    4300 2600
	1    0    0    -1  
$EndComp
Wire Wire Line
	4300 2500 4300 2400
$Comp
L power:GND #PWR02
U 1 1 5E30DBFF
P 4300 2750
F 0 "#PWR02" H 4300 2500 50  0001 C CNN
F 1 "GND" H 4305 2577 50  0000 C CNN
F 2 "" H 4300 2750 50  0001 C CNN
F 3 "" H 4300 2750 50  0001 C CNN
	1    4300 2750
	1    0    0    -1  
$EndComp
Wire Wire Line
	4300 2750 4300 2700
Wire Wire Line
	4150 2400 4300 2400
Connection ~ 4300 2400
Wire Wire Line
	4300 2400 4550 2400
$Comp
L Device:C_Small C3
U 1 1 5E315A51
P 4750 2600
F 0 "C3" H 4900 2650 50  0000 L CNN
F 1 "100n" H 4850 2550 50  0000 L CNN
F 2 "Capacitor_SMD:C_0805_2012Metric" H 4750 2600 50  0001 C CNN
F 3 "~" H 4750 2600 50  0001 C CNN
	1    4750 2600
	1    0    0    -1  
$EndComp
Wire Wire Line
	4750 2500 4750 2400
Connection ~ 4750 2400
Wire Wire Line
	4750 2400 5050 2400
$Comp
L power:GND #PWR04
U 1 1 5E31F6C8
P 4750 2750
F 0 "#PWR04" H 4750 2500 50  0001 C CNN
F 1 "GND" H 4755 2577 50  0000 C CNN
F 2 "" H 4750 2750 50  0001 C CNN
F 3 "" H 4750 2750 50  0001 C CNN
	1    4750 2750
	1    0    0    -1  
$EndComp
Wire Wire Line
	4750 2750 4750 2700
$Comp
L Device:C_Small C11
U 1 1 5E328C7D
P 6850 2700
F 0 "C11" H 7000 2750 50  0000 L CNN
F 1 "100n" H 6950 2650 50  0000 L CNN
F 2 "Capacitor_SMD:C_0805_2012Metric" H 6850 2700 50  0001 C CNN
F 3 "~" H 6850 2700 50  0001 C CNN
	1    6850 2700
	1    0    0    -1  
$EndComp
Wire Wire Line
	6850 2400 6750 2400
Wire Wire Line
	6850 2400 6850 2600
Connection ~ 6550 2400
Wire Wire Line
	6850 3150 6550 3150
Wire Wire Line
	6850 2800 6850 3150
Connection ~ 6550 3150
$Comp
L power:+3.3V #PWR0105
U 1 1 5E33332B
P 6750 2250
F 0 "#PWR0105" H 6750 2100 50  0001 C CNN
F 1 "+3.3V" H 6765 2423 50  0000 C CNN
F 2 "" H 6750 2250 50  0001 C CNN
F 3 "" H 6750 2250 50  0001 C CNN
	1    6750 2250
	1    0    0    -1  
$EndComp
Wire Wire Line
	6750 2250 6750 2400
Connection ~ 6750 2400
Wire Wire Line
	6750 2400 6550 2400
Wire Wire Line
	6100 2400 6300 2400
Wire Wire Line
	7600 1050 7800 1050
$Comp
L power:+3.3V #PWR0106
U 1 1 5E344299
P 7800 850
F 0 "#PWR0106" H 7800 700 50  0001 C CNN
F 1 "+3.3V" H 7815 1023 50  0000 C CNN
F 2 "" H 7800 850 50  0001 C CNN
F 3 "" H 7800 850 50  0001 C CNN
	1    7800 850 
	1    0    0    -1  
$EndComp
Wire Wire Line
	7800 850  7800 1050
Wire Wire Line
	8500 1800 8500 1550
Wire Wire Line
	8500 1550 8300 1550
Connection ~ 8300 1550
$Comp
L Connector:TestPoint TP1
U 1 1 5E35D44A
P 4550 2300
F 0 "TP1" H 4608 2418 50  0000 L CNN
F 1 "USB_IN" H 4608 2327 50  0000 L CNN
F 2 "TestPoint:TestPoint_Pad_D1.5mm" H 4750 2300 50  0001 C CNN
F 3 "~" H 4750 2300 50  0001 C CNN
	1    4550 2300
	1    0    0    -1  
$EndComp
Connection ~ 4550 2400
Wire Wire Line
	4550 2400 4750 2400
$Comp
L Connector:TestPoint TP2
U 1 1 5E360C8B
P 6300 2250
F 0 "TP2" H 6358 2368 50  0000 L CNN
F 1 "3.3V" H 6358 2277 50  0000 L CNN
F 2 "TestPoint:TestPoint_Pad_D1.5mm" H 6500 2250 50  0001 C CNN
F 3 "~" H 6500 2250 50  0001 C CNN
	1    6300 2250
	1    0    0    -1  
$EndComp
Wire Wire Line
	6300 2250 6300 2400
Connection ~ 6300 2400
Wire Wire Line
	6300 2400 6550 2400
Wire Wire Line
	4550 2300 4550 2400
Wire Wire Line
	10000 3000 10850 3000
Wire Wire Line
	10000 3200 10850 3200
$Comp
L Connector:TestPoint TP3
U 1 1 5E36F0BF
P 10850 3000
F 0 "TP3" V 10750 3150 50  0000 L CNN
F 1 "SWCLK" V 10908 3027 50  0000 L CNN
F 2 "TestPoint:TestPoint_Pad_D1.5mm" H 11050 3000 50  0001 C CNN
F 3 "~" H 11050 3000 50  0001 C CNN
	1    10850 3000
	0    1    1    0   
$EndComp
$Comp
L Connector:TestPoint TP4
U 1 1 5E37206E
P 10850 3200
F 0 "TP4" V 10850 3400 50  0000 L CNN
F 1 "SWDIO" V 10908 3227 50  0000 L CNN
F 2 "TestPoint:TestPoint_Pad_D1.5mm" H 11050 3200 50  0001 C CNN
F 3 "~" H 11050 3200 50  0001 C CNN
	1    10850 3200
	0    1    1    0   
$EndComp
$Comp
L LM1117:LM1117_LAB1_dontuse U1
U 1 1 5E3140AA
P 5500 2400
F 0 "U1" H 5500 2700 50  0000 C CNN
F 1 "LM1117_LAB1_dontuse" H 5450 2800 50  0000 C CNN
F 2 "Package_TO_SOT_SMD:SOT-223-3_TabPin2" H 5550 2100 50  0001 C CNN
F 3 "" H 5550 2100 50  0001 C CNN
	1    5500 2400
	1    0    0    -1  
$EndComp
Wire Wire Line
	5950 2400 6100 2400
Wire Wire Line
	9850 3950 10100 3950
Connection ~ 10100 3950
$EndSCHEMATC
