(export (version D)
  (design
    (source "C:\\Users\\Oscar\\Desktop\\Inbyggda system\\Lab1\\Lab1_inbyggda_system\\Lab1_inbyggda_system.sch")
    (date "02/03/20 11:54:19")
    (tool "Eeschema (5.1.4)-1")
    (sheet (number 1) (name /) (tstamps /)
      (title_block
        (title)
        (company)
        (rev)
        (date)
        (source Lab1_inbyggda_system.sch)
        (comment (number 1) (value ""))
        (comment (number 2) (value ""))
        (comment (number 3) (value ""))
        (comment (number 4) (value "")))))
  (components
    (comp (ref U2)
      (value CMWX1ZZABZ-078)
      (footprint Lab1_inbyggda_system:lab)
      (datasheet https://wireless.murata.com/RFM/data/type_abz.pdf)
      (libsource (lib cmwx1zzabz-078) (part CMWX1ZZABZ-078) (description "LoRa/SigFox Module, STM32L082 MCU, muRata CMWX1ZZABZ"))
      (sheetpath (names /) (tstamps /))
      (tstamp 5E284DCF))
    (comp (ref C8)
      (value 10u)
      (footprint Capacitor_SMD:CP_Elec_6.3x5.4)
      (datasheet ~)
      (libsource (lib Device) (part CP_Small) (description "Polarized capacitor, small symbol"))
      (sheetpath (names /) (tstamps /))
      (tstamp 5E28FE39))
    (comp (ref R2)
      (value 10k)
      (footprint Resistor_SMD:R_0805_2012Metric)
      (datasheet ~)
      (libsource (lib Device) (part R_Small) (description "Resistor, small symbol"))
      (sheetpath (names /) (tstamps /))
      (tstamp 5E2D20BB))
    (comp (ref J2)
      (value Conn_01x06_Male)
      (footprint Connector_PinHeader_2.54mm:PinHeader_1x06_P2.54mm_Vertical)
      (datasheet ~)
      (libsource (lib Connector) (part Conn_01x06_Male) (description "Generic connector, single row, 01x06, script generated (kicad-library-utils/schlib/autogen/connector/)"))
      (sheetpath (names /) (tstamps /))
      (tstamp 5E2E1810))
    (comp (ref J1)
      (value USB_OTG)
      (footprint Connector_USB:USB_Micro-B_Molex-105017-0001)
      (datasheet " ~")
      (libsource (lib Connector) (part USB_OTG) (description "USB mini/micro connector"))
      (sheetpath (names /) (tstamps /))
      (tstamp 5E31A436))
    (comp (ref R1)
      (value 1k)
      (footprint Resistor_SMD:R_0805_2012Metric)
      (datasheet ~)
      (libsource (lib Device) (part R_Small) (description "Resistor, small symbol"))
      (sheetpath (names /) (tstamps /))
      (tstamp 5E341246))
    (comp (ref C4)
      (value 100n)
      (footprint Capacitor_SMD:C_0805_2012Metric)
      (datasheet ~)
      (libsource (lib Device) (part C_Small) (description "Unpolarized capacitor, small symbol"))
      (sheetpath (names /) (tstamps /))
      (tstamp 5E38A4E4))
    (comp (ref C6)
      (value 100n)
      (footprint Capacitor_SMD:C_0805_2012Metric)
      (datasheet ~)
      (libsource (lib Device) (part C_Small) (description "Unpolarized capacitor, small symbol"))
      (sheetpath (names /) (tstamps /))
      (tstamp 5E395549))
    (comp (ref C7)
      (value 1u)
      (footprint Capacitor_SMD:C_0805_2012Metric)
      (datasheet ~)
      (libsource (lib Device) (part C_Small) (description "Unpolarized capacitor, small symbol"))
      (sheetpath (names /) (tstamps /))
      (tstamp 5E39A57A))
    (comp (ref C9)
      (value 1u)
      (footprint Capacitor_SMD:C_0805_2012Metric)
      (datasheet ~)
      (libsource (lib Device) (part C_Small) (description "Unpolarized capacitor, small symbol"))
      (sheetpath (names /) (tstamps /))
      (tstamp 5E39EAAE))
    (comp (ref SW1)
      (value SW_Push_Dual)
      (footprint Button:FSM-SWITCH)
      (datasheet ~)
      (libsource (lib Switch) (part SW_Push_Dual) (description "Push button switch, generic, symbol, four pins"))
      (sheetpath (names /) (tstamps /))
      (tstamp 5E2CC88F))
    (comp (ref C2)
      (value 100u)
      (footprint Capacitor_SMD:CP_Elec_6.3x5.4)
      (datasheet ~)
      (libsource (lib Device) (part CP_Small) (description "Polarized capacitor, small symbol"))
      (sheetpath (names /) (tstamps /))
      (tstamp 5E30CA87))
    (comp (ref C10)
      (value 100n)
      (footprint Capacitor_SMD:C_0805_2012Metric)
      (datasheet ~)
      (libsource (lib Device) (part C_Small) (description "Unpolarized capacitor, small symbol"))
      (sheetpath (names /) (tstamps /))
      (tstamp 5E312F9C))
    (comp (ref C5)
      (value 10u)
      (footprint Capacitor_SMD:CP_Elec_6.3x5.4)
      (datasheet ~)
      (libsource (lib Device) (part CP_Small) (description "Polarized capacitor, small symbol"))
      (sheetpath (names /) (tstamps /))
      (tstamp 5E2F7825))
    (comp (ref R3)
      (value 1.6k)
      (footprint Resistor_SMD:R_0805_2012Metric)
      (datasheet ~)
      (libsource (lib Device) (part R_Small) (description "Resistor, small symbol"))
      (sheetpath (names /) (tstamps /))
      (tstamp 5E2FB472))
    (comp (ref C1)
      (value 10u)
      (footprint Capacitor_SMD:CP_Elec_6.3x5.4)
      (datasheet ~)
      (libsource (lib Device) (part CP_Small) (description "Polarized capacitor, small symbol"))
      (sheetpath (names /) (tstamps /))
      (tstamp 5E309CF6))
    (comp (ref C3)
      (value 100n)
      (footprint Capacitor_SMD:C_0805_2012Metric)
      (datasheet ~)
      (libsource (lib Device) (part C_Small) (description "Unpolarized capacitor, small symbol"))
      (sheetpath (names /) (tstamps /))
      (tstamp 5E315A51))
    (comp (ref C11)
      (value 100n)
      (footprint Capacitor_SMD:C_0805_2012Metric)
      (datasheet ~)
      (libsource (lib Device) (part C_Small) (description "Unpolarized capacitor, small symbol"))
      (sheetpath (names /) (tstamps /))
      (tstamp 5E328C7D))
    (comp (ref TP1)
      (value USB_IN)
      (footprint TestPoint:TestPoint_Pad_D1.5mm)
      (datasheet ~)
      (libsource (lib Connector) (part TestPoint) (description "test point"))
      (sheetpath (names /) (tstamps /))
      (tstamp 5E35D44A))
    (comp (ref TP2)
      (value 3.3V)
      (footprint TestPoint:TestPoint_Pad_D1.5mm)
      (datasheet ~)
      (libsource (lib Connector) (part TestPoint) (description "test point"))
      (sheetpath (names /) (tstamps /))
      (tstamp 5E360C8B))
    (comp (ref TP3)
      (value SWCLK)
      (footprint TestPoint:TestPoint_Pad_D1.5mm)
      (datasheet ~)
      (libsource (lib Connector) (part TestPoint) (description "test point"))
      (sheetpath (names /) (tstamps /))
      (tstamp 5E36F0BF))
    (comp (ref TP4)
      (value SWDIO)
      (footprint TestPoint:TestPoint_Pad_D1.5mm)
      (datasheet ~)
      (libsource (lib Connector) (part TestPoint) (description "test point"))
      (sheetpath (names /) (tstamps /))
      (tstamp 5E37206E))
    (comp (ref U1)
      (value LM1117_LAB1_dontuse)
      (footprint Package_TO_SOT_SMD:SOT-223-3_TabPin2)
      (libsource (lib LM1117) (part LM1117_LAB1_dontuse) (description ""))
      (sheetpath (names /) (tstamps /))
      (tstamp 5E3140AA)))
  (libparts
    (libpart (lib Connector) (part Conn_01x06_Male)
      (description "Generic connector, single row, 01x06, script generated (kicad-library-utils/schlib/autogen/connector/)")
      (docs ~)
      (footprints
        (fp Connector*:*_1x??_*))
      (fields
        (field (name Reference) J)
        (field (name Value) Conn_01x06_Male))
      (pins
        (pin (num 1) (name Pin_1) (type passive))
        (pin (num 2) (name Pin_2) (type passive))
        (pin (num 3) (name Pin_3) (type passive))
        (pin (num 4) (name Pin_4) (type passive))
        (pin (num 5) (name Pin_5) (type passive))
        (pin (num 6) (name Pin_6) (type passive))))
    (libpart (lib Connector) (part TestPoint)
      (description "test point")
      (docs ~)
      (footprints
        (fp Pin*)
        (fp Test*))
      (fields
        (field (name Reference) TP)
        (field (name Value) TestPoint))
      (pins
        (pin (num 1) (name 1) (type passive))))
    (libpart (lib Connector) (part USB_OTG)
      (description "USB mini/micro connector")
      (docs " ~")
      (footprints
        (fp USB*))
      (fields
        (field (name Reference) J)
        (field (name Value) USB_OTG))
      (pins
        (pin (num 1) (name VBUS) (type power_in))
        (pin (num 2) (name D-) (type passive))
        (pin (num 3) (name D+) (type passive))
        (pin (num 4) (name ID) (type passive))
        (pin (num 5) (name GND) (type power_in))
        (pin (num 6) (name Shield) (type passive))))
    (libpart (lib Device) (part CP_Small)
      (description "Polarized capacitor, small symbol")
      (docs ~)
      (footprints
        (fp CP_*))
      (fields
        (field (name Reference) C)
        (field (name Value) CP_Small))
      (pins
        (pin (num 1) (name ~) (type passive))
        (pin (num 2) (name ~) (type passive))))
    (libpart (lib Device) (part C_Small)
      (description "Unpolarized capacitor, small symbol")
      (docs ~)
      (footprints
        (fp C_*))
      (fields
        (field (name Reference) C)
        (field (name Value) C_Small))
      (pins
        (pin (num 1) (name ~) (type passive))
        (pin (num 2) (name ~) (type passive))))
    (libpart (lib Device) (part R_Small)
      (description "Resistor, small symbol")
      (docs ~)
      (footprints
        (fp R_*))
      (fields
        (field (name Reference) R)
        (field (name Value) R_Small))
      (pins
        (pin (num 1) (name ~) (type passive))
        (pin (num 2) (name ~) (type passive))))
    (libpart (lib LM1117) (part LM1117_LAB1_dontuse)
      (fields
        (field (name Reference) U)
        (field (name Value) LM1117_LAB1_dontuse))
      (pins
        (pin (num 1) (name ADJ/GND) (type input))
        (pin (num 2) (name Output) (type power_out))
        (pin (num 3) (name INPUT) (type power_in))))
    (libpart (lib Switch) (part SW_Push_Dual)
      (description "Push button switch, generic, symbol, four pins")
      (docs ~)
      (fields
        (field (name Reference) SW)
        (field (name Value) SW_Push_Dual))
      (pins
        (pin (num 1) (name 1) (type passive))
        (pin (num 2) (name 2) (type passive))
        (pin (num 3) (name 3) (type passive))
        (pin (num 4) (name 4) (type passive))))
    (libpart (lib cmwx1zzabz-078) (part CMWX1ZZABZ-078)
      (aliases
        (alias CMWX1ZZABZ-091))
      (description "LoRa/SigFox Module, STM32L082 MCU, muRata CMWX1ZZABZ")
      (docs https://wireless.murata.com/RFM/data/type_abz.pdf)
      (footprints
        (fp CMWX1ZZABZ*))
      (fields
        (field (name Reference) U)
        (field (name Value) CMWX1ZZABZ-078)
        (field (name Footprint) RF_Module:CMWX1ZZABZ))
      (pins
        (pin (num 1) (name PA12/USB_DP) (type BiDi))
        (pin (num 2) (name PA11/USB_DM) (type BiDi))
        (pin (num 3) (name GND) (type power_in))
        (pin (num 4) (name VDD_USB) (type power_in))
        (pin (num 5) (name VDD_MCU) (type power_in))
        (pin (num 6) (name VDD_RF) (type power_in))
        (pin (num 7) (name GND) (type passive))
        (pin (num 8) (name DBG_SX1276_DIO2) (type BiDi))
        (pin (num 9) (name DBG_SX1276_DI03) (type BiDi))
        (pin (num 10) (name SX1276_DIO4) (type BiDi))
        (pin (num 11) (name DBG_SX1276_DIO5) (type BiDi))
        (pin (num 12) (name DBG_SX1276_DIO1) (type BiDi))
        (pin (num 13) (name DBG_SX1276_DIO0) (type BiDi))
        (pin (num 14) (name PB15/SPI2_MOSI) (type BiDi))
        (pin (num 15) (name PB14/SPI2_MISO) (type BiDi))
        (pin (num 16) (name PB13/SPI2_SCK) (type BiDi))
        (pin (num 17) (name PB12/SPI2_NSS) (type BiDi))
        (pin (num 18) (name PA10/USART1_RX) (type BiDi))
        (pin (num 19) (name PA9/USART1_TX) (type BiDi))
        (pin (num 20) (name PA8/MCO) (type BiDi))
        (pin (num 21) (name PA5/ADC5/DAC2) (type BiDi))
        (pin (num 22) (name PA4/ADC4/DAC1) (type BiDi))
        (pin (num 23) (name PA3/ADC3) (type BiDi))
        (pin (num 24) (name PA2/ADC2) (type BiDi))
        (pin (num 25) (name GND) (type passive))
        (pin (num 26) (name ANT) (type passive))
        (pin (num 27) (name GND) (type passive))
        (pin (num 28) (name DBG_CRF1) (type passive))
        (pin (num 29) (name DBG_CRF3) (type passive))
        (pin (num 30) (name DGB_CRF2) (type passive))
        (pin (num 31) (name ~STSAFE_RST) (type passive))
        (pin (num 32) (name VREF+) (type power_in))
        (pin (num 33) (name PA0/WKUP1) (type BiDi))
        (pin (num 34) (name ~MCU_RST) (type input))
        (pin (num 35) (name PB8/I2C1_SCL) (type BiDi))
        (pin (num 36) (name PB9/I2C1_SDA) (type BiDi))
        (pin (num 37) (name PB2/LPTIM1_OUT) (type BiDi))
        (pin (num 38) (name PB7/LPTIM1_IN2) (type BiDi))
        (pin (num 39) (name PB6/LPTIM1_ETR) (type BiDi))
        (pin (num 40) (name PB5/LPTIM1_IN1) (type BiDi))
        (pin (num 41) (name PA13/SWDIO) (type BiDi))
        (pin (num 42) (name PA14/SWCLK) (type BiDi))
        (pin (num 43) (name BOOT0) (type input))
        (pin (num 44) (name GND) (type passive))
        (pin (num 45) (name PH1/OSC_OUT) (type BiDi))
        (pin (num 46) (name PH0/OSC_IN) (type BiDi))
        (pin (num 47) (name TCXO_OUT) (type output))
        (pin (num 48) (name VDD_TCXO) (type power_in))
        (pin (num 49) (name GND) (type passive))
        (pin (num 50) (name GND) (type passive))
        (pin (num 51) (name GND) (type passive))
        (pin (num 52) (name GND) (type passive))
        (pin (num 53) (name GND) (type passive))
        (pin (num 54) (name GND) (type passive))
        (pin (num 55) (name GND) (type passive))
        (pin (num 56) (name GND) (type passive))
        (pin (num 57) (name GND) (type passive)))))
  (libraries
    (library (logical Connector)
      (uri "C:\\Program Files\\KiCad\\share\\kicad\\library/Connector.lib"))
    (library (logical Device)
      (uri "C:\\Program Files\\KiCad\\share\\kicad\\library/Device.lib"))
    (library (logical LM1117)
      (uri "C:/Users/Oscar/Desktop/Inbyggda system/Lab1/Symbols/LM1117.lib"))
    (library (logical Switch)
      (uri "C:\\Program Files\\KiCad\\share\\kicad\\library/Switch.lib"))
    (library (logical cmwx1zzabz-078)
      (uri "C:/Users/Oscar/Desktop/Inbyggda system/course_files_export (1)/KiCad Labs/CMWX1ZZABZ-078_Symbol_and_Footprint/cmwx1zzabz-078.lib")))
  (nets
    (net (code 1) (name /SWDIO)
      (node (ref TP4) (pin 1))
      (node (ref J2) (pin 4))
      (node (ref U2) (pin 41)))
    (net (code 2) (name +3V3)
      (node (ref U2) (pin 5))
      (node (ref U2) (pin 48))
      (node (ref U2) (pin 32))
      (node (ref U2) (pin 4))
      (node (ref R1) (pin 1))
      (node (ref C4) (pin 1))
      (node (ref C5) (pin 1))
      (node (ref C6) (pin 1))
      (node (ref C7) (pin 1))
      (node (ref C9) (pin 1))
      (node (ref C11) (pin 1))
      (node (ref TP2) (pin 1))
      (node (ref U2) (pin 6))
      (node (ref U1) (pin 2))
      (node (ref C2) (pin 1))
      (node (ref C8) (pin 1))
      (node (ref J2) (pin 1)))
    (net (code 3) (name "Net-(U2-Pad45)")
      (node (ref U2) (pin 45)))
    (net (code 4) (name "Net-(U2-Pad46)")
      (node (ref U2) (pin 46)))
    (net (code 5) (name "Net-(U2-Pad8)")
      (node (ref U2) (pin 8)))
    (net (code 6) (name "Net-(U2-Pad18)")
      (node (ref U2) (pin 18)))
    (net (code 7) (name "Net-(U2-Pad2)")
      (node (ref U2) (pin 2)))
    (net (code 8) (name "Net-(U2-Pad1)")
      (node (ref U2) (pin 1)))
    (net (code 9) (name "Net-(U2-Pad47)")
      (node (ref U2) (pin 47)))
    (net (code 10) (name "Net-(U2-Pad31)")
      (node (ref U2) (pin 31)))
    (net (code 11) (name "Net-(U2-Pad26)")
      (node (ref U2) (pin 26)))
    (net (code 12) (name "Net-(U2-Pad11)")
      (node (ref U2) (pin 11)))
    (net (code 13) (name "Net-(U2-Pad10)")
      (node (ref U2) (pin 10)))
    (net (code 14) (name "Net-(U2-Pad9)")
      (node (ref U2) (pin 9)))
    (net (code 15) (name "Net-(U2-Pad19)")
      (node (ref U2) (pin 19)))
    (net (code 16) (name "Net-(U2-Pad12)")
      (node (ref U2) (pin 12)))
    (net (code 17) (name "Net-(U2-Pad13)")
      (node (ref U2) (pin 13)))
    (net (code 18) (name "Net-(U2-Pad29)")
      (node (ref U2) (pin 29)))
    (net (code 19) (name "Net-(U2-Pad30)")
      (node (ref U2) (pin 30)))
    (net (code 20) (name "Net-(U2-Pad28)")
      (node (ref U2) (pin 28)))
    (net (code 21) (name "Net-(U2-Pad14)")
      (node (ref U2) (pin 14)))
    (net (code 22) (name "Net-(U2-Pad15)")
      (node (ref U2) (pin 15)))
    (net (code 23) (name "Net-(U2-Pad16)")
      (node (ref U2) (pin 16)))
    (net (code 24) (name "Net-(J1-Pad2)")
      (node (ref J1) (pin 2)))
    (net (code 25) (name "Net-(J1-Pad3)")
      (node (ref J1) (pin 3)))
    (net (code 26) (name "Net-(J1-Pad4)")
      (node (ref J1) (pin 4)))
    (net (code 27) (name "Net-(J1-Pad6)")
      (node (ref J1) (pin 6)))
    (net (code 28) (name "Net-(U2-Pad33)")
      (node (ref U2) (pin 33)))
    (net (code 29) (name "Net-(U2-Pad24)")
      (node (ref U2) (pin 24)))
    (net (code 30) (name "Net-(U2-Pad23)")
      (node (ref U2) (pin 23)))
    (net (code 31) (name "Net-(U2-Pad22)")
      (node (ref U2) (pin 22)))
    (net (code 32) (name "Net-(U2-Pad21)")
      (node (ref U2) (pin 21)))
    (net (code 33) (name "Net-(U2-Pad20)")
      (node (ref U2) (pin 20)))
    (net (code 34) (name "Net-(C1-Pad1)")
      (node (ref U1) (pin 3))
      (node (ref TP1) (pin 1))
      (node (ref J1) (pin 1))
      (node (ref C3) (pin 1))
      (node (ref C1) (pin 1)))
    (net (code 35) (name /SWCLK)
      (node (ref U2) (pin 42))
      (node (ref TP3) (pin 1))
      (node (ref J2) (pin 2)))
    (net (code 36) (name GND)
      (node (ref U2) (pin 51))
      (node (ref J2) (pin 3))
      (node (ref R2) (pin 2))
      (node (ref C4) (pin 2))
      (node (ref C6) (pin 2))
      (node (ref C9) (pin 2))
      (node (ref C7) (pin 2))
      (node (ref J1) (pin 5))
      (node (ref U2) (pin 3))
      (node (ref U2) (pin 56))
      (node (ref C10) (pin 2))
      (node (ref C2) (pin 2))
      (node (ref U2) (pin 7))
      (node (ref U2) (pin 57))
      (node (ref C11) (pin 2))
      (node (ref C3) (pin 2))
      (node (ref C5) (pin 2))
      (node (ref R3) (pin 2))
      (node (ref C1) (pin 2))
      (node (ref U2) (pin 27))
      (node (ref U2) (pin 25))
      (node (ref C8) (pin 2))
      (node (ref U2) (pin 55))
      (node (ref SW1) (pin 4))
      (node (ref U2) (pin 54))
      (node (ref SW1) (pin 2))
      (node (ref U2) (pin 53))
      (node (ref U2) (pin 52))
      (node (ref U2) (pin 44))
      (node (ref U2) (pin 49))
      (node (ref U2) (pin 50)))
    (net (code 37) (name "Net-(U2-Pad17)")
      (node (ref U2) (pin 17)))
    (net (code 38) (name "Net-(U2-Pad35)")
      (node (ref U2) (pin 35)))
    (net (code 39) (name "Net-(U2-Pad40)")
      (node (ref U2) (pin 40)))
    (net (code 40) (name "Net-(U2-Pad39)")
      (node (ref U2) (pin 39)))
    (net (code 41) (name "Net-(U2-Pad38)")
      (node (ref U2) (pin 38)))
    (net (code 42) (name "Net-(U2-Pad37)")
      (node (ref U2) (pin 37)))
    (net (code 43) (name "Net-(U2-Pad36)")
      (node (ref U2) (pin 36)))
    (net (code 44) (name "Net-(R1-Pad2)")
      (node (ref R3) (pin 1))
      (node (ref R1) (pin 2))
      (node (ref U1) (pin 1)))
    (net (code 45) (name "Net-(R2-Pad1)")
      (node (ref R2) (pin 1))
      (node (ref U2) (pin 43)))
    (net (code 46) (name "Net-(J2-Pad6)")
      (node (ref J2) (pin 6)))
    (net (code 47) (name /RESET)
      (node (ref J2) (pin 5))
      (node (ref SW1) (pin 3))
      (node (ref U2) (pin 34))
      (node (ref C10) (pin 1))
      (node (ref SW1) (pin 1)))))