EESchema Schematic File Version 4
LIBS:Schmitt_button-cache
EELAYER 30 0
EELAYER END
$Descr A4 11693 8268
encoding utf-8
Sheet 1 1
Title ""
Date ""
Rev ""
Comp ""
Comment1 ""
Comment2 ""
Comment3 ""
Comment4 ""
$EndDescr
$Comp
L Amplifier_Operational:MCP6561x-LT U1
U 1 1 5E3409AC
P 5700 4200
F 0 "U1" H 6044 4246 50  0000 L CNN
F 1 "MCP6561x-LT" H 6044 4155 50  0000 L CNN
F 2 "Package_TO_SOT_SMD:SOT-353_SC-70-5" H 5600 4000 50  0001 L CNN
F 3 "http://ww1.microchip.com/downloads/en/DeviceDoc/22139C.pdf" H 5700 4200 50  0001 C CNN
	1    5700 4200
	1    0    0    -1  
$EndComp
$Comp
L Device:C_Small C1
U 1 1 5E3433D1
P 5800 3800
F 0 "C1" V 5571 3800 50  0000 C CNN
F 1 "10n" V 5662 3800 50  0000 C CNN
F 2 "Capacitor_SMD:C_0805_2012Metric" H 5800 3800 50  0001 C CNN
F 3 "~" H 5800 3800 50  0001 C CNN
	1    5800 3800
	0    1    1    0   
$EndComp
$Comp
L power:GND #PWR06
U 1 1 5E344666
P 6050 3800
F 0 "#PWR06" H 6050 3550 50  0001 C CNN
F 1 "GND" H 6050 3850 50  0000 C CNN
F 2 "" H 6050 3800 50  0001 C CNN
F 3 "" H 6050 3800 50  0001 C CNN
	1    6050 3800
	1    0    0    -1  
$EndComp
Wire Wire Line
	5600 3900 5600 3800
Wire Wire Line
	5600 3800 5700 3800
Wire Wire Line
	5900 3800 6050 3800
$Comp
L Device:R_Small R3
U 1 1 5E34793B
P 5600 3250
F 0 "R3" H 5659 3296 50  0000 L CNN
F 1 "10" H 5659 3205 50  0000 L CNN
F 2 "Diode_SMD:D_0805_2012Metric_Pad1.15x1.40mm_HandSolder" H 5600 3250 50  0001 C CNN
F 3 "~" H 5600 3250 50  0001 C CNN
	1    5600 3250
	1    0    0    -1  
$EndComp
Wire Wire Line
	5600 3350 5600 3500
$Comp
L Device:R_Small R4
U 1 1 5E34BDD9
P 6250 3900
F 0 "R4" H 6309 3946 50  0000 L CNN
F 1 "470" H 6309 3855 50  0000 L CNN
F 2 "Diode_SMD:D_0805_2012Metric_Pad1.15x1.40mm_HandSolder" H 6250 3900 50  0001 C CNN
F 3 "~" H 6250 3900 50  0001 C CNN
	1    6250 3900
	1    0    0    -1  
$EndComp
Wire Wire Line
	6250 4200 6250 4000
Wire Wire Line
	6250 3800 6250 3500
Wire Wire Line
	5600 3500 6250 3500
Wire Wire Line
	6000 4200 6250 4200
Connection ~ 6250 4200
Text HLabel 7000 4200 2    50   Input ~ 0
Button_pin
$Comp
L Device:D_Small D2
U 1 1 5E34C79B
P 5200 3800
F 0 "D2" V 5154 3868 50  0000 L CNN
F 1 "D_Small" V 5245 3868 50  0000 L CNN
F 2 "Diode_SMD:D_SOD-123F" V 5200 3800 50  0001 C CNN
F 3 "~" V 5200 3800 50  0001 C CNN
	1    5200 3800
	0    1    1    0   
$EndComp
$Comp
L Device:R_Small R2
U 1 1 5E34DAA9
P 4750 4500
F 0 "R2" H 4809 4546 50  0000 L CNN
F 1 "10k" H 4809 4455 50  0000 L CNN
F 2 "Diode_SMD:D_0805_2012Metric_Pad1.15x1.40mm_HandSolder" H 4750 4500 50  0001 C CNN
F 3 "~" H 4750 4500 50  0001 C CNN
	1    4750 4500
	1    0    0    -1  
$EndComp
$Comp
L Device:R_Small R1
U 1 1 5E34DE29
P 4750 4100
F 0 "R1" H 4809 4146 50  0000 L CNN
F 1 "10k" H 4809 4055 50  0000 L CNN
F 2 "Diode_SMD:D_0805_2012Metric_Pad1.15x1.40mm_HandSolder" H 4750 4100 50  0001 C CNN
F 3 "~" H 4750 4100 50  0001 C CNN
	1    4750 4100
	1    0    0    -1  
$EndComp
$Comp
L power:GND #PWR05
U 1 1 5E34E945
P 5600 4700
F 0 "#PWR05" H 5600 4450 50  0001 C CNN
F 1 "GND" H 5605 4527 50  0000 C CNN
F 2 "" H 5600 4700 50  0001 C CNN
F 3 "" H 5600 4700 50  0001 C CNN
	1    5600 4700
	1    0    0    -1  
$EndComp
$Comp
L Device:D_Small D1
U 1 1 5E34D98E
P 5000 4100
F 0 "D1" V 4954 4168 50  0000 L CNN
F 1 "D_Small" V 5045 4168 50  0000 L CNN
F 2 "Diode_SMD:D_SOD-123F" V 5000 4100 50  0001 C CNN
F 3 "~" V 5000 4100 50  0001 C CNN
	1    5000 4100
	0    1    1    0   
$EndComp
$Comp
L power:+3.3V #PWR04
U 1 1 5E351CA8
P 5200 3550
F 0 "#PWR04" H 5200 3400 50  0001 C CNN
F 1 "+3.3V" H 5215 3723 50  0000 C CNN
F 2 "" H 5200 3550 50  0001 C CNN
F 3 "" H 5200 3550 50  0001 C CNN
	1    5200 3550
	1    0    0    -1  
$EndComp
Wire Wire Line
	5400 4100 5350 4100
Wire Wire Line
	4750 4400 4750 4300
Wire Wire Line
	5000 4300 4750 4300
Connection ~ 4750 4300
Wire Wire Line
	5000 4300 5400 4300
Connection ~ 5000 4300
$Comp
L power:+3.3V #PWR03
U 1 1 5E35B04C
P 4900 3550
F 0 "#PWR03" H 4900 3400 50  0001 C CNN
F 1 "+3.3V" H 4915 3723 50  0000 C CNN
F 2 "" H 4900 3550 50  0001 C CNN
F 3 "" H 4900 3550 50  0001 C CNN
	1    4900 3550
	1    0    0    -1  
$EndComp
Wire Wire Line
	5000 3900 5000 4000
Wire Wire Line
	4750 4200 4750 4300
Wire Wire Line
	5000 4200 5000 4300
Wire Wire Line
	4750 3900 4750 4000
$Comp
L power:GND #PWR02
U 1 1 5E35E962
P 4750 4650
F 0 "#PWR02" H 4750 4400 50  0001 C CNN
F 1 "GND" H 4755 4477 50  0000 C CNN
F 2 "" H 4750 4650 50  0001 C CNN
F 3 "" H 4750 4650 50  0001 C CNN
	1    4750 4650
	1    0    0    -1  
$EndComp
Wire Wire Line
	4750 4650 4750 4600
Wire Wire Line
	5600 4500 5600 4700
Wire Wire Line
	4750 3900 4900 3900
Wire Wire Line
	4900 3550 4900 3900
Connection ~ 4900 3900
Wire Wire Line
	4900 3900 5000 3900
Wire Wire Line
	5350 3900 5350 4100
Wire Wire Line
	5200 3700 5200 3550
$Comp
L power:+3.3V #PWR01
U 1 1 5E367A8C
P 4500 2850
F 0 "#PWR01" H 4500 2700 50  0001 C CNN
F 1 "+3.3V" H 4515 3023 50  0000 C CNN
F 2 "" H 4500 2850 50  0001 C CNN
F 3 "" H 4500 2850 50  0001 C CNN
	1    4500 2850
	1    0    0    -1  
$EndComp
Wire Wire Line
	4500 2850 4500 2950
Wire Wire Line
	4500 2950 4850 2950
Wire Wire Line
	4850 3150 4500 3150
Wire Wire Line
	4500 3150 4500 2950
Connection ~ 4500 2950
Wire Wire Line
	5250 2950 5400 2950
Wire Wire Line
	5600 2950 5600 3150
Wire Wire Line
	5250 3150 5400 3150
Wire Wire Line
	5400 3150 5400 2950
Connection ~ 5400 2950
Wire Wire Line
	5400 2950 5600 2950
$Comp
L Switch:SW_Push_Dual SW1
U 1 1 5E36A6F1
P 5050 2950
F 0 "SW1" H 5050 3235 50  0000 C CNN
F 1 "SW_Push_Dual" H 5050 3144 50  0000 C CNN
F 2 "" H 5050 3150 50  0001 C CNN
F 3 "~" H 5050 3150 50  0001 C CNN
	1    5050 2950
	1    0    0    -1  
$EndComp
Wire Wire Line
	6250 4200 7000 4200
Wire Wire Line
	5200 3900 5350 3900
Wire Wire Line
	5350 3900 5350 3500
Wire Wire Line
	5350 3500 5600 3500
Connection ~ 5350 3900
Connection ~ 5600 3500
$Comp
L power:+3.3V #PWR0101
U 1 1 5E3C06C7
P 5600 3700
F 0 "#PWR0101" H 5600 3550 50  0001 C CNN
F 1 "+3.3V" H 5650 3850 50  0000 C CNN
F 2 "" H 5600 3700 50  0001 C CNN
F 3 "" H 5600 3700 50  0001 C CNN
	1    5600 3700
	1    0    0    -1  
$EndComp
Wire Wire Line
	5600 3700 5600 3800
$EndSCHEMATC
