EESchema Schematic File Version 4
EELAYER 30 0
EELAYER END
$Descr A4 11693 8268
encoding utf-8
Sheet 1 1
Title ""
Date ""
Rev ""
Comp ""
Comment1 ""
Comment2 ""
Comment3 ""
Comment4 ""
$EndDescr
$Comp
L Switch:SW_Reed SW1
U 1 1 5E36DBF6
P 2950 2250
F 0 "SW1" V 2904 2335 50  0000 L CNN
F 1 "SW_Reed" V 2995 2335 50  0000 L CNN
F 2 "Connector_PinSocket_2.54mm:PinSocket_1x02_P2.54mm_Vertical" H 2950 2250 50  0001 C CNN
F 3 "~" H 2950 2250 50  0001 C CNN
	1    2950 2250
	0    1    1    0   
$EndComp
$Comp
L power:+5V #PWR0101
U 1 1 5E36E585
P 2950 1850
F 0 "#PWR0101" H 2950 1700 50  0001 C CNN
F 1 "+5V" H 2965 2023 50  0000 C CNN
F 2 "" H 2950 1850 50  0001 C CNN
F 3 "" H 2950 1850 50  0001 C CNN
	1    2950 1850
	1    0    0    -1  
$EndComp
$Comp
L Transistor_BJT:2N2219 Q1
U 1 1 5E377B6E
P 4100 2450
F 0 "Q1" H 4290 2496 50  0000 L CNN
F 1 "2N2219" H 4290 2405 50  0000 L CNN
F 2 "Package_TO_SOT_THT:TO-39-3" H 4300 2375 50  0001 L CIN
F 3 "http://www.onsemi.com/pub_link/Collateral/2N2219-D.PDF" H 4100 2450 50  0001 L CNN
	1    4100 2450
	1    0    0    -1  
$EndComp
$Comp
L power:GND #PWR0102
U 1 1 5E3795AD
P 4200 2900
F 0 "#PWR0102" H 4200 2650 50  0001 C CNN
F 1 "GND" H 4205 2727 50  0000 C CNN
F 2 "" H 4200 2900 50  0001 C CNN
F 3 "" H 4200 2900 50  0001 C CNN
	1    4200 2900
	1    0    0    -1  
$EndComp
Wire Wire Line
	2950 1850 2950 1950
Wire Wire Line
	4200 2650 4200 2900
$Comp
L Device:R R1
U 1 1 5E37BBD9
P 3450 2450
F 0 "R1" V 3243 2450 50  0000 C CNN
F 1 "2.2k" V 3334 2450 50  0000 C CNN
F 2 "Resistor_SMD:R_0805_2012Metric_Pad1.15x1.40mm_HandSolder" V 3380 2450 50  0001 C CNN
F 3 "~" H 3450 2450 50  0001 C CNN
	1    3450 2450
	0    1    1    0   
$EndComp
Wire Wire Line
	2950 2450 3300 2450
Wire Wire Line
	3600 2450 3900 2450
$Comp
L Device:R R2
U 1 1 5E37C43D
P 4550 2000
F 0 "R2" H 4620 2046 50  0000 L CNN
F 1 "2.2k" H 4620 1955 50  0000 L CNN
F 2 "Resistor_SMD:R_0805_2012Metric_Pad1.15x1.40mm_HandSolder" V 4480 2000 50  0001 C CNN
F 3 "~" H 4550 2000 50  0001 C CNN
	1    4550 2000
	1    0    0    -1  
$EndComp
Wire Wire Line
	4550 2250 4550 2150
$Comp
L power:+3.3V #PWR0103
U 1 1 5E37D22E
P 4550 1750
F 0 "#PWR0103" H 4550 1600 50  0001 C CNN
F 1 "+3.3V" H 4565 1923 50  0000 C CNN
F 2 "" H 4550 1750 50  0001 C CNN
F 3 "" H 4550 1750 50  0001 C CNN
	1    4550 1750
	1    0    0    -1  
$EndComp
Wire Wire Line
	4550 1750 4550 1850
Text Label 5050 2250 0    50   ~ 0
MCU
Wire Wire Line
	4200 2250 4550 2250
Connection ~ 4550 2250
Wire Wire Line
	4550 2250 5050 2250
$Comp
L Device:C C1
U 1 1 5E382849
P 2600 1950
F 0 "C1" V 2852 1950 50  0000 C CNN
F 1 "100n" V 2761 1950 50  0000 C CNN
F 2 "Capacitor_SMD:C_0805_2012Metric_Pad1.15x1.40mm_HandSolder" H 2638 1800 50  0001 C CNN
F 3 "~" H 2600 1950 50  0001 C CNN
	1    2600 1950
	0    -1   -1   0   
$EndComp
$Comp
L Device:C C2
U 1 1 5E38582E
P 4950 1850
F 0 "C2" V 5202 1850 50  0000 C CNN
F 1 "100n" V 5111 1850 50  0000 C CNN
F 2 "Capacitor_SMD:C_0805_2012Metric_Pad1.15x1.40mm_HandSolder" H 4988 1700 50  0001 C CNN
F 3 "~" H 4950 1850 50  0001 C CNN
	1    4950 1850
	0    -1   -1   0   
$EndComp
Wire Wire Line
	2950 1950 2750 1950
Connection ~ 2950 1950
Wire Wire Line
	2950 1950 2950 2050
Wire Wire Line
	4550 1850 4800 1850
Connection ~ 4550 1850
$Comp
L power:GND #PWR0104
U 1 1 5E3872C0
P 5400 1950
F 0 "#PWR0104" H 5400 1700 50  0001 C CNN
F 1 "GND" V 5405 1822 50  0000 R CNN
F 2 "" H 5400 1950 50  0001 C CNN
F 3 "" H 5400 1950 50  0001 C CNN
	1    5400 1950
	1    0    0    -1  
$EndComp
$Comp
L power:GND #PWR0105
U 1 1 5E387B8E
P 2300 2100
F 0 "#PWR0105" H 2300 1850 50  0001 C CNN
F 1 "GND" H 2305 1927 50  0000 C CNN
F 2 "" H 2300 2100 50  0001 C CNN
F 3 "" H 2300 2100 50  0001 C CNN
	1    2300 2100
	1    0    0    -1  
$EndComp
Wire Wire Line
	2450 1950 2300 1950
Wire Wire Line
	2300 1950 2300 2100
Wire Wire Line
	5100 1850 5400 1850
Wire Wire Line
	5400 1850 5400 1950
$EndSCHEMATC
